%!PS-Adobe-3.0 EPSF-3.0
%%Title: ./sik_figures/china_antenna_mro_20190515_10_30_15_more.eps
<<<<<<< HEAD
%%Creator: matplotlib version 3.0.3, http://matplotlib.org/
%%CreationDate: Fri May 24 01:01:57 2019
=======
%%Creator: matplotlib version 2.1.2, http://matplotlib.org/
%%CreationDate: Tue May 21 15:39:51 2019
>>>>>>> updated figures
%%Orientation: portrait
%%BoundingBox: -378 72 990 720
%%EndComments
%%BeginProlog
/mpldict 9 dict def
mpldict begin
/m { moveto } bind def
/l { lineto } bind def
/r { rlineto } bind def
/c { curveto } bind def
/cl { closepath } bind def
/box {
m
1 index 0 r
0 exch r
neg 0 r
cl
} bind def
/clipbox {
box
clip
newpath
} bind def
%!PS-Adobe-3.0 Resource-Font
%%Title: DejaVu Sans
%%Copyright: Copyright (c) 2003 by Bitstream, Inc. All Rights Reserved. Copyright (c) 2006 by Tavmjong Bah. All Rights Reserved. DejaVu changes are in public domain 
%%Creator: Converted from TrueType to type 3 by PPR
25 dict begin
/_d{bind def}bind def
/_m{moveto}_d
/_l{lineto}_d
/_cl{closepath eofill}_d
/_c{curveto}_d
/_sc{7 -1 roll{setcachedevice}{pop pop pop pop pop pop}ifelse}_d
/_e{exec}_d
/FontName /DejaVuSans def
/PaintType 0 def
/FontMatrix[.001 0 0 .001 0 0]def
/FontBBox[-1021 -463 1793 1232]def
/FontType 3 def
/Encoding [ /space /period /zero /one /two /three /four /five /six /seven /eight /nine /A /B /C /F /L /P /S /T /bracketleft /bracketright /a /b /c /d /e /f /g /h /i /l /m /n /o /r /s /t /u /v /w ] def
/FontInfo 10 dict dup begin
/FamilyName (DejaVu Sans) def
/FullName (DejaVu Sans) def
/Notice (Copyright (c) 2003 by Bitstream, Inc. All Rights Reserved. Copyright (c) 2006 by Tavmjong Bah. All Rights Reserved. DejaVu changes are in public domain ) def
/Weight (Book) def
/Version (Version 2.35) def
/ItalicAngle 0.0 def
/isFixedPitch false def
/UnderlinePosition -130 def
/UnderlineThickness 90 def
end readonly def
/CharStrings 42 dict dup begin
/.notdef 0 def
/space{318 0 0 0 0 0 _sc
}_d
/period{318 0 107 0 210 124 _sc
107 124 _m
210 124 _l
210 0 _l
107 0 _l
107 124 _l
_cl}_d
/zero{636 0 66 -13 570 742 _sc
318 664 _m
267 664 229 639 203 589 _c
177 539 165 464 165 364 _c
165 264 177 189 203 139 _c
229 89 267 64 318 64 _c
369 64 407 89 433 139 _c
458 189 471 264 471 364 _c
471 464 458 539 433 589 _c
407 639 369 664 318 664 _c
318 742 _m
399 742 461 709 505 645 _c
548 580 570 486 570 364 _c
570 241 548 147 505 83 _c
461 19 399 -13 318 -13 _c
236 -13 173 19 130 83 _c
87 147 66 241 66 364 _c
66 486 87 580 130 645 _c
173 709 236 742 318 742 _c
_cl}_d
/one{636 0 110 0 544 729 _sc
124 83 _m
285 83 _l
285 639 _l
110 604 _l
110 694 _l
284 729 _l
383 729 _l
383 83 _l
544 83 _l
544 0 _l
124 0 _l
124 83 _l
_cl}_d
/two{{636 0 73 0 536 742 _sc
192 83 _m
536 83 _l
536 0 _l
73 0 _l
73 83 _l
110 121 161 173 226 239 _c
290 304 331 346 348 365 _c
380 400 402 430 414 455 _c
426 479 433 504 433 528 _c
433 566 419 598 392 622 _c
365 646 330 659 286 659 _c
255 659 222 653 188 643 _c
154 632 117 616 78 594 _c
78 694 _l
118 710 155 722 189 730 _c
223 738 255 742 284 742 _c
}_e{359 742 419 723 464 685 _c
509 647 532 597 532 534 _c
532 504 526 475 515 449 _c
504 422 484 390 454 354 _c
446 344 420 317 376 272 _c
332 227 271 164 192 83 _c
_cl}_e}_d
/three{{636 0 76 -13 556 742 _sc
406 393 _m
453 383 490 362 516 330 _c
542 298 556 258 556 212 _c
556 140 531 84 482 45 _c
432 6 362 -13 271 -13 _c
240 -13 208 -10 176 -4 _c
144 1 110 10 76 22 _c
76 117 _l
103 101 133 89 166 81 _c
198 73 232 69 268 69 _c
330 69 377 81 409 105 _c
441 129 458 165 458 212 _c
458 254 443 288 413 312 _c
383 336 341 349 287 349 _c
}_e{202 349 _l
202 430 _l
291 430 _l
339 430 376 439 402 459 _c
428 478 441 506 441 543 _c
441 580 427 609 401 629 _c
374 649 336 659 287 659 _c
260 659 231 656 200 650 _c
169 644 135 635 98 623 _c
98 711 _l
135 721 170 729 203 734 _c
235 739 266 742 296 742 _c
370 742 429 725 473 691 _c
517 657 539 611 539 553 _c
539 513 527 479 504 451 _c
481 423 448 403 406 393 _c
_cl}_e}_d
/four{636 0 49 0 580 729 _sc
378 643 _m
129 254 _l
378 254 _l
378 643 _l
352 729 _m
476 729 _l
476 254 _l
580 254 _l
580 172 _l
476 172 _l
476 0 _l
378 0 _l
378 172 _l
49 172 _l
49 267 _l
352 729 _l
_cl}_d
/five{{636 0 77 -13 549 729 _sc
108 729 _m
495 729 _l
495 646 _l
198 646 _l
198 467 _l
212 472 227 476 241 478 _c
255 480 270 482 284 482 _c
365 482 429 459 477 415 _c
525 370 549 310 549 234 _c
549 155 524 94 475 51 _c
426 8 357 -13 269 -13 _c
238 -13 207 -10 175 -6 _c
143 -1 111 6 77 17 _c
77 116 _l
106 100 136 88 168 80 _c
199 72 232 69 267 69 _c
}_e{323 69 368 83 401 113 _c
433 143 450 183 450 234 _c
450 284 433 324 401 354 _c
368 384 323 399 267 399 _c
241 399 214 396 188 390 _c
162 384 135 375 108 363 _c
108 729 _l
_cl}_e}_d
/six{{636 0 70 -13 573 742 _sc
330 404 _m
286 404 251 388 225 358 _c
199 328 186 286 186 234 _c
186 181 199 139 225 109 _c
251 79 286 64 330 64 _c
374 64 409 79 435 109 _c
461 139 474 181 474 234 _c
474 286 461 328 435 358 _c
409 388 374 404 330 404 _c
526 713 _m
526 623 _l
501 635 476 644 451 650 _c
425 656 400 659 376 659 _c
310 659 260 637 226 593 _c
}_e{192 549 172 482 168 394 _c
187 422 211 444 240 459 _c
269 474 301 482 336 482 _c
409 482 467 459 509 415 _c
551 371 573 310 573 234 _c
573 159 550 99 506 54 _c
462 9 403 -13 330 -13 _c
246 -13 181 19 137 83 _c
92 147 70 241 70 364 _c
70 479 97 571 152 639 _c
206 707 280 742 372 742 _c
396 742 421 739 447 735 _c
472 730 498 723 526 713 _c
_cl}_e}_d
/seven{636 0 82 0 551 729 _sc
82 729 _m
551 729 _l
551 687 _l
286 0 _l
183 0 _l
432 646 _l
82 646 _l
82 729 _l
_cl}_d
/eight{{636 0 68 -13 568 742 _sc
318 346 _m
271 346 234 333 207 308 _c
180 283 167 249 167 205 _c
167 161 180 126 207 101 _c
234 76 271 64 318 64 _c
364 64 401 76 428 102 _c
455 127 469 161 469 205 _c
469 249 455 283 429 308 _c
402 333 365 346 318 346 _c
219 388 _m
177 398 144 418 120 447 _c
96 476 85 511 85 553 _c
85 611 105 657 147 691 _c
188 725 245 742 318 742 _c
}_e{390 742 447 725 489 691 _c
530 657 551 611 551 553 _c
551 511 539 476 515 447 _c
491 418 459 398 417 388 _c
464 377 501 355 528 323 _c
554 291 568 251 568 205 _c
568 134 546 80 503 43 _c
459 5 398 -13 318 -13 _c
237 -13 175 5 132 43 _c
89 80 68 134 68 205 _c
68 251 81 291 108 323 _c
134 355 171 377 219 388 _c
183 544 _m
183 506 194 476 218 455 _c
}_e{242 434 275 424 318 424 _c
360 424 393 434 417 455 _c
441 476 453 506 453 544 _c
453 582 441 611 417 632 _c
393 653 360 664 318 664 _c
275 664 242 653 218 632 _c
194 611 183 582 183 544 _c
_cl}_e}_d
/nine{{636 0 63 -13 566 742 _sc
110 15 _m
110 105 _l
134 93 159 84 185 78 _c
210 72 235 69 260 69 _c
324 69 374 90 408 134 _c
442 178 462 244 468 334 _c
448 306 424 284 396 269 _c
367 254 335 247 300 247 _c
226 247 168 269 126 313 _c
84 357 63 417 63 494 _c
63 568 85 628 129 674 _c
173 719 232 742 306 742 _c
390 742 455 709 499 645 _c
543 580 566 486 566 364 _c
}_e{566 248 538 157 484 89 _c
429 21 356 -13 264 -13 _c
239 -13 214 -10 189 -6 _c
163 -2 137 5 110 15 _c
306 324 _m
350 324 385 339 411 369 _c
437 399 450 441 450 494 _c
450 546 437 588 411 618 _c
385 648 350 664 306 664 _c
262 664 227 648 201 618 _c
175 588 162 546 162 494 _c
162 441 175 399 201 369 _c
227 339 262 324 306 324 _c
_cl}_e}_d
/A{684 0 8 0 676 729 _sc
342 632 _m
208 269 _l
476 269 _l
342 632 _l
286 729 _m
398 729 _l
676 0 _l
573 0 _l
507 187 _l
178 187 _l
112 0 _l
8 0 _l
286 729 _l
_cl}_d
/B{{686 0 98 0 615 729 _sc
197 348 _m
197 81 _l
355 81 _l
408 81 447 92 473 114 _c
498 136 511 169 511 215 _c
511 260 498 293 473 315 _c
447 337 408 348 355 348 _c
197 348 _l
197 648 _m
197 428 _l
343 428 _l
391 428 426 437 450 455 _c
474 473 486 500 486 538 _c
486 574 474 602 450 620 _c
426 638 391 648 343 648 _c
197 648 _l
98 729 _m
350 729 _l
}_e{425 729 483 713 524 682 _c
564 650 585 606 585 549 _c
585 504 574 468 553 442 _c
532 416 502 399 462 393 _c
510 382 548 360 575 327 _c
601 294 615 253 615 204 _c
615 138 592 88 548 53 _c
504 17 441 0 360 0 _c
98 0 _l
98 729 _l
_cl}_e}_d
/C{{698 0 56 -13 644 742 _sc
644 673 _m
644 569 _l
610 599 575 622 537 638 _c
499 653 460 661 418 661 _c
334 661 270 635 226 584 _c
182 533 160 460 160 364 _c
160 268 182 194 226 143 _c
270 92 334 67 418 67 _c
460 67 499 74 537 90 _c
575 105 610 128 644 159 _c
644 56 _l
609 32 572 15 534 4 _c
496 -7 455 -13 412 -13 _c
302 -13 215 20 151 87 _c
}_e{87 154 56 246 56 364 _c
56 481 87 573 151 641 _c
215 708 302 742 412 742 _c
456 742 497 736 535 725 _c
573 713 610 696 644 673 _c
_cl}_e}_d
/F{575 0 98 0 517 729 _sc
98 729 _m
517 729 _l
517 646 _l
197 646 _l
197 431 _l
486 431 _l
486 348 _l
197 348 _l
197 0 _l
98 0 _l
98 729 _l
_cl}_d
/L{557 0 98 0 552 729 _sc
98 729 _m
197 729 _l
197 83 _l
552 83 _l
552 0 _l
98 0 _l
98 729 _l
_cl}_d
/P{603 0 98 0 569 729 _sc
197 648 _m
197 374 _l
321 374 _l
367 374 402 385 427 409 _c
452 433 465 467 465 511 _c
465 555 452 588 427 612 _c
402 636 367 648 321 648 _c
197 648 _l
98 729 _m
321 729 _l
402 729 464 710 506 673 _c
548 636 569 582 569 511 _c
569 439 548 384 506 348 _c
464 311 402 293 321 293 _c
197 293 _l
197 0 _l
98 0 _l
98 729 _l
_cl}_d
/S{{635 0 66 -13 579 742 _sc
535 705 _m
535 609 _l
497 627 462 640 429 649 _c
395 657 363 662 333 662 _c
279 662 237 651 208 631 _c
179 610 165 580 165 542 _c
165 510 174 485 194 469 _c
213 452 250 439 304 429 _c
364 417 _l
437 403 491 378 526 343 _c
561 307 579 260 579 201 _c
579 130 555 77 508 41 _c
460 5 391 -13 300 -13 _c
265 -13 228 -9 189 -2 _c
}_e{150 5 110 16 69 32 _c
69 134 _l
109 111 148 94 186 83 _c
224 71 262 66 300 66 _c
356 66 399 77 430 99 _c
460 121 476 152 476 194 _c
476 230 465 258 443 278 _c
421 298 385 313 335 323 _c
275 335 _l
201 349 148 372 115 404 _c
82 435 66 478 66 534 _c
66 598 88 649 134 686 _c
179 723 242 742 322 742 _c
356 742 390 739 426 733 _c
461 727 497 717 535 705 _c
}_e{_cl}_e}_d
/T{611 0 -2 0 614 729 _sc
-2 729 _m
614 729 _l
614 646 _l
355 646 _l
355 0 _l
256 0 _l
256 646 _l
-2 646 _l
-2 729 _l
_cl}_d
/bracketleft{390 0 86 -131 293 760 _sc
86 760 _m
293 760 _l
293 690 _l
176 690 _l
176 -61 _l
293 -61 _l
293 -131 _l
86 -131 _l
86 760 _l
_cl}_d
/bracketright{390 0 97 -131 304 760 _sc
304 760 _m
304 -131 _l
97 -131 _l
97 -61 _l
214 -61 _l
214 690 _l
97 690 _l
97 760 _l
304 760 _l
_cl}_d
/a{{613 0 60 -13 522 560 _sc
343 275 _m
270 275 220 266 192 250 _c
164 233 150 205 150 165 _c
150 133 160 107 181 89 _c
202 70 231 61 267 61 _c
317 61 357 78 387 114 _c
417 149 432 196 432 255 _c
432 275 _l
343 275 _l
522 312 _m
522 0 _l
432 0 _l
432 83 _l
411 49 385 25 355 10 _c
325 -5 287 -13 243 -13 _c
187 -13 142 2 109 33 _c
76 64 60 106 60 159 _c
}_e{60 220 80 266 122 298 _c
163 329 224 345 306 345 _c
432 345 _l
432 354 _l
432 395 418 427 391 450 _c
364 472 326 484 277 484 _c
245 484 215 480 185 472 _c
155 464 127 453 100 439 _c
100 522 _l
132 534 164 544 195 550 _c
226 556 256 560 286 560 _c
365 560 424 539 463 498 _c
502 457 522 395 522 312 _c
_cl}_e}_d
/b{{635 0 91 -13 580 760 _sc
487 273 _m
487 339 473 390 446 428 _c
418 466 381 485 334 485 _c
286 485 249 466 222 428 _c
194 390 181 339 181 273 _c
181 207 194 155 222 117 _c
249 79 286 61 334 61 _c
381 61 418 79 446 117 _c
473 155 487 207 487 273 _c
181 464 _m
199 496 223 520 252 536 _c
281 552 316 560 356 560 _c
422 560 476 533 518 481 _c
559 428 580 359 580 273 _c
}_e{580 187 559 117 518 65 _c
476 13 422 -13 356 -13 _c
316 -13 281 -5 252 10 _c
223 25 199 49 181 82 _c
181 0 _l
91 0 _l
91 760 _l
181 760 _l
181 464 _l
_cl}_e}_d
/c{{550 0 55 -13 488 560 _sc
488 526 _m
488 442 _l
462 456 437 466 411 473 _c
385 480 360 484 334 484 _c
276 484 230 465 198 428 _c
166 391 150 339 150 273 _c
150 206 166 154 198 117 _c
230 80 276 62 334 62 _c
360 62 385 65 411 72 _c
437 79 462 90 488 104 _c
488 21 _l
462 9 436 0 410 -5 _c
383 -10 354 -13 324 -13 _c
242 -13 176 12 128 64 _c
}_e{79 115 55 185 55 273 _c
55 362 79 432 128 483 _c
177 534 244 560 330 560 _c
358 560 385 557 411 551 _c
437 545 463 537 488 526 _c
_cl}_e}_d
/d{{635 0 55 -13 544 760 _sc
454 464 _m
454 760 _l
544 760 _l
544 0 _l
454 0 _l
454 82 _l
435 49 411 25 382 10 _c
353 -5 319 -13 279 -13 _c
213 -13 159 13 117 65 _c
75 117 55 187 55 273 _c
55 359 75 428 117 481 _c
159 533 213 560 279 560 _c
319 560 353 552 382 536 _c
411 520 435 496 454 464 _c
148 273 _m
148 207 161 155 188 117 _c
215 79 253 61 301 61 _c
}_e{348 61 385 79 413 117 _c
440 155 454 207 454 273 _c
454 339 440 390 413 428 _c
385 466 348 485 301 485 _c
253 485 215 466 188 428 _c
161 390 148 339 148 273 _c
_cl}_e}_d
/e{{615 0 55 -13 562 560 _sc
562 296 _m
562 252 _l
149 252 _l
153 190 171 142 205 110 _c
238 78 284 62 344 62 _c
378 62 412 66 444 74 _c
476 82 509 95 541 113 _c
541 28 _l
509 14 476 3 442 -3 _c
408 -9 373 -13 339 -13 _c
251 -13 182 12 131 62 _c
80 112 55 181 55 268 _c
55 357 79 428 127 481 _c
175 533 241 560 323 560 _c
397 560 455 536 498 489 _c
}_e{540 441 562 377 562 296 _c
472 322 _m
471 371 457 410 431 440 _c
404 469 368 484 324 484 _c
274 484 234 469 204 441 _c
174 413 156 373 152 322 _c
472 322 _l
_cl}_e}_d
/f{352 0 23 0 371 760 _sc
371 760 _m
371 685 _l
285 685 _l
253 685 230 678 218 665 _c
205 652 199 629 199 595 _c
199 547 _l
347 547 _l
347 477 _l
199 477 _l
199 0 _l
109 0 _l
109 477 _l
23 477 _l
23 547 _l
109 547 _l
109 585 _l
109 645 123 690 151 718 _c
179 746 224 760 286 760 _c
371 760 _l
_cl}_d
/g{{635 0 55 -207 544 560 _sc
454 280 _m
454 344 440 395 414 431 _c
387 467 349 485 301 485 _c
253 485 215 467 188 431 _c
161 395 148 344 148 280 _c
148 215 161 165 188 129 _c
215 93 253 75 301 75 _c
349 75 387 93 414 129 _c
440 165 454 215 454 280 _c
544 68 _m
544 -24 523 -93 482 -139 _c
440 -184 377 -207 292 -207 _c
260 -207 231 -204 203 -200 _c
175 -195 147 -188 121 -178 _c
}_e{121 -91 _l
147 -105 173 -115 199 -122 _c
225 -129 251 -133 278 -133 _c
336 -133 380 -117 410 -87 _c
439 -56 454 -10 454 52 _c
454 96 _l
435 64 411 40 382 24 _c
353 8 319 0 279 0 _c
211 0 157 25 116 76 _c
75 127 55 195 55 280 _c
55 364 75 432 116 483 _c
157 534 211 560 279 560 _c
319 560 353 552 382 536 _c
411 520 435 496 454 464 _c
454 547 _l
544 547 _l
}_e{544 68 _l
_cl}_e}_d
/h{634 0 91 0 549 760 _sc
549 330 _m
549 0 _l
459 0 _l
459 327 _l
459 379 448 417 428 443 _c
408 469 378 482 338 482 _c
289 482 251 466 223 435 _c
195 404 181 362 181 309 _c
181 0 _l
91 0 _l
91 760 _l
181 760 _l
181 462 _l
202 494 227 519 257 535 _c
286 551 320 560 358 560 _c
420 560 468 540 500 501 _c
532 462 549 405 549 330 _c
_cl}_d
/i{278 0 94 0 184 760 _sc
94 547 _m
184 547 _l
184 0 _l
94 0 _l
94 547 _l
94 760 _m
184 760 _l
184 646 _l
94 646 _l
94 760 _l
_cl}_d
/l{278 0 94 0 184 760 _sc
94 760 _m
184 760 _l
184 0 _l
94 0 _l
94 760 _l
_cl}_d
/m{{974 0 91 0 889 560 _sc
520 442 _m
542 482 569 511 600 531 _c
631 550 668 560 711 560 _c
767 560 811 540 842 500 _c
873 460 889 403 889 330 _c
889 0 _l
799 0 _l
799 327 _l
799 379 789 418 771 444 _c
752 469 724 482 686 482 _c
639 482 602 466 575 435 _c
548 404 535 362 535 309 _c
535 0 _l
445 0 _l
445 327 _l
445 379 435 418 417 444 _c
398 469 369 482 331 482 _c
}_e{285 482 248 466 221 435 _c
194 404 181 362 181 309 _c
181 0 _l
91 0 _l
91 547 _l
181 547 _l
181 462 _l
201 495 226 520 255 536 _c
283 552 317 560 357 560 _c
397 560 430 550 458 530 _c
486 510 506 480 520 442 _c
_cl}_e}_d
/n{634 0 91 0 549 560 _sc
549 330 _m
549 0 _l
459 0 _l
459 327 _l
459 379 448 417 428 443 _c
408 469 378 482 338 482 _c
289 482 251 466 223 435 _c
195 404 181 362 181 309 _c
181 0 _l
91 0 _l
91 547 _l
181 547 _l
181 462 _l
202 494 227 519 257 535 _c
286 551 320 560 358 560 _c
420 560 468 540 500 501 _c
532 462 549 405 549 330 _c
_cl}_d
/o{612 0 55 -13 557 560 _sc
306 484 _m
258 484 220 465 192 427 _c
164 389 150 338 150 273 _c
150 207 163 156 191 118 _c
219 80 257 62 306 62 _c
354 62 392 80 420 118 _c
448 156 462 207 462 273 _c
462 337 448 389 420 427 _c
392 465 354 484 306 484 _c
306 560 _m
384 560 445 534 490 484 _c
534 433 557 363 557 273 _c
557 183 534 113 490 63 _c
445 12 384 -13 306 -13 _c
227 -13 165 12 121 63 _c
77 113 55 183 55 273 _c
55 363 77 433 121 484 _c
165 534 227 560 306 560 _c
_cl}_d
/r{411 0 91 0 411 560 _sc
411 463 _m
401 469 390 473 378 476 _c
366 478 353 480 339 480 _c
288 480 249 463 222 430 _c
194 397 181 350 181 288 _c
181 0 _l
91 0 _l
91 547 _l
181 547 _l
181 462 _l
199 495 224 520 254 536 _c
284 552 321 560 365 560 _c
371 560 378 559 386 559 _c
393 558 401 557 411 555 _c
411 463 _l
_cl}_d
/s{{521 0 54 -13 472 560 _sc
443 531 _m
443 446 _l
417 458 391 468 364 475 _c
336 481 308 485 279 485 _c
234 485 200 478 178 464 _c
156 450 145 430 145 403 _c
145 382 153 366 169 354 _c
185 342 217 330 265 320 _c
296 313 _l
360 299 405 279 432 255 _c
458 230 472 195 472 151 _c
472 100 452 60 412 31 _c
372 1 316 -13 246 -13 _c
216 -13 186 -10 154 -5 _c
}_e{122 0 89 8 54 20 _c
54 113 _l
87 95 120 82 152 74 _c
184 65 216 61 248 61 _c
290 61 323 68 346 82 _c
368 96 380 117 380 144 _c
380 168 371 187 355 200 _c
339 213 303 226 247 238 _c
216 245 _l
160 257 119 275 95 299 _c
70 323 58 356 58 399 _c
58 450 76 490 112 518 _c
148 546 200 560 268 560 _c
301 560 332 557 362 552 _c
391 547 418 540 443 531 _c
}_e{_cl}_e}_d
/t{392 0 27 0 368 702 _sc
183 702 _m
183 547 _l
368 547 _l
368 477 _l
183 477 _l
183 180 _l
183 135 189 106 201 94 _c
213 81 238 75 276 75 _c
368 75 _l
368 0 _l
276 0 _l
206 0 158 13 132 39 _c
106 65 93 112 93 180 _c
93 477 _l
27 477 _l
27 547 _l
93 547 _l
93 702 _l
183 702 _l
_cl}_d
/u{634 0 85 -13 543 560 _sc
85 216 _m
85 547 _l
175 547 _l
175 219 _l
175 167 185 129 205 103 _c
225 77 255 64 296 64 _c
344 64 383 79 411 110 _c
439 141 453 183 453 237 _c
453 547 _l
543 547 _l
543 0 _l
453 0 _l
453 84 _l
431 50 405 26 377 10 _c
348 -5 315 -13 277 -13 _c
214 -13 166 6 134 45 _c
101 83 85 140 85 216 _c
311 560 _m
311 560 _l
_cl}_d
/v{592 0 30 0 562 547 _sc
30 547 _m
125 547 _l
296 88 _l
467 547 _l
562 547 _l
357 0 _l
235 0 _l
30 547 _l
_cl}_d
/w{818 0 42 0 776 547 _sc
42 547 _m
132 547 _l
244 120 _l
356 547 _l
462 547 _l
574 120 _l
686 547 _l
776 547 _l
633 0 _l
527 0 _l
409 448 _l
291 0 _l
185 0 _l
42 547 _l
_cl}_d
end readonly def

/BuildGlyph
 {exch begin
 CharStrings exch
 2 copy known not{pop /.notdef}if
 true 3 1 roll get exec
 end}_d

/BuildChar {
 1 index /Encoding get exch get
 1 index /BuildGlyph get exec
}_d

FontName currentdict end definefont pop
%!PS-Adobe-3.0 Resource-Font
%%Title: DejaVu Sans Bold
%%Copyright: Copyright (c) 2003 by Bitstream, Inc. All Rights Reserved. Copyright (c) 2006 by Tavmjong Bah. All Rights Reserved. DejaVu changes are in public domain 
%%Creator: Converted from TrueType to type 3 by PPR
25 dict begin
/_d{bind def}bind def
/_m{moveto}_d
/_l{lineto}_d
/_cl{closepath eofill}_d
/_c{curveto}_d
/_sc{7 -1 roll{setcachedevice}{pop pop pop pop pop pop}ifelse}_d
/_e{exec}_d
/FontName /DejaVuSans-Bold def
/PaintType 0 def
/FontMatrix[.001 0 0 .001 0 0]def
/FontBBox[-1069 -415 1975 1174]def
/FontType 3 def
/Encoding [ /space /A /K /M /P /S /a /c /d /e /h /i /l /m /n /o /r /t /u /w ] def
/FontInfo 10 dict dup begin
/FamilyName (DejaVu Sans) def
/FullName (DejaVu Sans Bold) def
/Notice (Copyright (c) 2003 by Bitstream, Inc. All Rights Reserved. Copyright (c) 2006 by Tavmjong Bah. All Rights Reserved. DejaVu changes are in public domain ) def
/Weight (Bold) def
/Version (Version 2.35) def
/ItalicAngle 0.0 def
/isFixedPitch false def
/UnderlinePosition -130 def
/UnderlineThickness 90 def
end readonly def
/CharStrings 21 dict dup begin
/.notdef 0 def
/space{348 0 0 0 0 0 _sc
}_d
/A{774 0 5 0 769 729 _sc
534 133 _m
240 133 _l
194 0 _l
5 0 _l
275 729 _l
499 729 _l
769 0 _l
580 0 _l
534 133 _l
287 268 _m
487 268 _l
387 558 _l
287 268 _l
_cl}_d
/K{775 0 92 0 805 729 _sc
92 729 _m
280 729 _l
280 463 _l
551 729 _l
769 729 _l
418 384 _l
805 0 _l
570 0 _l
280 287 _l
280 0 _l
92 0 _l
92 729 _l
_cl}_d
/M{995 0 92 0 903 729 _sc
92 729 _m
331 729 _l
497 339 _l
664 729 _l
903 729 _l
903 0 _l
725 0 _l
725 533 _l
557 140 _l
438 140 _l
270 533 _l
270 0 _l
92 0 _l
92 729 _l
_cl}_d
/P{733 0 92 0 692 729 _sc
92 729 _m
404 729 _l
496 729 567 708 617 667 _c
667 625 692 567 692 491 _c
692 414 667 355 617 314 _c
567 273 496 253 404 253 _c
280 253 _l
280 0 _l
92 0 _l
92 729 _l
280 593 _m
280 389 _l
384 389 _l
420 389 448 397 468 415 _c
488 433 498 458 498 491 _c
498 523 488 548 468 566 _c
448 584 420 593 384 593 _c
280 593 _l
_cl}_d
/S{{720 0 72 -13 647 742 _sc
599 706 _m
599 552 _l
559 570 520 583 482 592 _c
444 601 408 606 374 606 _c
329 606 296 599 274 587 _c
252 575 242 556 242 530 _c
242 510 249 494 264 484 _c
278 473 305 464 343 456 _c
423 440 _l
503 424 561 399 595 366 _c
629 332 647 285 647 224 _c
647 144 623 84 575 45 _c
527 6 455 -13 357 -13 _c
311 -13 264 -8 218 0 _c
}_e{171 8 124 20 78 38 _c
78 197 _l
124 172 169 153 213 141 _c
256 128 298 122 339 122 _c
379 122 411 128 433 142 _c
455 156 466 175 466 201 _c
466 223 458 241 443 253 _c
428 265 399 277 355 287 _c
282 303 _l
209 319 156 344 122 378 _c
88 412 72 458 72 516 _c
72 588 95 644 142 683 _c
188 722 256 742 344 742 _c
384 742 425 739 467 733 _c
509 727 553 718 599 706 _c
}_e{_cl}_e}_d
/a{{675 0 43 -13 596 560 _sc
329 246 _m
292 246 264 239 246 227 _c
228 215 219 197 219 173 _c
219 151 226 133 241 121 _c
256 108 277 102 303 102 _c
336 102 364 113 386 137 _c
408 161 420 190 420 226 _c
420 246 _l
329 246 _l
596 312 _m
596 0 _l
420 0 _l
420 81 _l
396 47 370 23 341 9 _c
311 -5 276 -13 234 -13 _c
177 -13 131 3 96 36 _c
60 68 43 111 43 164 _c
}_e{43 228 65 275 109 305 _c
153 335 222 350 317 350 _c
420 350 _l
420 364 _l
420 391 409 411 387 424 _c
365 437 331 444 285 444 _c
247 444 212 440 180 432 _c
148 424 118 413 91 399 _c
91 532 _l
128 541 165 548 203 553 _c
241 557 279 560 317 560 _c
415 560 486 540 530 501 _c
574 462 596 399 596 312 _c
_cl}_e}_d
/c{{593 0 43 -13 526 560 _sc
526 530 _m
526 387 _l
502 403 478 415 454 423 _c
430 431 405 435 380 435 _c
331 435 293 420 266 392 _c
238 364 225 324 225 273 _c
225 221 238 181 266 153 _c
293 125 331 111 380 111 _c
407 111 433 115 458 123 _c
482 131 505 143 526 159 _c
526 16 _l
498 6 470 -1 442 -6 _c
414 -10 386 -13 358 -13 _c
259 -13 182 12 126 62 _c
}_e{70 112 43 183 43 273 _c
43 363 70 433 126 484 _c
182 534 259 560 358 560 _c
386 560 414 557 442 552 _c
470 547 498 540 526 530 _c
_cl}_e}_d
/d{{716 0 45 -13 632 760 _sc
456 467 _m
456 760 _l
632 760 _l
632 0 _l
456 0 _l
456 79 _l
432 47 405 23 376 9 _c
347 -5 314 -13 276 -13 _c
208 -13 153 13 110 66 _c
66 119 45 188 45 273 _c
45 357 66 425 110 479 _c
153 533 208 560 276 560 _c
314 560 347 552 376 537 _c
405 522 432 499 456 467 _c
341 113 _m
378 113 406 126 426 154 _c
446 181 456 221 456 273 _c
}_e{456 325 446 364 426 392 _c
406 419 378 433 341 433 _c
303 433 275 419 255 392 _c
235 364 226 325 226 273 _c
226 221 235 181 255 154 _c
275 126 303 113 341 113 _c
_cl}_e}_d
/e{{678 0 43 -13 630 560 _sc
630 275 _m
630 225 _l
221 225 _l
225 184 240 153 266 133 _c
291 112 326 102 372 102 _c
408 102 446 107 485 118 _c
523 129 563 146 604 168 _c
604 33 _l
562 17 521 6 480 -1 _c
438 -9 397 -13 356 -13 _c
257 -13 180 12 125 62 _c
70 112 43 182 43 273 _c
43 362 70 432 124 483 _c
178 534 252 560 346 560 _c
432 560 500 534 552 482 _c
}_e{604 430 630 361 630 275 _c
450 333 _m
450 366 440 393 421 413 _c
401 433 376 444 345 444 _c
311 444 283 434 262 415 _c
241 396 228 369 223 333 _c
450 333 _l
_cl}_e}_d
/h{712 0 84 0 634 760 _sc
634 333 _m
634 0 _l
458 0 _l
458 54 _l
458 254 _l
458 302 457 334 455 352 _c
453 370 449 383 444 392 _c
437 403 428 412 416 418 _c
404 424 390 428 376 428 _c
339 428 310 414 290 386 _c
269 358 259 319 259 269 _c
259 0 _l
84 0 _l
84 760 _l
259 760 _l
259 467 _l
285 499 312 522 342 537 _c
372 552 405 560 441 560 _c
504 560 552 540 585 502 _c
617 463 634 407 634 333 _c
_cl}_d
/i{343 0 84 0 259 760 _sc
84 547 _m
259 547 _l
259 0 _l
84 0 _l
84 547 _l
84 760 _m
259 760 _l
259 617 _l
84 617 _l
84 760 _l
_cl}_d
/l{343 0 84 0 259 760 _sc
84 760 _m
259 760 _l
259 0 _l
84 0 _l
84 760 _l
_cl}_d
/m{{1042 0 83 0 963 560 _sc
591 456 _m
613 490 639 515 669 533 _c
699 551 733 560 770 560 _c
832 560 880 540 913 502 _c
946 463 963 407 963 333 _c
963 0 _l
787 0 _l
787 285 _l
787 289 788 294 788 298 _c
788 302 788 309 788 318 _c
788 356 782 384 771 402 _c
759 419 741 428 716 428 _c
682 428 657 414 639 387 _c
621 359 611 320 611 269 _c
611 0 _l
435 0 _l
435 285 _l
}_e{435 345 429 384 419 402 _c
409 419 390 428 364 428 _c
330 428 304 414 286 387 _c
268 359 259 320 259 269 _c
259 0 _l
83 0 _l
83 547 _l
259 547 _l
259 467 _l
280 497 305 520 333 536 _c
361 552 391 560 425 560 _c
462 560 495 550 524 532 _c
553 514 575 488 591 456 _c
_cl}_e}_d
/n{712 0 84 0 634 560 _sc
634 333 _m
634 0 _l
458 0 _l
458 54 _l
458 255 _l
458 302 457 334 455 352 _c
453 370 449 383 444 392 _c
437 403 428 412 416 418 _c
404 424 390 428 376 428 _c
339 428 310 414 290 386 _c
269 358 259 319 259 269 _c
259 0 _l
84 0 _l
84 547 _l
259 547 _l
259 467 _l
285 499 312 522 342 537 _c
372 552 405 560 441 560 _c
504 560 552 540 585 502 _c
617 463 634 407 634 333 _c
_cl}_d
/o{687 0 43 -13 644 560 _sc
344 435 _m
305 435 275 421 255 393 _c
235 365 225 325 225 273 _c
225 220 235 180 255 152 _c
275 124 305 111 344 111 _c
382 111 411 124 431 152 _c
451 180 462 220 462 273 _c
462 325 451 365 431 393 _c
411 421 382 435 344 435 _c
344 560 _m
438 560 511 534 564 484 _c
617 433 644 363 644 273 _c
644 183 617 112 564 62 _c
511 12 438 -13 344 -13 _c
250 -13 176 12 123 62 _c
69 112 43 183 43 273 _c
43 363 69 433 123 484 _c
176 534 250 560 344 560 _c
_cl}_d
/r{493 0 84 0 490 560 _sc
490 398 _m
474 405 459 410 444 414 _c
429 417 414 419 399 419 _c
354 419 319 404 295 376 _c
271 347 259 306 259 252 _c
259 0 _l
84 0 _l
84 547 _l
259 547 _l
259 457 _l
281 493 306 519 336 535 _c
365 551 400 560 441 560 _c
447 560 453 559 460 559 _c
466 559 476 558 490 556 _c
490 398 _l
_cl}_d
/t{478 0 13 0 455 702 _sc
275 702 _m
275 547 _l
455 547 _l
455 422 _l
275 422 _l
275 190 _l
275 164 280 147 290 138 _c
300 129 320 125 350 125 _c
440 125 _l
440 0 _l
290 0 _l
221 0 172 14 143 43 _c
114 71 100 120 100 190 _c
100 422 _l
13 422 _l
13 547 _l
100 547 _l
100 702 _l
275 702 _l
_cl}_d
/u{{712 0 78 -13 628 547 _sc
78 213 _m
78 547 _l
254 547 _l
254 492 _l
254 462 253 425 253 380 _c
253 335 253 305 253 291 _c
253 247 254 215 256 196 _c
258 176 262 162 268 154 _c
275 142 284 133 296 127 _c
307 121 320 118 336 118 _c
372 118 401 132 422 160 _c
442 188 453 227 453 277 _c
453 547 _l
628 547 _l
628 0 _l
453 0 _l
453 79 _l
427 47 399 23 369 9 _c
}_e{339 -5 307 -13 272 -13 _c
208 -13 160 6 127 44 _c
94 82 78 139 78 213 _c
_cl}_e}_d
/w{924 0 35 0 889 547 _sc
35 547 _m
205 547 _l
297 170 _l
389 547 _l
535 547 _l
627 174 _l
719 547 _l
889 547 _l
745 0 _l
554 0 _l
462 376 _l
370 0 _l
179 0 _l
35 547 _l
_cl}_d
end readonly def

/BuildGlyph
 {exch begin
 CharStrings exch
 2 copy known not{pop /.notdef}if
 true 3 1 roll get exec
 end}_d

/BuildChar {
 1 index /Encoding get exch get
 1 index /BuildGlyph get exec
}_d

FontName currentdict end definefont pop
end
%%EndProlog
mpldict begin
-378 72 translate
1368 648 0 0 clipbox
gsave
0 0 m
1368 0 l
1368 648 l
0 648 l
cl
1.000 setgray
fill
grestore
gsave
171 343.44 m
1231.2 343.44 l
1231.2 570.24 l
171 570.24 l
cl
1.000 setgray
fill
grestore
1.000 setlinewidth
0 setlinejoin
0 setlinecap
[] 0 setdash
0.230 0.322 0.546 setrgbcolor
gsave
1060 226.8 171 343.4 clipbox
171 343.44 m
171 570.24 l
309.922759 570.24 l
309.922759 343.44 l
cl
gsave
fill
grestore
stroke
grestore
0.222 0.339 0.549 setrgbcolor
gsave
1060 226.8 171 343.4 clipbox
309.922759 343.44 m
309.922759 570.24 l
443.361724 570.24 l
443.361724 343.44 l
cl
gsave
fill
grestore
stroke
grestore
0.212 0.360 0.552 setrgbcolor
gsave
1060 226.8 171 343.4 clipbox
443.361724 343.44 m
443.361724 570.24 l
618.843103 570.24 l
618.843103 343.44 l
cl
gsave
fill
grestore
stroke
grestore
0.203 0.380 0.554 setrgbcolor
gsave
1060 226.8 171 343.4 clipbox
618.843103 343.44 m
618.843103 570.24 l
669.111207 570.24 l
669.111207 343.44 l
cl
gsave
fill
grestore
stroke
grestore
0.194 0.399 0.556 setrgbcolor
gsave
1060 226.8 171 343.4 clipbox
669.111207 343.44 m
669.111207 570.24 l
734.916724 570.24 l
734.916724 343.44 l
cl
gsave
fill
grestore
stroke
grestore
0.186 0.419 0.557 setrgbcolor
gsave
1060 226.8 171 343.4 clipbox
734.916724 343.44 m
734.916724 570.24 l
787.012759 570.24 l
787.012759 343.44 l
cl
gsave
fill
grestore
stroke
grestore
0.179 0.434 0.557 setrgbcolor
gsave
1060 226.8 171 343.4 clipbox
787.012759 343.44 m
787.012759 570.24 l
840.022759 570.24 l
840.022759 343.44 l
cl
gsave
fill
grestore
stroke
grestore
0.156 0.490 0.558 setrgbcolor
gsave
1060 226.8 171 343.4 clipbox
840.022759 343.44 m
840.022759 570.24 l
933.247241 570.24 l
933.247241 343.44 l
cl
gsave
fill
grestore
stroke
grestore
0.119 0.611 0.539 setrgbcolor
gsave
1060 226.8 171 343.4 clipbox
933.247241 343.44 m
933.247241 570.24 l
951.526552 570.24 l
951.526552 343.44 l
cl
gsave
fill
grestore
stroke
grestore
0.156 0.490 0.558 setrgbcolor
gsave
1060 226.8 171 343.4 clipbox
951.526552 343.44 m
951.526552 570.24 l
978.945517 570.24 l
978.945517 343.44 l
cl
gsave
fill
grestore
stroke
grestore
0.149 0.508 0.557 setrgbcolor
gsave
1060 226.8 171 343.4 clipbox
978.945517 343.44 m
978.945517 570.24 l
1004.536552 570.24 l
1004.536552 343.44 l
cl
gsave
fill
grestore
stroke
grestore
0.142 0.526 0.556 setrgbcolor
gsave
1060 226.8 171 343.4 clipbox
1004.536552 343.44 m
1004.536552 570.24 l
1044.751034 570.24 l
1044.751034 343.44 l
cl
gsave
fill
grestore
stroke
grestore
0.136 0.541 0.554 setrgbcolor
gsave
1060 226.8 171 343.4 clipbox
1044.751034 343.44 m
1044.751034 570.24 l
1095.933103 570.24 l
1095.933103 343.44 l
cl
gsave
fill
grestore
stroke
grestore
0.130 0.560 0.552 setrgbcolor
gsave
1060 226.8 171 343.4 clipbox
1095.933103 343.44 m
1095.933103 570.24 l
1139.803448 570.24 l
1139.803448 343.44 l
cl
gsave
fill
grestore
stroke
grestore
0.121 0.596 0.544 setrgbcolor
gsave
1060 226.8 171 343.4 clipbox
1139.803448 343.44 m
1139.803448 570.24 l
1154.426897 570.24 l
1154.426897 343.44 l
cl
gsave
fill
grestore
stroke
grestore
0.119 0.611 0.539 setrgbcolor
gsave
1060 226.8 171 343.4 clipbox
1154.426897 343.44 m
1154.426897 570.24 l
1231.2 570.24 l
1231.2 343.44 l
cl
gsave
fill
grestore
stroke
grestore
0.800 setlinewidth
1 setlinejoin
2 setlinecap
[] 0 setdash
0.000 setgray
gsave
1060 226.8 171 343.4 clipbox
171 349.127486 m
1231.2 349.127486 l
stroke
grestore
0 setlinecap
gsave
/o {
gsave
newpath
translate
0.8 setlinewidth
1 setlinejoin
0 setlinecap
0 0 m
-3.5 0 l

gsave
0.000 setgray
fill
grestore
stroke
grestore
} bind def
171 349.127 o
grestore
/DejaVuSans findfont
10.000 scalefont
setfont
gsave
148.093750 345.330611 translate
0.000000 rotate
0.000000 0.000000 m /zero glyphshow
6.362305 0.000000 m /period glyphshow
9.541016 0.000000 m /zero glyphshow
grestore
2 setlinecap
gsave
1060 226.8 171 343.4 clipbox
171 376.028662 m
1231.2 376.028662 l
stroke
grestore
0 setlinecap
gsave
/o {
gsave
newpath
translate
0.8 setlinewidth
1 setlinejoin
0 setlinecap
0 0 m
-3.5 0 l

gsave
0.000 setgray
fill
grestore
stroke
grestore
} bind def
171 376.029 o
grestore
gsave
148.093750 372.231787 translate
0.000000 rotate
0.000000 0.000000 m /two glyphshow
6.362305 0.000000 m /period glyphshow
9.541016 0.000000 m /five glyphshow
grestore
2 setlinecap
gsave
1060 226.8 171 343.4 clipbox
171 402.929837 m
1231.2 402.929837 l
stroke
grestore
0 setlinecap
gsave
/o {
gsave
newpath
translate
0.8 setlinewidth
1 setlinejoin
0 setlinecap
0 0 m
-3.5 0 l

gsave
0.000 setgray
fill
grestore
stroke
grestore
} bind def
171 402.93 o
grestore
gsave
148.093750 399.132962 translate
0.000000 rotate
0.000000 0.000000 m /five glyphshow
6.362305 0.000000 m /period glyphshow
9.541016 0.000000 m /zero glyphshow
grestore
2 setlinecap
gsave
1060 226.8 171 343.4 clipbox
171 429.831013 m
1231.2 429.831013 l
stroke
grestore
0 setlinecap
gsave
/o {
gsave
newpath
translate
0.8 setlinewidth
1 setlinejoin
0 setlinecap
0 0 m
-3.5 0 l

gsave
0.000 setgray
fill
grestore
stroke
grestore
} bind def
171 429.831 o
grestore
gsave
148.093750 426.034138 translate
0.000000 rotate
0.000000 0.000000 m /seven glyphshow
6.362305 0.000000 m /period glyphshow
9.541016 0.000000 m /five glyphshow
grestore
2 setlinecap
gsave
1060 226.8 171 343.4 clipbox
171 456.732189 m
1231.2 456.732189 l
stroke
grestore
0 setlinecap
gsave
/o {
gsave
newpath
translate
0.8 setlinewidth
1 setlinejoin
0 setlinecap
0 0 m
-3.5 0 l

gsave
0.000 setgray
fill
grestore
stroke
grestore
} bind def
171 456.732 o
grestore
gsave
141.734375 452.935314 translate
0.000000 rotate
0.000000 0.000000 m /one glyphshow
6.362305 0.000000 m /zero glyphshow
12.724609 0.000000 m /period glyphshow
15.903320 0.000000 m /zero glyphshow
grestore
2 setlinecap
gsave
1060 226.8 171 343.4 clipbox
171 483.633365 m
1231.2 483.633365 l
stroke
grestore
0 setlinecap
gsave
/o {
gsave
newpath
translate
0.8 setlinewidth
1 setlinejoin
0 setlinecap
0 0 m
-3.5 0 l

gsave
0.000 setgray
fill
grestore
stroke
grestore
} bind def
171 483.633 o
grestore
gsave
141.734375 479.836490 translate
0.000000 rotate
0.000000 0.000000 m /one glyphshow
6.362305 0.000000 m /two glyphshow
12.724609 0.000000 m /period glyphshow
15.903320 0.000000 m /five glyphshow
grestore
2 setlinecap
gsave
1060 226.8 171 343.4 clipbox
171 510.53454 m
1231.2 510.53454 l
stroke
grestore
0 setlinecap
gsave
/o {
gsave
newpath
translate
0.8 setlinewidth
1 setlinejoin
0 setlinecap
0 0 m
-3.5 0 l

gsave
0.000 setgray
fill
grestore
stroke
grestore
} bind def
171 510.535 o
grestore
gsave
141.734375 506.737665 translate
0.000000 rotate
0.000000 0.000000 m /one glyphshow
6.362305 0.000000 m /five glyphshow
12.724609 0.000000 m /period glyphshow
15.903320 0.000000 m /zero glyphshow
grestore
2 setlinecap
gsave
1060 226.8 171 343.4 clipbox
171 537.435716 m
1231.2 537.435716 l
stroke
grestore
0 setlinecap
gsave
/o {
gsave
newpath
translate
0.8 setlinewidth
1 setlinejoin
0 setlinecap
0 0 m
-3.5 0 l

gsave
0.000 setgray
fill
grestore
stroke
grestore
} bind def
171 537.436 o
grestore
gsave
141.734375 533.638841 translate
0.000000 rotate
0.000000 0.000000 m /one glyphshow
6.362305 0.000000 m /seven glyphshow
12.724609 0.000000 m /period glyphshow
15.903320 0.000000 m /five glyphshow
grestore
2 setlinecap
gsave
1060 226.8 171 343.4 clipbox
171 564.336892 m
1231.2 564.336892 l
stroke
grestore
0 setlinecap
gsave
/o {
gsave
newpath
translate
0.8 setlinewidth
1 setlinejoin
0 setlinecap
0 0 m
-3.5 0 l

gsave
0.000 setgray
fill
grestore
stroke
grestore
} bind def
171 564.337 o
grestore
gsave
141.734375 560.540017 translate
0.000000 rotate
0.000000 0.000000 m /two glyphshow
6.362305 0.000000 m /zero glyphshow
12.724609 0.000000 m /period glyphshow
15.903320 0.000000 m /zero glyphshow
grestore
gsave
135.656250 359.886875 translate
90.000000 rotate
0.000000 0.000000 m /P glyphshow
6.030273 0.000000 m /e glyphshow
12.182617 0.000000 m /r glyphshow
16.293945 0.000000 m /i glyphshow
19.072266 0.000000 m /o glyphshow
25.190430 0.000000 m /d glyphshow
31.538086 0.000000 m /space glyphshow
34.716797 0.000000 m /b glyphshow
41.064453 0.000000 m /e glyphshow
47.216797 0.000000 m /t glyphshow
51.137695 0.000000 m /w glyphshow
59.316406 0.000000 m /e glyphshow
65.468750 0.000000 m /e glyphshow
71.621094 0.000000 m /n glyphshow
77.958984 0.000000 m /space glyphshow
81.137695 0.000000 m /r glyphshow
85.249023 0.000000 m /e glyphshow
91.401367 0.000000 m /c glyphshow
96.899414 0.000000 m /e glyphshow
103.051758 0.000000 m /i glyphshow
105.830078 0.000000 m /v glyphshow
111.748047 0.000000 m /e glyphshow
117.900391 0.000000 m /d glyphshow
124.248047 0.000000 m /space glyphshow
127.426758 0.000000 m /m glyphshow
137.167969 0.000000 m /e glyphshow
143.320312 0.000000 m /s glyphshow
148.530273 0.000000 m /s glyphshow
153.740234 0.000000 m /a glyphshow
159.868164 0.000000 m /g glyphshow
166.215820 0.000000 m /e glyphshow
172.368164 0.000000 m /s glyphshow
177.578125 0.000000 m /space glyphshow
180.756836 0.000000 m /bracketleft glyphshow
184.658203 0.000000 m /s glyphshow
189.868164 0.000000 m /bracketright glyphshow
grestore
1.500 setlinewidth
2 setlinecap
1.000 0.647 0.000 setrgbcolor
gsave
1060 226.8 171 343.4 clipbox
172.221215 356.315613 m
173.152363 354.608866 l
174.011391 354.184325 l
174.962591 354.726907 l
175.83995 354.292227 l
176.808464 354.828836 l
177.740703 354.615287 l
178.600419 354.188373 l
179.568817 354.828146 l
180.501438 354.61754 l
181.470537 354.832274 l
182.256367 353.753432 l
183.188767 354.616234 l
184.102625 354.507092 l
185.034606 354.613768 l
185.912259 354.293961 l
186.844582 354.615787 l
189.623014 354.616824 l
190.591883 354.830925 l
191.432681 354.077007 l
192.309986 354.291911 l
193.278447 354.828518 l
194.211128 354.617891 l
195.070347 354.185448 l
196.020105 354.71842 l
196.898246 354.296829 l
197.866969 354.830065 l
198.79937 354.616244 l
199.676463 354.290659 l
200.626582 354.720547 l
201.504719 354.296811 l
202.455076 354.721948 l
203.314168 354.184697 l
204.283141 354.831533 l
205.160592 354.292771 l
206.092803 354.615128 l
207.061553 354.830219 l
207.902368 354.077102 l
208.871133 354.830312 l
209.803457 354.615792 l
210.772344 354.831027 l
211.649717 354.292312 l
212.490146 354.074835 l
213.459319 354.832708 l
214.391165 354.612978 l
215.359719 354.82907 l
216.145913 353.755569 l
217.096149 354.721234 l
218.997833 354.729672 l
219.801481 353.858319 l
220.752422 354.725385 l
222.580351 354.402625 l
223.531262 354.725206 l
224.37136 354.072885 l
225.340443 354.832179 l
226.27308 354.617637 l
227.241938 354.830855 l
228.118596 354.288102 l
228.95949 354.077574 l
229.928882 354.833998 l
230.806298 354.292563 l
231.830061 355.154067 l
232.762189 354.614638 l
233.547629 353.75113 l
234.46099 354.504163 l
236.362023 354.823554 l
237.203457 354.080748 l
238.154316 354.7249 l
239.049622 354.397879 l
240.950273 354.828541 l
241.80933 354.184489 l
242.742379 354.620059 l
243.710567 354.826912 l
244.588644 354.296457 l
245.538369 354.718228 l
246.398665 354.191783 l
247.330786 354.614599 l
248.298721 354.825422 l
249.231326 354.617447 l
250.017845 353.757483 l
250.986673 354.830678 l
251.863572 354.28952 l
252.831737 354.826779 l
253.710426 354.300059 l
254.605727 354.397846 l
255.574581 354.830832 l
256.452188 354.293689 l
257.420999 354.830581 l
258.261744 354.076694 l
259.212361 354.723479 l
260.107382 354.396199 l
262.008718 354.826448 l
262.868312 354.187652 l
263.818899 354.7233 l
264.714521 354.399739 l
266.614793 354.825917 l
267.456489 354.082295 l
268.424396 354.825255 l
269.302706 354.29783 l
270.234912 354.615095 l
271.112174 354.291663 l
272.044405 354.615243 l
272.921743 354.292104 l
273.890768 354.831843 l
274.822889 354.614594 l
275.699678 354.288874 l
276.632242 354.617206 l
277.546604 354.510056 l
278.477996 354.610302 l
279.337235 354.185564 l
280.287763 354.722951 l
283.139299 354.725824 l
283.925106 353.753291 l
284.893546 354.8284 l
285.770883 354.292096 l
286.794924 355.155701 l
287.728241 354.621642 l
288.514175 353.754035 l
289.427698 354.505117 l
291.329214 354.831053 l
292.169362 354.073177 l
293.102178 354.618689 l
294.016159 354.507813 l
295.916186 354.828292 l
296.757597 354.080615 l
297.690371 354.618437 l
298.604372 354.507929 l
299.535236 354.607201 l
300.504772 354.834845 l
301.346323 354.081443 l
302.223704 354.292355 l
303.191733 354.825976 l
304.124754 354.619895 l
305.002156 354.292483 l
305.952664 354.722838 l
306.830117 354.292781 l
307.780516 354.722191 l
308.730237 354.718207 l
309.607576 354.292109 l
311.509559 354.835894 l
312.386102 354.287422 l
313.22776 354.082072 l
314.195852 354.826345 l
315.128173 354.615774 l
316.096638 354.828544 l
317.029885 354.621226 l
317.81561 353.752808 l
318.784705 354.832248 l
319.660911 354.285444 l
320.593625 354.618089 l
321.56312 354.834606 l
322.421474 354.180353 l
323.299065 354.293594 l
324.249975 354.725203 l
325.200001 354.719995 l
326.077713 354.294305 l
327.009471 354.612462 l
327.886995 354.293202 l
328.855799 354.83054 l
329.733266 354.292861 l
330.665327 354.614245 l
331.598369 354.620018 l
332.47502 354.288061 l
333.444356 354.833675 l
334.285442 354.078698 l
335.25311 354.823849 l
336.130376 354.291686 l
337.099189 354.830591 l
338.031514 354.615798 l
338.873714 354.085261 l
339.841308 354.82341 l
340.719224 354.295511 l
341.687789 354.829134 l
342.620107 354.615754 l
343.479228 354.184869 l
344.4299 354.7238 l
346.331084 354.725278 l
347.135128 353.860644 l
348.06799 354.618956 l
348.963048 354.396419 l
349.913553 354.722817 l
350.863609 354.720177 l
351.722596 354.184076 l
352.655572 354.619633 l
353.569232 354.50592 l
354.50114 354.613345 l
355.342029 354.077544 l
356.310861 354.830701 l
357.188726 354.295208 l
358.157671 354.831366 l
359.089989 354.615759 l
359.967157 354.291103 l
360.899086 354.613466 l
361.77677 354.294146 l
362.746341 354.83505 l
364.555402 354.292278 l
365.506476 354.726165 l
366.384024 354.29334 l
367.333303 354.7156 l
368.193675 354.192237 l
369.125063 354.610282 l
370.039155 354.508462 l
371.940658 354.833911 l
372.781069 354.074729 l
373.713677 354.617465 l
374.682932 354.833193 l
375.55944 354.287222 l
376.528316 354.830958 l
377.36895 354.076043 l
378.337498 354.829029 l
379.270276 354.618466 l
380.239593 354.833557 l
381.025178 353.751987 l
381.957184 354.61392 l
382.834948 354.29461 l
383.803501 354.829062 l
384.735651 354.614771 l
385.61299 354.292109 l
386.564289 354.727494 l
387.440982 354.288309 l
388.391852 354.724962 l
389.250596 354.182652 l
390.219153 354.82908 l
391.151067 354.613378 l
392.120943 354.836851 l
393.053013 354.614297 l
393.838835 353.753378 l
394.807978 354.832533 l
396.617887 354.296139 l
397.586697 354.830573 l
398.427288 354.075789 l
399.396437 354.832567 l
400.328507 354.614299 l
401.297533 354.831846 l
402.08263 353.749111 l
403.015075 354.616503 l
403.929638 354.511238 l
404.916788 354.938537 l
405.884782 354.825768 l
406.670549 353.753055 l
407.621398 354.724847 l
408.517539 354.402792 l
409.449278 354.612344 l
410.491118 355.260481 l
411.277122 353.754453 l
412.210143 354.619892 l
413.179146 354.83171 l
414.111277 354.614653 l
414.897305 353.754594 l
415.866033 354.830091 l
416.743523 354.292999 l
417.712201 354.829798 l
418.589698 354.29304 l
419.484932 354.397453 l
420.454244 354.833534 l
421.330797 354.287481 l
422.300443 354.835496 l
423.140475 354.072497 l
424.0918 354.727645 l
424.987096 354.39782 l
426.888447 354.8336 l
427.746934 354.181136 l
428.679885 354.619484 l
429.575266 354.398318 l
430.526204 354.72537 l
431.475955 354.718379 l
432.335751 354.188843 l
433.267956 354.615089 l
434.181964 354.50797 l
435.114275 354.615715 l
435.954782 354.075296 l
436.923685 354.83112 l
437.80089 354.291324 l
438.76935 354.828511 l
439.702442 354.620315 l
440.579763 354.292004 l
441.511921 354.614812 l
442.444025 354.614499 l
443.412706 354.829811 l
444.345272 354.617216 l
445.167711 353.968933 l
446.976959 354.617611 l
447.946243 354.833362 l
448.8054 354.185082 l
449.755119 354.718189 l
450.63336 354.297425 l
451.583087 354.718238 l
452.534552 354.728466 l
453.393555 354.184171 l
454.361857 354.827587 l
455.23898 354.290836 l
456.171352 354.616075 l
457.049444 354.296545 l
457.980936 354.610897 l
458.859112 354.297037 l
459.827752 354.82957 l
460.760052 354.615654 l
461.637382 354.292055 l
462.569595 354.615141 l
463.446574 354.289992 l
464.415834 354.833226 l
465.347868 354.614084 l
466.224826 354.289867 l
467.175439 354.723456 l
468.052689 354.291588 l
469.003982 354.727456 l
469.863056 354.184592 l
470.831586 354.828921 l
471.764149 354.617201 l
472.73229 354.826638 l
473.664309 354.613994 l
474.450589 353.756077 l
475.419307 354.830029 l
476.352406 354.620354 l
477.320874 354.828562 l
478.106491 353.752172 l
479.038692 354.615069 l
479.953195 354.510882 l
481.853672 354.826622 l
482.695202 354.081318 l
483.627047 354.612973 l
484.504263 354.291385 l
485.475364 354.844063 l
487.283122 354.294913 l
488.233999 354.725006 l
489.128876 354.395352 l
490.061352 354.616688 l
490.921046 354.18824 l
491.8898 354.830245 l
492.766538 354.288574 l
493.790721 355.156537 l
494.667511 354.288879 l
495.508618 354.078824 l
496.477347 354.830101 l
497.355202 354.295149 l
498.378638 355.152138 l
499.310336 354.612108 l
500.096186 353.753542 l
501.065918 354.836004 l
501.943354 354.292681 l
502.911445 354.826343 l
503.752582 354.079001 l
504.702738 354.720762 l
505.599106 354.404131 l
506.531148 354.61413 l
507.408165 354.290216 l
508.340863 354.617994 l
510.259657 354.829673 l
511.19226 354.617434 l
512.160736 354.828608 l
512.946941 353.75563 l
513.879008 354.614284 l
514.793442 354.510476 l
515.725689 354.615338 l
516.566692 354.078216 l
517.535561 354.83092 l
518.41232 354.288694 l
519.381119 354.830509 l
520.313865 354.618278 l
521.154159 354.074039 l
522.123212 354.832005 l
523.000489 354.291745 l
523.969973 354.834545 l
524.810086 354.072969 l
525.778903 354.830614 l
526.656167 354.291675 l
527.588712 354.617088 l
528.557334 354.829467 l
529.417045 354.18834 l
530.366789 354.718343 l
531.244596 354.294867 l
532.195645 354.726016 l
533.145631 354.719762 l
534.004375 354.182652 l
534.974054 354.835689 l
535.851532 354.292927 l
536.783732 354.615066 l
537.661176 354.292725 l
538.593295 354.614587 l
539.562228 354.831297 l
540.494432 354.615087 l
541.316966 353.969493 l
542.249033 354.614279 l
543.181368 354.615857 l
544.058082 354.288433 l
545.026828 354.830196 l
545.959312 354.616731 l
546.837147 354.295034 l
547.714643 354.293038 l
548.646952 354.6157 l
549.615116 354.826774 l
550.474496 354.186393 l
551.425454 354.72548 l
552.302815 354.292245 l
553.253353 354.72301 l
554.203873 354.722907 l
555.062931 354.184497 l
556.03187 354.831335 l
556.909224 354.292201 l
557.841538 354.615728 l
558.810446 354.83115 l
559.651218 354.076854 l
560.528564 354.292155 l
561.497311 354.830204 l
562.429655 354.61591 l
563.30596 354.286024 l
564.238935 354.619625 l
565.207816 354.830989 l
566.139923 354.614512 l
566.962839 353.97174 l
567.89487 354.614068 l
568.845674 354.72458 l
570.746128 354.7233 l
571.532666 353.757593 l
572.501509 354.830768 l
573.433723 354.615146 l
574.310915 354.291244 l
575.27999 354.832133 l
576.119971 354.0722 l
577.089655 354.835717 l
578.02159 354.613501 l
578.990679 354.832218 l
579.868166 354.292981 l
580.708791 354.075989 l
581.677522 354.830106 l
582.55512 354.293641 l
583.487292 354.614897 l
584.364782 354.292999 l
585.29637 354.611459 l
586.211056 354.511964 l
588.11169 354.828603 l
588.952226 354.075466 l
589.903484 354.727253 l
590.799029 354.39928 l
592.700089 354.829855 l
593.559241 354.185053 l
594.436781 354.293294 l
595.386968 354.720944 l
596.337289 354.721735 l
597.178538 354.079663 l
598.147305 354.830322 l
599.0795 354.615028 l
600.048493 354.831651 l
600.834387 353.753804 l
601.766583 354.615041 l
602.734382 354.824621 l
603.61293 354.299231 l
604.581315 354.828072 l
605.421818 354.075266 l
606.354857 354.620005 l
607.268808 354.507636 l
609.169309 354.828418 l
610.010689 354.080432 l
610.960569 354.719138 l
611.856513 354.401635 l
612.806808 354.721578 l
613.757605 354.724539 l
614.616582 354.184017 l
615.548609 354.614045 l
616.46297 354.510048 l
617.395477 354.616873 l
618.236363 354.077521 l
619.205078 354.830014 l
620.082617 354.293289 l
621.051331 354.830011 l
621.983566 354.615269 l
622.823843 354.073937 l
623.792612 354.830332 l
624.670603 354.295949 l
625.639502 354.831099 l
628.326078 354.290259 l
629.258148 354.614294 l
630.226798 354.829637 l
631.086013 354.185418 l
632.036754 354.72421 l
632.987839 354.726232 l
633.920041 354.615072 l
634.742434 353.968661 l
635.674171 354.612334 l
636.64356 354.833985 l
637.52096 354.292471 l
638.452565 354.611557 l
639.330485 354.295531 l
640.262954 354.616647 l
641.140364 354.292532 l
642.109216 354.830819 l
643.041406 354.615002 l
643.881778 354.074496 l
644.850961 354.832769 l
645.72835 354.292412 l
646.697167 354.830609 l
647.62921 354.614138 l
648.506718 354.293107 l
649.439268 354.617126 l
650.31657 354.291891 l
651.285189 354.829452 l
652.144473 354.185823 l
653.095082 354.723436 l
653.989761 354.394185 l
655.890451 354.822595 l
656.732643 354.085212 l
657.701476 354.830709 l
658.578666 354.291232 l
659.511054 354.61617 l
660.479465 354.828228 l
661.320666 354.079375 l
662.197058 354.286537 l
663.166074 354.831789 l
664.190598 355.158546 l
664.97659 353.754378 l
665.908177 354.611454 l
666.877596 354.834157 l
667.809616 354.614002 l
668.632412 353.971032 l
669.564257 354.612976 l
671.465099 354.721627 l
672.415847 354.724254 l
673.202265 353.756887 l
674.170334 354.826209 l
675.048452 354.296696 l
675.980636 354.614969 l
677.004138 355.152528 l
677.790415 353.756056 l
678.759028 354.829419 l
679.635771 354.288599 l
680.60541 354.835458 l
681.537286 354.61315 l
682.378379 354.078744 l
683.346395 354.825899 l
684.224714 354.297881 l
685.15686 354.614746 l
686.034201 354.292122 l
686.96661 354.61629 l
687.879799 354.503149 l
688.812615 354.618689 l
689.743686 354.608417 l
690.622159 354.298789 l
691.572217 354.720185 l
692.468565 354.404013 l
694.350706 354.719002 l
695.228416 354.294295 l
697.12994 354.835006 l
698.062123 354.614959 l
698.848081 353.754183 l
699.817005 354.831245 l
700.694264 354.291639 l
701.662485 354.827107 l
702.503978 354.081094 l
703.436039 354.614243 l
704.404516 354.828618 l
705.282426 354.29547 l
706.251231 354.830545 l
707.182749 354.611049 l
708.042658 354.189504 l
710.838713 354.828913 l
711.698203 354.187036 l
712.630785 354.617311 l
713.525657 354.395327 l
714.476955 354.727486 l
715.426713 354.718415 l
716.28667 354.189789 l
717.218872 354.615074 l
718.13255 354.506028 l
719.064417 354.613104 l
719.905206 354.076956 l
720.87463 354.834188 l
721.751266 354.287968 l
722.720162 354.831081 l
723.653093 354.619366 l
724.493197 354.072923 l
725.46185 354.829647 l
726.394583 354.618199 l
727.36333 354.830201 l
728.29594 354.617478 l
729.100298 353.862494 l
731.000912 355.046352 l
731.951298 354.722114 l
732.755433 353.861183 l
733.706244 354.724618 l
734.583809 354.293446 l
735.53478 354.725557 l
736.412093 354.29196 l
737.34433 354.615279 l
740.122142 354.614487 l
741.091095 354.831415 l
741.932416 354.080084 l
742.809339 354.289667 l
743.778394 354.832015 l
744.710209 354.612796 l
745.587141 354.289715 l
746.519752 354.617481 l
747.397507 354.294559 l
748.366699 354.832823 l
749.298678 354.613763 l
750.175642 354.289903 l
751.126705 354.726106 l
752.004374 354.294051 l
752.954412 354.72007 l
753.814029 354.187788 l
754.782547 354.828852 l
755.715005 354.61658 l
756.592378 354.292314 l
757.561229 354.830814 l
758.40191 354.076317 l
759.370906 354.831669 l
760.303171 354.615446 l
761.271614 354.828413 l
762.204174 354.617183 l
762.990174 353.754425 l
763.958927 354.830237 l
764.89107 354.614725 l
765.860017 354.831384 l
766.645959 353.754081 l
767.577699 354.612357 l
768.492255 354.511197 l
769.424413 354.614812 l
770.301889 354.29292 l
771.233897 354.613932 l
772.18467 354.724392 l
773.080337 354.400006 l
774.012857 354.616944 l
774.871688 354.18316 l
775.840597 354.831158 l
776.717931 354.292081 l
777.668243 354.721683 l
778.619106 354.724924 l
779.459772 354.076233 l
780.428733 354.831461 l
781.306084 354.292183 l
782.274821 354.830142 l
783.20677 354.613586 l
784.047839 354.078598 l
785.015907 354.826209 l
785.894152 354.297445 l
786.917734 355.153 l
787.703691 353.754171 l
788.671651 354.82557 l
789.604517 354.618984 l
790.573486 354.83151 l
791.359484 353.754412 l
792.327475 354.825755 l
793.296571 354.832254 l
794.228641 354.614299 l
795.015218 353.757821 l
795.983404 354.826902 l
796.953083 354.835691 l
797.885401 354.615754 l
798.854191 354.830458 l
799.639285 353.749091 l
800.608343 354.832033 l
801.541066 354.618142 l
802.509328 354.827346 l
803.295213 353.75375 l
804.264815 354.83524 l
805.233645 354.830691 l
806.019628 353.754327 l
806.951104 354.610797 l
807.920802 354.835802 l
808.889219 354.828259 l
809.674895 353.752524 l
810.643293 354.828146 l
811.576558 354.621331 l
812.54535 354.830465 l
813.47771 354.616008 l
814.300223 353.969367 l
815.232414 354.615007 l
816.201225 354.830578 l
817.170046 354.830637 l
817.95586 353.753332 l
818.888278 354.616349 l
819.857156 354.830973 l
820.825692 354.828957 l
821.611336 353.752334 l
822.580623 354.83338 l
823.513044 354.616367 l
824.481764 354.830042 l
825.267759 353.754396 l
826.236339 354.829221 l
827.168679 354.615885 l
828.137777 354.832272 l
828.923285 353.751531 l
829.892507 354.832995 l
830.823955 354.610638 l
831.793522 354.835029 l
832.578782 353.750071 l
833.54844 354.835566 l
834.498625 354.720932 l
836.399935 354.723602 l
837.2043 353.862537 l
838.15482 354.722907 l
840.055815 354.722556 l
840.860168 353.862463 l
841.81072 354.723097 l
842.760809 354.720367 l
843.58348 353.970296 l
844.515785 354.615682 l
845.484584 354.830506 l
846.434465 354.719143 l
847.239595 353.86704 l
848.171868 354.615495 l
849.139711 354.824878 l
851.041743 354.728184 l
851.845209 353.857247 l
852.795797 354.723302 l
854.697015 354.722466 l
855.501169 353.861295 l
856.451938 354.724367 l
858.37122 354.830227 l
859.157223 353.754448 l
860.108137 354.725224 l
861.058294 354.72077 l
862.027291 354.831671 l
862.813454 353.755387 l
863.782252 354.830504 l
864.714076 354.61285 l
865.682749 354.829765 l
866.469222 353.757216 l
867.438121 354.831097 l
868.369813 354.61207 l
869.339181 354.83386 l
870.124632 353.751195 l
871.093972 354.833695 l
872.025744 354.612537 l
872.994906 354.832646 l
873.963686 354.830399 l
874.749732 353.754699 l
875.718757 354.831838 l
876.650884 354.61463 l
878.405597 359.456945 l
879.374605 354.831743 l
880.306726 354.614597 l
881.129303 353.969739 l
882.061301 354.613876 l
883.030301 354.831692 l
883.998606 354.827602 l
884.785273 353.75835 l
885.717386 354.614551 l
886.686308 354.831233 l
887.655193 354.831014 l
888.58699 354.612691 l
889.373012 353.754555 l
890.341979 354.831497 l
891.310774 354.830489 l
892.242029 354.609499 l
893.065745 353.97645 l
893.998027 354.615541 l
894.93 354.61373 l
895.899045 354.831956 l
896.867864 354.830625 l
897.653798 353.75404 l
898.622534 354.830137 l
899.55474 354.615095 l
900.523612 354.830943 l
901.309763 353.755312 l
902.277892 354.826566 l
903.210752 354.618948 l
904.179511 354.830273 l
904.965516 353.754458 l
905.934364 354.830799 l
906.866475 354.614533 l
907.835191 354.830022 l
908.620799 353.752123 l
909.590338 354.834863 l
910.558975 354.829557 l
911.491113 354.614692 l
912.277229 353.75511 l
913.246115 354.831022 l
914.213561 354.822548 l
915.147245 354.623797 l
915.969696 353.969003 l
916.902083 354.616162 l
917.87015 354.826196 l
918.802912 354.618371 l
919.625679 353.970868 l
920.557186 354.610977 l
921.526395 354.832926 l
922.495513 354.832387 l
923.281557 353.754686 l
924.213775 354.615169 l
925.182537 354.830291 l
926.150503 354.825601 l
926.937388 353.759638 l
927.869624 354.615277 l
928.838499 354.830955 l
929.770697 354.615048 l
930.739044 354.827849 l
931.525475 353.756964 l
932.49394 354.828541 l
951.741994 462.434886 l
952.711142 354.832561 l
953.497183 353.754671 l
954.466017 354.830712 l
955.397621 354.611557 l
956.367048 354.834203 l
957.170541 353.857404 l
958.121917 354.727948 l
959.054033 354.614564 l
960.023061 354.831859 l
960.826637 353.857894 l
961.777824 354.726827 l
964.629375 354.723064 l
965.433603 353.861729 l
966.384207 354.7234 l
968.285175 354.722515 l
969.089524 353.86244 l
970.039316 354.718625 l
971.94102 354.722294 l
972.745292 353.861993 l
973.695551 354.721365 l
974.664537 354.831612 l
975.596896 354.615995 l
976.401219 353.862291 l
977.369318 354.826386 l
979.25261 354.618853 l
980.074399 353.965106 l
981.025542 354.726576 l
982.925793 354.719097 l
983.730421 353.864087 l
984.681613 354.72686 l
985.63156 354.719533 l
986.600404 354.830773 l
987.386681 353.756059 l
988.337591 354.725201 l
989.287334 354.71833 l
990.256877 354.834888 l
991.188283 354.61039 l
992.011065 353.970952 l
992.943428 354.616021 l
993.912418 354.83163 l
994.844061 354.611783 l
995.649265 353.867476 l
997.56828 360.42414 l
998.500045 354.612503 l
1000.254965 359.458159 l
1001.224354 354.833985 l
1002.155984 354.611703 l
1002.960316 353.862347 l
1004.880279 360.429717 l
1006.63451 359.454108 l
1007.566789 354.615526 l
1009.504565 360.534579 l
1010.290847 353.75609 l
1012.191908 360.318449 l
1013.160039 354.826574 l
1013.94621 353.755435 l
1014.914969 354.830276 l
1015.847204 354.615264 l
1016.815941 354.830145 l
1017.748807 354.618984 l
1020.471568 365.155545 l
1021.441143 354.835078 l
1023.158812 359.238875 l
1024.127484 354.829763 l
1025.097022 354.83486 l
1025.882583 353.751844 l
1027.783572 360.318023 l
1028.752694 354.83241 l
1029.538319 353.752223 l
1030.507308 354.831622 l
1031.439352 354.614148 l
1032.261915 353.969657 l
1033.19459 354.61786 l
1034.163836 354.833141 l
1035.095099 354.609543 l
1036.06477 354.835645 l
1036.850788 353.754535 l
1037.819681 354.831061 l
1038.788569 354.831032 l
1039.720547 354.613755 l
1040.506629 353.754907 l
1042.443387 360.528589 l
1043.375901 354.616908 l
1044.199144 353.973669 l
1046.099285 360.313031 l
1047.03181 354.616978 l
1049.755013 365.158147 l
1051.656329 360.31995 l
1052.443125 353.759114 l
1053.411096 354.825635 l
1054.380748 354.835527 l
1055.312975 354.615223 l
1056.135605 353.97006 l
1057.066968 354.610133 l
1058.036532 354.835014 l
1060.722802 364.940731 l
1061.691852 354.831984 l
1062.642139 354.721534 l
1067.103167 375.388193 l
1068.071077 354.825275 l
1069.003217 354.614707 l
1069.972085 354.830917 l
1070.758611 353.757524 l
1074.414799 370.650343 l
1075.382982 354.826884 l
1076.315244 354.615428 l
1079.038705 365.159666 l
1079.98931 354.723407 l
1080.940399 354.726255 l
1081.726666 353.755997 l
1082.694525 354.824975 l
1086.350327 370.648072 l
1091.92557 381.947238 l
1096.514105 376.138788 l
1097.336189 353.966837 l
1100.206487 366.024056 l
1101.925283 359.245512 l
1102.893143 354.82498 l
1103.862016 354.830945 l
1109.273475 380.983088 l
1111.174451 360.317946 l
1114.830038 370.64681 l
1116.585177 359.459449 l
1119.271397 364.940439 l
1122.140893 366.01933 l
1125.797962 370.655535 l
1126.766729 354.830319 l
1128.520829 359.453333 l
1131.208617 364.949675 l
1134.864354 370.647685 l
1140.457832 382.054578 l
1146.800097 386.46246 l
1153.18023 386.685378 l
1165.11592 419.389239 l
1183.413006 456.836825 l
1219.223162 559.930909 l
1231.159874 419.395255 l
1231.159874 419.395255 l
stroke
grestore
0.800 setlinewidth
0 setlinejoin
[] 0 setdash
0.000 setgray
gsave
171 343.44 m
171 570.24 l
stroke
grestore
gsave
1231.2 343.44 m
1231.2 570.24 l
stroke
grestore
gsave
171 343.44 m
1231.2 343.44 l
stroke
grestore
gsave
171 570.24 m
1231.2 570.24 l
stroke
grestore
gsave
171 71.28 m
1231.2 71.28 l
1231.2 298.08 l
171 298.08 l
cl
1.000 setgray
fill
grestore
1.000 setlinewidth
0 setlinecap
0.230 0.322 0.546 setrgbcolor
gsave
1060 226.8 171 71.28 clipbox
171 71.28 m
171 298.08 l
309.922759 298.08 l
309.922759 71.28 l
cl
gsave
fill
grestore
stroke
grestore
0.222 0.339 0.549 setrgbcolor
gsave
1060 226.8 171 71.28 clipbox
309.922759 71.28 m
309.922759 298.08 l
443.361724 298.08 l
443.361724 71.28 l
cl
gsave
fill
grestore
stroke
grestore
0.212 0.360 0.552 setrgbcolor
gsave
1060 226.8 171 71.28 clipbox
443.361724 71.28 m
443.361724 298.08 l
618.843103 298.08 l
618.843103 71.28 l
cl
gsave
fill
grestore
stroke
grestore
0.203 0.380 0.554 setrgbcolor
gsave
1060 226.8 171 71.28 clipbox
618.843103 71.28 m
618.843103 298.08 l
669.111207 298.08 l
669.111207 71.28 l
cl
gsave
fill
grestore
stroke
grestore
0.194 0.399 0.556 setrgbcolor
gsave
1060 226.8 171 71.28 clipbox
669.111207 71.28 m
669.111207 298.08 l
734.916724 298.08 l
734.916724 71.28 l
cl
gsave
fill
grestore
stroke
grestore
0.186 0.419 0.557 setrgbcolor
gsave
1060 226.8 171 71.28 clipbox
734.916724 71.28 m
734.916724 298.08 l
787.012759 298.08 l
787.012759 71.28 l
cl
gsave
fill
grestore
stroke
grestore
0.179 0.434 0.557 setrgbcolor
gsave
1060 226.8 171 71.28 clipbox
787.012759 71.28 m
787.012759 298.08 l
840.022759 298.08 l
840.022759 71.28 l
cl
gsave
fill
grestore
stroke
grestore
0.156 0.490 0.558 setrgbcolor
gsave
1060 226.8 171 71.28 clipbox
840.022759 71.28 m
840.022759 298.08 l
933.247241 298.08 l
933.247241 71.28 l
cl
gsave
fill
grestore
stroke
grestore
0.119 0.611 0.539 setrgbcolor
gsave
1060 226.8 171 71.28 clipbox
933.247241 71.28 m
933.247241 298.08 l
951.526552 298.08 l
951.526552 71.28 l
cl
gsave
fill
grestore
stroke
grestore
0.156 0.490 0.558 setrgbcolor
gsave
1060 226.8 171 71.28 clipbox
951.526552 71.28 m
951.526552 298.08 l
978.945517 298.08 l
978.945517 71.28 l
cl
gsave
fill
grestore
stroke
grestore
0.149 0.508 0.557 setrgbcolor
gsave
1060 226.8 171 71.28 clipbox
978.945517 71.28 m
978.945517 298.08 l
1004.536552 298.08 l
1004.536552 71.28 l
cl
gsave
fill
grestore
stroke
grestore
0.142 0.526 0.556 setrgbcolor
gsave
1060 226.8 171 71.28 clipbox
1004.536552 71.28 m
1004.536552 298.08 l
1044.751034 298.08 l
1044.751034 71.28 l
cl
gsave
fill
grestore
stroke
grestore
0.136 0.541 0.554 setrgbcolor
gsave
1060 226.8 171 71.28 clipbox
1044.751034 71.28 m
1044.751034 298.08 l
1095.933103 298.08 l
1095.933103 71.28 l
cl
gsave
fill
grestore
stroke
grestore
0.130 0.560 0.552 setrgbcolor
gsave
1060 226.8 171 71.28 clipbox
1095.933103 71.28 m
1095.933103 298.08 l
1139.803448 298.08 l
1139.803448 71.28 l
cl
gsave
fill
grestore
stroke
grestore
0.121 0.596 0.544 setrgbcolor
gsave
1060 226.8 171 71.28 clipbox
1139.803448 71.28 m
1139.803448 298.08 l
1154.426897 298.08 l
1154.426897 71.28 l
cl
gsave
fill
grestore
stroke
grestore
0.119 0.611 0.539 setrgbcolor
gsave
1060 226.8 171 71.28 clipbox
1154.426897 71.28 m
1154.426897 298.08 l
1231.2 298.08 l
1231.2 71.28 l
cl
gsave
fill
grestore
stroke
grestore
0.800 setlinewidth
1 setlinejoin
[] 0 setdash
0.000 setgray
gsave
/o {
gsave
newpath
translate
0.8 setlinewidth
1 setlinejoin
0 setlinecap
0 0 m
0 -3.5 l

gsave
0.000 setgray
fill
grestore
stroke
grestore
} bind def
240.461 71.28 o
grestore
gsave
237.281692 56.686250 translate
0.000000 rotate
0.000000 0.000000 m /zero glyphshow
grestore
gsave
/o {
gsave
newpath
translate
0.8 setlinewidth
1 setlinejoin
0 setlinecap
0 0 m
0 -3.5 l

gsave
0.000 setgray
fill
grestore
stroke
grestore
} bind def
376.642 71.28 o
grestore
gsave
370.282866 56.686250 translate
0.000000 rotate
0.000000 0.000000 m /one glyphshow
6.362305 0.000000 m /zero glyphshow
grestore
gsave
/o {
gsave
newpath
translate
0.8 setlinewidth
1 setlinejoin
0 setlinecap
0 0 m
0 -3.5 l

gsave
0.000 setgray
fill
grestore
stroke
grestore
} bind def
531.102 71.28 o
grestore
gsave
524.743039 56.686250 translate
0.000000 rotate
0.000000 0.000000 m /two glyphshow
6.362305 0.000000 m /zero glyphshow
grestore
gsave
/o {
gsave
newpath
translate
0.8 setlinewidth
1 setlinejoin
0 setlinecap
0 0 m
0 -3.5 l

gsave
0.000 setgray
fill
grestore
stroke
grestore
} bind def
643.977 71.28 o
grestore
gsave
637.617780 56.686250 translate
0.000000 rotate
0.000000 0.000000 m /three glyphshow
6.362305 0.000000 m /zero glyphshow
grestore
gsave
/o {
gsave
newpath
translate
0.8 setlinewidth
1 setlinejoin
0 setlinecap
0 0 m
0 -3.5 l

gsave
0.000 setgray
fill
grestore
stroke
grestore
} bind def
702.014 71.28 o
grestore
gsave
695.654591 56.686250 translate
0.000000 rotate
0.000000 0.000000 m /four glyphshow
6.362305 0.000000 m /zero glyphshow
grestore
gsave
/o {
gsave
newpath
translate
0.8 setlinewidth
1 setlinejoin
0 setlinecap
0 0 m
0 -3.5 l

gsave
0.000 setgray
fill
grestore
stroke
grestore
} bind def
760.965 71.28 o
grestore
gsave
754.605366 56.686250 translate
0.000000 rotate
0.000000 0.000000 m /five glyphshow
6.362305 0.000000 m /zero glyphshow
grestore
gsave
/o {
gsave
newpath
translate
0.8 setlinewidth
1 setlinejoin
0 setlinecap
0 0 m
0 -3.5 l

gsave
0.000 setgray
fill
grestore
stroke
grestore
} bind def
813.518 71.28 o
grestore
gsave
807.158384 56.686250 translate
0.000000 rotate
0.000000 0.000000 m /six glyphshow
6.362305 0.000000 m /zero glyphshow
grestore
gsave
/o {
gsave
newpath
translate
0.8 setlinewidth
1 setlinejoin
0 setlinecap
0 0 m
0 -3.5 l

gsave
0.000 setgray
fill
grestore
stroke
grestore
} bind def
886.635 71.28 o
grestore
gsave
880.275625 56.686250 translate
0.000000 rotate
0.000000 0.000000 m /seven glyphshow
6.362305 0.000000 m /zero glyphshow
grestore
gsave
/o {
gsave
newpath
translate
0.8 setlinewidth
1 setlinejoin
0 setlinecap
0 0 m
0 -3.5 l

gsave
0.000 setgray
fill
grestore
stroke
grestore
} bind def
942.387 71.28 o
grestore
gsave
936.027522 56.686250 translate
0.000000 rotate
0.000000 0.000000 m /eight glyphshow
6.362305 0.000000 m /zero glyphshow
grestore
gsave
/o {
gsave
newpath
translate
0.8 setlinewidth
1 setlinejoin
0 setlinecap
0 0 m
0 -3.5 l

gsave
0.000 setgray
fill
grestore
stroke
grestore
} bind def
965.236 71.28 o
grestore
gsave
958.876659 56.686250 translate
0.000000 rotate
0.000000 0.000000 m /seven glyphshow
6.362305 0.000000 m /zero glyphshow
grestore
gsave
/o {
gsave
newpath
translate
0.8 setlinewidth
1 setlinejoin
0 setlinecap
0 0 m
0 -3.5 l

gsave
0.000 setgray
fill
grestore
stroke
grestore
} bind def
991.741 71.28 o
grestore
gsave
985.381659 56.686250 translate
0.000000 rotate
0.000000 0.000000 m /seven glyphshow
6.362305 0.000000 m /one glyphshow
grestore
gsave
/o {
gsave
newpath
translate
0.8 setlinewidth
1 setlinejoin
0 setlinecap
0 0 m
0 -3.5 l

gsave
0.000 setgray
fill
grestore
stroke
grestore
} bind def
1024.64 71.28 o
grestore
gsave
1018.284418 56.686250 translate
0.000000 rotate
0.000000 0.000000 m /seven glyphshow
6.362305 0.000000 m /two glyphshow
grestore
gsave
/o {
gsave
newpath
translate
0.8 setlinewidth
1 setlinejoin
0 setlinecap
0 0 m
0 -3.5 l

gsave
0.000 setgray
fill
grestore
stroke
grestore
} bind def
1070.34 71.28 o
grestore
gsave
1063.982694 56.686250 translate
0.000000 rotate
0.000000 0.000000 m /seven glyphshow
6.362305 0.000000 m /three glyphshow
grestore
gsave
/o {
gsave
newpath
translate
0.8 setlinewidth
1 setlinejoin
0 setlinecap
0 0 m
0 -3.5 l

gsave
0.000 setgray
fill
grestore
stroke
grestore
} bind def
1117.87 71.28 o
grestore
gsave
1111.508901 56.686250 translate
0.000000 rotate
0.000000 0.000000 m /seven glyphshow
6.362305 0.000000 m /four glyphshow
grestore
gsave
/o {
gsave
newpath
translate
0.8 setlinewidth
1 setlinejoin
0 setlinecap
0 0 m
0 -3.5 l

gsave
0.000 setgray
fill
grestore
stroke
grestore
} bind def
1147.12 71.28 o
grestore
gsave
1140.755797 56.686250 translate
0.000000 rotate
0.000000 0.000000 m /seven glyphshow
6.362305 0.000000 m /five glyphshow
grestore
gsave
/o {
gsave
newpath
translate
0.8 setlinewidth
1 setlinejoin
0 setlinecap
0 0 m
0 -3.5 l

gsave
0.000 setgray
fill
grestore
stroke
grestore
} bind def
1192.81 71.28 o
grestore
gsave
1186.454073 56.686250 translate
0.000000 rotate
0.000000 0.000000 m /seven glyphshow
6.362305 0.000000 m /six glyphshow
grestore
gsave
659.584375 43.014375 translate
0.000000 rotate
0.000000 0.000000 m /A glyphshow
6.840820 0.000000 m /t glyphshow
10.761719 0.000000 m /t glyphshow
14.682617 0.000000 m /e glyphshow
20.834961 0.000000 m /n glyphshow
27.172852 0.000000 m /u glyphshow
33.510742 0.000000 m /a glyphshow
39.638672 0.000000 m /t glyphshow
43.559570 0.000000 m /i glyphshow
46.337891 0.000000 m /o glyphshow
52.456055 0.000000 m /n glyphshow
58.793945 0.000000 m /space glyphshow
61.972656 0.000000 m /bracketleft glyphshow
65.874023 0.000000 m /d glyphshow
72.221680 0.000000 m /B glyphshow
79.082031 0.000000 m /bracketright glyphshow
grestore
2 setlinecap
gsave
1060 226.8 171 71.28 clipbox
171 81.589091 m
1231.2 81.589091 l
stroke
grestore
0 setlinecap
gsave
/o {
gsave
newpath
translate
0.8 setlinewidth
1 setlinejoin
0 setlinecap
0 0 m
-3.5 0 l

gsave
0.000 setgray
fill
grestore
stroke
grestore
} bind def
171 81.5891 o
grestore
gsave
157.640625 77.792216 translate
0.000000 rotate
0.000000 0.000000 m /zero glyphshow
grestore
2 setlinecap
gsave
1060 226.8 171 71.28 clipbox
171 107.754296 m
1231.2 107.754296 l
stroke
grestore
0 setlinecap
gsave
/o {
gsave
newpath
translate
0.8 setlinewidth
1 setlinejoin
0 setlinecap
0 0 m
-3.5 0 l

gsave
0.000 setgray
fill
grestore
stroke
grestore
} bind def
171 107.754 o
grestore
gsave
151.281250 103.957421 translate
0.000000 rotate
0.000000 0.000000 m /five glyphshow
6.362305 0.000000 m /zero glyphshow
grestore
2 setlinecap
gsave
1060 226.8 171 71.28 clipbox
171 133.919502 m
1231.2 133.919502 l
stroke
grestore
0 setlinecap
gsave
/o {
gsave
newpath
translate
0.8 setlinewidth
1 setlinejoin
0 setlinecap
0 0 m
-3.5 0 l

gsave
0.000 setgray
fill
grestore
stroke
grestore
} bind def
171 133.92 o
grestore
gsave
144.921875 130.122627 translate
0.000000 rotate
0.000000 0.000000 m /one glyphshow
6.362305 0.000000 m /zero glyphshow
12.724609 0.000000 m /zero glyphshow
grestore
2 setlinecap
gsave
1060 226.8 171 71.28 clipbox
171 160.084707 m
1231.2 160.084707 l
stroke
grestore
0 setlinecap
gsave
/o {
gsave
newpath
translate
0.8 setlinewidth
1 setlinejoin
0 setlinecap
0 0 m
-3.5 0 l

gsave
0.000 setgray
fill
grestore
stroke
grestore
} bind def
171 160.085 o
grestore
gsave
144.921875 156.287832 translate
0.000000 rotate
0.000000 0.000000 m /one glyphshow
6.362305 0.000000 m /five glyphshow
12.724609 0.000000 m /zero glyphshow
grestore
2 setlinecap
gsave
1060 226.8 171 71.28 clipbox
171 186.249912 m
1231.2 186.249912 l
stroke
grestore
0 setlinecap
gsave
/o {
gsave
newpath
translate
0.8 setlinewidth
1 setlinejoin
0 setlinecap
0 0 m
-3.5 0 l

gsave
0.000 setgray
fill
grestore
stroke
grestore
} bind def
171 186.25 o
grestore
gsave
144.921875 182.453037 translate
0.000000 rotate
0.000000 0.000000 m /two glyphshow
6.362305 0.000000 m /zero glyphshow
12.724609 0.000000 m /zero glyphshow
grestore
2 setlinecap
gsave
1060 226.8 171 71.28 clipbox
171 212.415118 m
1231.2 212.415118 l
stroke
grestore
0 setlinecap
gsave
/o {
gsave
newpath
translate
0.8 setlinewidth
1 setlinejoin
0 setlinecap
0 0 m
-3.5 0 l

gsave
0.000 setgray
fill
grestore
stroke
grestore
} bind def
171 212.415 o
grestore
gsave
144.921875 208.618243 translate
0.000000 rotate
0.000000 0.000000 m /two glyphshow
6.362305 0.000000 m /five glyphshow
12.724609 0.000000 m /zero glyphshow
grestore
2 setlinecap
gsave
1060 226.8 171 71.28 clipbox
171 238.580323 m
1231.2 238.580323 l
stroke
grestore
0 setlinecap
gsave
/o {
gsave
newpath
translate
0.8 setlinewidth
1 setlinejoin
0 setlinecap
0 0 m
-3.5 0 l

gsave
0.000 setgray
fill
grestore
stroke
grestore
} bind def
171 238.58 o
grestore
gsave
144.921875 234.783448 translate
0.000000 rotate
0.000000 0.000000 m /three glyphshow
6.362305 0.000000 m /zero glyphshow
12.724609 0.000000 m /zero glyphshow
grestore
2 setlinecap
gsave
1060 226.8 171 71.28 clipbox
171 264.745528 m
1231.2 264.745528 l
stroke
grestore
0 setlinecap
gsave
/o {
gsave
newpath
translate
0.8 setlinewidth
1 setlinejoin
0 setlinecap
0 0 m
-3.5 0 l

gsave
0.000 setgray
fill
grestore
stroke
grestore
} bind def
171 264.746 o
grestore
gsave
144.921875 260.948653 translate
0.000000 rotate
0.000000 0.000000 m /three glyphshow
6.362305 0.000000 m /five glyphshow
12.724609 0.000000 m /zero glyphshow
grestore
2 setlinecap
gsave
1060 226.8 171 71.28 clipbox
171 290.910734 m
1231.2 290.910734 l
stroke
grestore
0 setlinecap
gsave
/o {
gsave
newpath
translate
0.8 setlinewidth
1 setlinejoin
0 setlinecap
0 0 m
-3.5 0 l

gsave
0.000 setgray
fill
grestore
stroke
grestore
} bind def
171 290.911 o
grestore
gsave
144.921875 287.113859 translate
0.000000 rotate
0.000000 0.000000 m /four glyphshow
6.362305 0.000000 m /zero glyphshow
12.724609 0.000000 m /zero glyphshow
grestore
gsave
138.843750 136.719063 translate
90.000000 rotate
0.000000 0.000000 m /C glyphshow
6.982422 0.000000 m /o glyphshow
13.100586 0.000000 m /u glyphshow
19.438477 0.000000 m /n glyphshow
25.776367 0.000000 m /t glyphshow
29.697266 0.000000 m /space glyphshow
32.875977 0.000000 m /o glyphshow
38.994141 0.000000 m /f glyphshow
42.514648 0.000000 m /space glyphshow
45.693359 0.000000 m /m glyphshow
55.434570 0.000000 m /e glyphshow
61.586914 0.000000 m /s glyphshow
66.796875 0.000000 m /s glyphshow
72.006836 0.000000 m /a glyphshow
78.134766 0.000000 m /g glyphshow
84.482422 0.000000 m /e glyphshow
90.634766 0.000000 m /s glyphshow
grestore
1.500 setlinewidth
2 setlinecap
1.000 1.000 0.000 setrgbcolor
gsave
1060 226.8 171 71.28 clipbox
172.221215 81.589091 m
841.81072 81.589091 l
842.760809 82.112395 l
845.484584 82.112395 l
846.434465 82.635699 l
850.090326 82.635699 l
851.041743 83.159003 l
851.845209 83.159003 l
853.74657 84.205611 l
872.025744 84.205611 l
873.963686 85.25222 l
893.998027 85.25222 l
894.93 85.775524 l
900.523612 85.775524 l
901.309763 86.298828 l
931.525475 86.298828 l
932.49394 86.822132 l
952.711142 87.86874 l
953.497183 88.392044 l
969.089524 88.392044 l
970.039316 88.915348 l
971.94102 88.915348 l
972.745292 89.438653 l
974.664537 89.438653 l
979.25261 92.055173 l
980.074399 93.101781 l
981.97592 94.148389 l
982.925793 94.148389 l
983.730421 94.671694 l
986.600404 94.671694 l
987.386681 95.718302 l
990.256877 97.288214 l
991.188283 98.858126 l
992.943428 98.858126 l
993.912418 99.381431 l
995.649265 99.381431 l
997.56828 101.997951 l
998.500045 103.044559 l
1000.254965 103.567863 l
1001.224354 104.614472 l
1002.155984 106.707688 l
1002.960316 107.754296 l
1004.880279 109.324209 l
1006.63451 109.324209 l
1007.566789 110.894121 l
1009.504565 112.464033 l
1010.290847 113.510641 l
1013.94621 117.697074 l
1014.914969 118.220378 l
1015.847204 119.266987 l
1016.815941 121.360203 l
1017.748807 121.883507 l
1020.471568 122.930115 l
1021.441143 123.976724 l
1023.158812 125.023332 l
1024.127484 126.06994 l
1025.097022 126.593244 l
1025.882583 126.593244 l
1027.783572 127.116548 l
1028.752694 128.163156 l
1029.538319 128.163156 l
1031.439352 131.302981 l
1032.261915 132.349589 l
1033.19459 132.872893 l
1034.163836 133.919502 l
1036.06477 137.059326 l
1036.850788 137.059326 l
1037.819681 137.58263 l
1038.788569 137.58263 l
1039.720547 138.105934 l
1040.506629 138.105934 l
1042.443387 140.199151 l
1043.375901 142.292367 l
1044.199144 142.815671 l
1046.099285 145.432192 l
1047.03181 147.525408 l
1051.656329 150.141929 l
1052.443125 152.235145 l
1053.411096 154.328362 l
1054.380748 154.851666 l
1055.312975 156.421578 l
1056.135605 157.468186 l
1057.066968 159.561403 l
1058.036532 162.177923 l
1060.722802 165.317748 l
1061.691852 167.410964 l
1062.642139 167.934269 l
1067.103167 176.307134 l
1068.071077 176.830438 l
1069.972085 181.016871 l
1070.758611 182.063479 l
1074.414799 187.296521 l
1075.382982 189.913041 l
1076.315244 190.959649 l
1079.038705 195.669386 l
1079.98931 196.19269 l
1080.940399 197.762603 l
1081.726666 199.332515 l
1082.694525 200.902427 l
1086.350327 204.565556 l
1091.92557 207.705381 l
1096.514105 213.98503 l
1097.336189 215.554942 l
1100.206487 219.741375 l
1101.925283 223.404504 l
1102.893143 224.974416 l
1103.862016 227.067633 l
1109.273475 232.300674 l
1111.174451 237.533715 l
1114.830038 240.150235 l
1116.585177 241.196844 l
1119.271397 243.813364 l
1122.140893 247.476493 l
1126.766729 254.80275 l
1128.520829 258.465879 l
1131.208617 263.175616 l
1134.864354 265.792137 l
1140.457832 270.501874 l
1146.800097 273.118394 l
1153.18023 277.304827 l
1165.11592 277.828131 l
1183.413006 281.49126 l
1219.223162 285.677693 l
1231.159874 287.770909 l
1231.159874 287.770909 l
stroke
grestore
1.000 0.000 0.000 setrgbcolor
gsave
1060 226.8 171 71.28 clipbox
172.221215 81.589091 m
876.650884 81.589091 l
878.405597 83.159003 l
932.49394 83.159003 l
951.741994 94.671694 l
995.649265 94.671694 l
997.56828 96.241606 l
998.500045 96.241606 l
1000.254965 97.811518 l
1002.960316 97.811518 l
1006.63451 100.951343 l
1007.566789 100.951343 l
1009.504565 102.521255 l
1010.290847 102.521255 l
1012.191908 104.091168 l
1017.748807 104.091168 l
1020.471568 106.184384 l
1021.441143 106.184384 l
1023.158812 107.754296 l
1025.882583 107.754296 l
1027.783572 109.324209 l
1040.506629 109.324209 l
1042.443387 110.894121 l
1044.199144 110.894121 l
1046.099285 112.464033 l
1047.03181 112.464033 l
1051.656329 116.127162 l
1058.036532 116.127162 l
1060.722802 118.220378 l
1062.642139 118.220378 l
1067.103167 121.360203 l
1070.758611 121.360203 l
1074.414799 123.976724 l
1076.315244 123.976724 l
1079.038705 126.06994 l
1082.694525 126.06994 l
1086.350327 128.686461 l
1096.514105 135.489414 l
1097.336189 135.489414 l
1100.206487 137.58263 l
1101.925283 139.152543 l
1103.862016 139.152543 l
1109.273475 142.815671 l
1111.174451 144.385584 l
1114.830038 147.002104 l
1116.585177 148.572017 l
1119.271397 150.665233 l
1125.797962 155.37497 l
1126.766729 155.37497 l
1128.520829 156.944882 l
1131.208617 159.038099 l
1134.864354 161.654619 l
1153.18023 173.690614 l
1165.11592 181.016871 l
1183.413006 192.006257 l
1219.223162 212.938422 l
1231.159874 220.264679 l
1231.159874 220.264679 l
stroke
grestore
0.800 setlinewidth
0 setlinejoin
[] 0 setdash
0.000 setgray
gsave
171 71.28 m
171 298.08 l
stroke
grestore
gsave
1231.2 71.28 m
1231.2 298.08 l
stroke
grestore
gsave
171 71.28 m
1231.2 71.28 l
stroke
grestore
gsave
171 298.08 m
1231.2 298.08 l
stroke
grestore
1.000 setlinewidth
0 setlinecap
0.800 setgray
gsave
178 260.73625 m
328.046875 260.73625 l
329.380208 260.73625 330.046875 261.402917 330.046875 262.73625 c
330.046875 291.08 l
330.046875 292.413333 329.380208 293.08 328.046875 293.08 c
178 293.08 l
176.666667 293.08 176 292.413333 176 291.08 c
176 262.73625 l
176 261.402917 176.666667 260.73625 178 260.73625 c
cl
gsave
1.000 setgray
fill
grestore
stroke
grestore
1.500 setlinewidth
1 setlinejoin
2 setlinecap
[] 0 setdash
1.000 1.000 0.000 setrgbcolor
gsave
180 284.98625 m
200 284.98625 l
stroke
grestore
0.000 setgray
gsave
208.000000 281.486250 translate
0.000000 rotate
0.000000 0.000000 m /B glyphshow
6.860352 0.000000 m /i glyphshow
9.638672 0.000000 m /t glyphshow
13.559570 0.000000 m /space glyphshow
16.738281 0.000000 m /c glyphshow
22.236328 0.000000 m /o glyphshow
28.354492 0.000000 m /r glyphshow
32.465820 0.000000 m /r glyphshow
36.577148 0.000000 m /e glyphshow
42.729492 0.000000 m /c glyphshow
48.227539 0.000000 m /t glyphshow
52.148438 0.000000 m /e glyphshow
58.300781 0.000000 m /d glyphshow
64.648438 0.000000 m /space glyphshow
67.827148 0.000000 m /m glyphshow
77.568359 0.000000 m /e glyphshow
83.720703 0.000000 m /s glyphshow
88.930664 0.000000 m /s glyphshow
94.140625 0.000000 m /a glyphshow
100.268555 0.000000 m /g glyphshow
106.616211 0.000000 m /e glyphshow
112.768555 0.000000 m /s glyphshow
grestore
1.000 0.000 0.000 setrgbcolor
gsave
180 270.314375 m
200 270.314375 l
stroke
grestore
0.000 setgray
gsave
208.000000 266.814375 translate
0.000000 rotate
0.000000 0.000000 m /L glyphshow
5.571289 0.000000 m /o glyphshow
11.689453 0.000000 m /s glyphshow
16.899414 0.000000 m /t glyphshow
20.820312 0.000000 m /space glyphshow
23.999023 0.000000 m /m glyphshow
33.740234 0.000000 m /e glyphshow
39.892578 0.000000 m /s glyphshow
45.102539 0.000000 m /s glyphshow
50.312500 0.000000 m /a glyphshow
56.440430 0.000000 m /g glyphshow
62.788086 0.000000 m /e glyphshow
68.940430 0.000000 m /s glyphshow
grestore
0.800 setlinewidth
0 setlinecap
gsave
/o {
gsave
newpath
translate
0.8 setlinewidth
1 setlinejoin
0 setlinecap
0 0 m
0 3.5 l

gsave
0.000 setgray
fill
grestore
stroke
grestore
} bind def
240.461 570.24 o
grestore
gsave
237.461816 578.575793 translate
50.000000 rotate
0.000000 0.000000 m /zero glyphshow
6.362305 0.000000 m /period glyphshow
9.541016 0.000000 m /one glyphshow
grestore
gsave
/o {
gsave
newpath
translate
0.8 setlinewidth
1 setlinejoin
0 setlinecap
0 0 m
0 3.5 l

gsave
0.000 setgray
fill
grestore
stroke
grestore
} bind def
376.642 570.24 o
grestore
gsave
373.642678 578.575793 translate
50.000000 rotate
0.000000 0.000000 m /zero glyphshow
6.362305 0.000000 m /period glyphshow
9.541016 0.000000 m /two glyphshow
grestore
gsave
/o {
gsave
newpath
translate
0.8 setlinewidth
1 setlinejoin
0 setlinecap
0 0 m
0 3.5 l

gsave
0.000 setgray
fill
grestore
stroke
grestore
} bind def
531.102 570.24 o
grestore
gsave
528.102851 578.575793 translate
50.000000 rotate
0.000000 0.000000 m /zero glyphshow
6.362305 0.000000 m /period glyphshow
9.541016 0.000000 m /six glyphshow
grestore
gsave
/o {
gsave
newpath
translate
0.8 setlinewidth
1 setlinejoin
0 setlinecap
0 0 m
0 3.5 l

gsave
0.000 setgray
fill
grestore
stroke
grestore
} bind def
643.977 570.24 o
grestore
gsave
640.977592 578.575793 translate
50.000000 rotate
0.000000 0.000000 m /one glyphshow
6.362305 0.000000 m /period glyphshow
9.541016 0.000000 m /seven glyphshow
grestore
gsave
/o {
gsave
newpath
translate
0.8 setlinewidth
1 setlinejoin
0 setlinecap
0 0 m
0 3.5 l

gsave
0.000 setgray
fill
grestore
stroke
grestore
} bind def
702.014 570.24 o
grestore
gsave
699.014402 578.575793 translate
50.000000 rotate
0.000000 0.000000 m /five glyphshow
6.362305 0.000000 m /period glyphshow
9.541016 0.000000 m /five glyphshow
grestore
gsave
/o {
gsave
newpath
translate
0.8 setlinewidth
1 setlinejoin
0 setlinecap
0 0 m
0 3.5 l

gsave
0.000 setgray
fill
grestore
stroke
grestore
} bind def
760.965 570.24 o
grestore
gsave
755.921314 578.575793 translate
50.000000 rotate
0.000000 0.000000 m /one glyphshow
6.362305 0.000000 m /seven glyphshow
12.724609 0.000000 m /period glyphshow
15.903320 0.000000 m /four glyphshow
grestore
gsave
/o {
gsave
newpath
translate
0.8 setlinewidth
1 setlinejoin
0 setlinecap
0 0 m
0 3.5 l

gsave
0.000 setgray
fill
grestore
stroke
grestore
} bind def
813.518 570.24 o
grestore
gsave
808.474332 578.575793 translate
50.000000 rotate
0.000000 0.000000 m /five glyphshow
6.362305 0.000000 m /five glyphshow
12.724609 0.000000 m /period glyphshow
15.903320 0.000000 m /one glyphshow
grestore
gsave
/o {
gsave
newpath
translate
0.8 setlinewidth
1 setlinejoin
0 setlinecap
0 0 m
0 3.5 l

gsave
0.000 setgray
fill
grestore
stroke
grestore
} bind def
886.635 570.24 o
grestore
gsave
879.547709 578.575793 translate
50.000000 rotate
0.000000 0.000000 m /one glyphshow
6.362305 0.000000 m /seven glyphshow
12.724609 0.000000 m /four glyphshow
19.086914 0.000000 m /period glyphshow
22.265625 0.000000 m /two glyphshow
grestore
gsave
/o {
gsave
newpath
translate
0.8 setlinewidth
1 setlinejoin
0 setlinecap
0 0 m
0 3.5 l

gsave
0.000 setgray
fill
grestore
stroke
grestore
} bind def
942.387 570.24 o
grestore
gsave
935.299606 578.575793 translate
50.000000 rotate
0.000000 0.000000 m /five glyphshow
6.362305 0.000000 m /five glyphshow
12.724609 0.000000 m /zero glyphshow
19.086914 0.000000 m /period glyphshow
22.265625 0.000000 m /eight glyphshow
grestore
gsave
/o {
gsave
newpath
translate
0.8 setlinewidth
1 setlinejoin
0 setlinecap
0 0 m
0 3.5 l

gsave
0.000 setgray
fill
grestore
stroke
grestore
} bind def
965.236 570.24 o
grestore
gsave
958.148744 578.575793 translate
50.000000 rotate
0.000000 0.000000 m /one glyphshow
6.362305 0.000000 m /seven glyphshow
12.724609 0.000000 m /four glyphshow
19.086914 0.000000 m /period glyphshow
22.265625 0.000000 m /two glyphshow
grestore
gsave
/o {
gsave
newpath
translate
0.8 setlinewidth
1 setlinejoin
0 setlinecap
0 0 m
0 3.5 l

gsave
0.000 setgray
fill
grestore
stroke
grestore
} bind def
991.741 570.24 o
grestore
gsave
984.653744 578.575793 translate
50.000000 rotate
0.000000 0.000000 m /one glyphshow
6.362305 0.000000 m /nine glyphshow
12.724609 0.000000 m /five glyphshow
19.086914 0.000000 m /period glyphshow
22.265625 0.000000 m /four glyphshow
grestore
gsave
/o {
gsave
newpath
translate
0.8 setlinewidth
1 setlinejoin
0 setlinecap
0 0 m
0 3.5 l

gsave
0.000 setgray
fill
grestore
stroke
grestore
} bind def
1024.64 570.24 o
grestore
gsave
1017.556502 578.575793 translate
50.000000 rotate
0.000000 0.000000 m /two glyphshow
6.362305 0.000000 m /one glyphshow
12.724609 0.000000 m /nine glyphshow
19.086914 0.000000 m /period glyphshow
22.265625 0.000000 m /three glyphshow
grestore
gsave
/o {
gsave
newpath
translate
0.8 setlinewidth
1 setlinejoin
0 setlinecap
0 0 m
0 3.5 l

gsave
0.000 setgray
fill
grestore
stroke
grestore
} bind def
1070.34 570.24 o
grestore
gsave
1063.254778 578.575793 translate
50.000000 rotate
0.000000 0.000000 m /two glyphshow
6.362305 0.000000 m /four glyphshow
12.724609 0.000000 m /six glyphshow
19.086914 0.000000 m /period glyphshow
22.265625 0.000000 m /zero glyphshow
grestore
gsave
/o {
gsave
newpath
translate
0.8 setlinewidth
1 setlinejoin
0 setlinecap
0 0 m
0 3.5 l

gsave
0.000 setgray
fill
grestore
stroke
grestore
} bind def
1117.87 570.24 o
grestore
gsave
1110.780985 578.575793 translate
50.000000 rotate
0.000000 0.000000 m /two glyphshow
6.362305 0.000000 m /seven glyphshow
12.724609 0.000000 m /six glyphshow
19.086914 0.000000 m /period glyphshow
22.265625 0.000000 m /one glyphshow
grestore
gsave
/o {
gsave
newpath
translate
0.8 setlinewidth
1 setlinejoin
0 setlinecap
0 0 m
0 3.5 l

gsave
0.000 setgray
fill
grestore
stroke
grestore
} bind def
1147.12 570.24 o
grestore
gsave
1140.027882 578.575793 translate
50.000000 rotate
0.000000 0.000000 m /three glyphshow
6.362305 0.000000 m /zero glyphshow
12.724609 0.000000 m /nine glyphshow
19.086914 0.000000 m /period glyphshow
22.265625 0.000000 m /eight glyphshow
grestore
gsave
/o {
gsave
newpath
translate
0.8 setlinewidth
1 setlinejoin
0 setlinecap
0 0 m
0 3.5 l

gsave
0.000 setgray
fill
grestore
stroke
grestore
} bind def
1192.81 570.24 o
grestore
gsave
1185.726158 578.575793 translate
50.000000 rotate
0.000000 0.000000 m /three glyphshow
6.362305 0.000000 m /four glyphshow
12.724609 0.000000 m /seven glyphshow
19.086914 0.000000 m /period glyphshow
22.265625 0.000000 m /five glyphshow
grestore
gsave
578.717188 607.384984 translate
0.000000 rotate
0.000000 0.000000 m /T glyphshow
6.108398 0.000000 m /h glyphshow
12.446289 0.000000 m /e glyphshow
18.598633 0.000000 m /space glyphshow
21.777344 0.000000 m /a glyphshow
27.905273 0.000000 m /t glyphshow
31.826172 0.000000 m /t glyphshow
35.747070 0.000000 m /e glyphshow
41.899414 0.000000 m /n glyphshow
48.237305 0.000000 m /u glyphshow
54.575195 0.000000 m /a glyphshow
60.703125 0.000000 m /t glyphshow
64.624023 0.000000 m /i glyphshow
67.402344 0.000000 m /o glyphshow
73.520508 0.000000 m /n glyphshow
79.858398 0.000000 m /space glyphshow
83.037109 0.000000 m /a glyphshow
89.165039 0.000000 m /s glyphshow
94.375000 0.000000 m /space glyphshow
97.553711 0.000000 m /t glyphshow
101.474609 0.000000 m /h glyphshow
107.812500 0.000000 m /e glyphshow
113.964844 0.000000 m /o glyphshow
120.083008 0.000000 m /r glyphshow
124.194336 0.000000 m /e glyphshow
130.346680 0.000000 m /t glyphshow
134.267578 0.000000 m /i glyphshow
137.045898 0.000000 m /c glyphshow
142.543945 0.000000 m /a glyphshow
148.671875 0.000000 m /l glyphshow
151.450195 0.000000 m /space glyphshow
154.628906 0.000000 m /F glyphshow
160.380859 0.000000 m /S glyphshow
166.728516 0.000000 m /P glyphshow
172.758789 0.000000 m /L glyphshow
178.330078 0.000000 m /space glyphshow
181.508789 0.000000 m /d glyphshow
187.856445 0.000000 m /i glyphshow
190.634766 0.000000 m /s glyphshow
195.844727 0.000000 m /t glyphshow
199.765625 0.000000 m /a glyphshow
205.893555 0.000000 m /n glyphshow
212.231445 0.000000 m /c glyphshow
217.729492 0.000000 m /e glyphshow
223.881836 0.000000 m /space glyphshow
227.060547 0.000000 m /bracketleft glyphshow
230.961914 0.000000 m /m glyphshow
240.703125 0.000000 m /bracketright glyphshow
grestore
0 setlinejoin
2 setlinecap
[] 0 setdash
gsave
171 343.44 m
171 570.24 l
stroke
grestore
gsave
1231.2 343.44 m
1231.2 570.24 l
stroke
grestore
gsave
171 343.44 m
1231.2 343.44 l
stroke
grestore
gsave
171 570.24 m
1231.2 570.24 l
stroke
grestore
/DejaVuSans-Bold findfont
14.000 scalefont
setfont
gsave
552.421875 624.399375 translate
0.000000 rotate
0.000000 0.000000 m /S glyphshow
10.083008 0.000000 m /i glyphshow
14.881836 0.000000 m /K glyphshow
25.730469 0.000000 m /space glyphshow
30.604492 0.000000 m /M glyphshow
44.536133 0.000000 m /o glyphshow
54.154297 0.000000 m /d glyphshow
64.175781 0.000000 m /u glyphshow
74.142578 0.000000 m /l glyphshow
78.941406 0.000000 m /e glyphshow
88.436523 0.000000 m /space glyphshow
93.310547 0.000000 m /w glyphshow
106.244141 0.000000 m /i glyphshow
111.042969 0.000000 m /t glyphshow
117.735352 0.000000 m /h glyphshow
127.702148 0.000000 m /space glyphshow
132.576172 0.000000 m /P glyphshow
142.836914 0.000000 m /r glyphshow
149.741211 0.000000 m /o glyphshow
159.359375 0.000000 m /c glyphshow
167.658203 0.000000 m /o glyphshow
177.276367 0.000000 m /m glyphshow
191.864258 0.000000 m /space glyphshow
196.738281 0.000000 m /A glyphshow
207.573242 0.000000 m /n glyphshow
217.540039 0.000000 m /t glyphshow
224.232422 0.000000 m /e glyphshow
233.727539 0.000000 m /n glyphshow
243.694336 0.000000 m /n glyphshow
253.661133 0.000000 m /a glyphshow
grestore

end
showpage
