%!PS-Adobe-3.0 EPSF-3.0
%%Title: ./sik_figures/china_antenna_mro_20190515_10_30_15.eps
<<<<<<< HEAD
%%Creator: matplotlib version 3.0.3, http://matplotlib.org/
%%CreationDate: Fri May 24 01:01:53 2019
=======
%%Creator: matplotlib version 2.1.2, http://matplotlib.org/
%%CreationDate: Tue May 21 15:39:48 2019
>>>>>>> updated figures
%%Orientation: portrait
%%BoundingBox: -378 72 990 720
%%EndComments
%%BeginProlog
/mpldict 9 dict def
mpldict begin
/m { moveto } bind def
/l { lineto } bind def
/r { rlineto } bind def
/c { curveto } bind def
/cl { closepath } bind def
/box {
m
1 index 0 r
0 exch r
neg 0 r
cl
} bind def
/clipbox {
box
clip
newpath
} bind def
%!PS-Adobe-3.0 Resource-Font
%%Title: DejaVu Sans
%%Copyright: Copyright (c) 2003 by Bitstream, Inc. All Rights Reserved. Copyright (c) 2006 by Tavmjong Bah. All Rights Reserved. DejaVu changes are in public domain 
%%Creator: Converted from TrueType to type 3 by PPR
25 dict begin
/_d{bind def}bind def
/_m{moveto}_d
/_l{lineto}_d
/_cl{closepath eofill}_d
/_c{curveto}_d
/_sc{7 -1 roll{setcachedevice}{pop pop pop pop pop pop}ifelse}_d
/_e{exec}_d
/FontName /DejaVuSans def
/PaintType 0 def
/FontMatrix[.001 0 0 .001 0 0]def
/FontBBox[-1021 -463 1793 1232]def
/FontType 3 def
/Encoding [ /space /period /zero /one /two /three /four /five /six /seven /eight /nine /A /B /F /I /L /P /R /S /T /bracketleft /bracketright /a /c /d /e /h /i /l /m /n /o /r /s /t /u /minus ] def
/FontInfo 10 dict dup begin
/FamilyName (DejaVu Sans) def
/FullName (DejaVu Sans) def
/Notice (Copyright (c) 2003 by Bitstream, Inc. All Rights Reserved. Copyright (c) 2006 by Tavmjong Bah. All Rights Reserved. DejaVu changes are in public domain ) def
/Weight (Book) def
/Version (Version 2.35) def
/ItalicAngle 0.0 def
/isFixedPitch false def
/UnderlinePosition -130 def
/UnderlineThickness 90 def
end readonly def
/CharStrings 39 dict dup begin
/.notdef 0 def
/space{318 0 0 0 0 0 _sc
}_d
/period{318 0 107 0 210 124 _sc
107 124 _m
210 124 _l
210 0 _l
107 0 _l
107 124 _l
_cl}_d
/zero{636 0 66 -13 570 742 _sc
318 664 _m
267 664 229 639 203 589 _c
177 539 165 464 165 364 _c
165 264 177 189 203 139 _c
229 89 267 64 318 64 _c
369 64 407 89 433 139 _c
458 189 471 264 471 364 _c
471 464 458 539 433 589 _c
407 639 369 664 318 664 _c
318 742 _m
399 742 461 709 505 645 _c
548 580 570 486 570 364 _c
570 241 548 147 505 83 _c
461 19 399 -13 318 -13 _c
236 -13 173 19 130 83 _c
87 147 66 241 66 364 _c
66 486 87 580 130 645 _c
173 709 236 742 318 742 _c
_cl}_d
/one{636 0 110 0 544 729 _sc
124 83 _m
285 83 _l
285 639 _l
110 604 _l
110 694 _l
284 729 _l
383 729 _l
383 83 _l
544 83 _l
544 0 _l
124 0 _l
124 83 _l
_cl}_d
/two{{636 0 73 0 536 742 _sc
192 83 _m
536 83 _l
536 0 _l
73 0 _l
73 83 _l
110 121 161 173 226 239 _c
290 304 331 346 348 365 _c
380 400 402 430 414 455 _c
426 479 433 504 433 528 _c
433 566 419 598 392 622 _c
365 646 330 659 286 659 _c
255 659 222 653 188 643 _c
154 632 117 616 78 594 _c
78 694 _l
118 710 155 722 189 730 _c
223 738 255 742 284 742 _c
}_e{359 742 419 723 464 685 _c
509 647 532 597 532 534 _c
532 504 526 475 515 449 _c
504 422 484 390 454 354 _c
446 344 420 317 376 272 _c
332 227 271 164 192 83 _c
_cl}_e}_d
/three{{636 0 76 -13 556 742 _sc
406 393 _m
453 383 490 362 516 330 _c
542 298 556 258 556 212 _c
556 140 531 84 482 45 _c
432 6 362 -13 271 -13 _c
240 -13 208 -10 176 -4 _c
144 1 110 10 76 22 _c
76 117 _l
103 101 133 89 166 81 _c
198 73 232 69 268 69 _c
330 69 377 81 409 105 _c
441 129 458 165 458 212 _c
458 254 443 288 413 312 _c
383 336 341 349 287 349 _c
}_e{202 349 _l
202 430 _l
291 430 _l
339 430 376 439 402 459 _c
428 478 441 506 441 543 _c
441 580 427 609 401 629 _c
374 649 336 659 287 659 _c
260 659 231 656 200 650 _c
169 644 135 635 98 623 _c
98 711 _l
135 721 170 729 203 734 _c
235 739 266 742 296 742 _c
370 742 429 725 473 691 _c
517 657 539 611 539 553 _c
539 513 527 479 504 451 _c
481 423 448 403 406 393 _c
_cl}_e}_d
/four{636 0 49 0 580 729 _sc
378 643 _m
129 254 _l
378 254 _l
378 643 _l
352 729 _m
476 729 _l
476 254 _l
580 254 _l
580 172 _l
476 172 _l
476 0 _l
378 0 _l
378 172 _l
49 172 _l
49 267 _l
352 729 _l
_cl}_d
/five{{636 0 77 -13 549 729 _sc
108 729 _m
495 729 _l
495 646 _l
198 646 _l
198 467 _l
212 472 227 476 241 478 _c
255 480 270 482 284 482 _c
365 482 429 459 477 415 _c
525 370 549 310 549 234 _c
549 155 524 94 475 51 _c
426 8 357 -13 269 -13 _c
238 -13 207 -10 175 -6 _c
143 -1 111 6 77 17 _c
77 116 _l
106 100 136 88 168 80 _c
199 72 232 69 267 69 _c
}_e{323 69 368 83 401 113 _c
433 143 450 183 450 234 _c
450 284 433 324 401 354 _c
368 384 323 399 267 399 _c
241 399 214 396 188 390 _c
162 384 135 375 108 363 _c
108 729 _l
_cl}_e}_d
/six{{636 0 70 -13 573 742 _sc
330 404 _m
286 404 251 388 225 358 _c
199 328 186 286 186 234 _c
186 181 199 139 225 109 _c
251 79 286 64 330 64 _c
374 64 409 79 435 109 _c
461 139 474 181 474 234 _c
474 286 461 328 435 358 _c
409 388 374 404 330 404 _c
526 713 _m
526 623 _l
501 635 476 644 451 650 _c
425 656 400 659 376 659 _c
310 659 260 637 226 593 _c
}_e{192 549 172 482 168 394 _c
187 422 211 444 240 459 _c
269 474 301 482 336 482 _c
409 482 467 459 509 415 _c
551 371 573 310 573 234 _c
573 159 550 99 506 54 _c
462 9 403 -13 330 -13 _c
246 -13 181 19 137 83 _c
92 147 70 241 70 364 _c
70 479 97 571 152 639 _c
206 707 280 742 372 742 _c
396 742 421 739 447 735 _c
472 730 498 723 526 713 _c
_cl}_e}_d
/seven{636 0 82 0 551 729 _sc
82 729 _m
551 729 _l
551 687 _l
286 0 _l
183 0 _l
432 646 _l
82 646 _l
82 729 _l
_cl}_d
/eight{{636 0 68 -13 568 742 _sc
318 346 _m
271 346 234 333 207 308 _c
180 283 167 249 167 205 _c
167 161 180 126 207 101 _c
234 76 271 64 318 64 _c
364 64 401 76 428 102 _c
455 127 469 161 469 205 _c
469 249 455 283 429 308 _c
402 333 365 346 318 346 _c
219 388 _m
177 398 144 418 120 447 _c
96 476 85 511 85 553 _c
85 611 105 657 147 691 _c
188 725 245 742 318 742 _c
}_e{390 742 447 725 489 691 _c
530 657 551 611 551 553 _c
551 511 539 476 515 447 _c
491 418 459 398 417 388 _c
464 377 501 355 528 323 _c
554 291 568 251 568 205 _c
568 134 546 80 503 43 _c
459 5 398 -13 318 -13 _c
237 -13 175 5 132 43 _c
89 80 68 134 68 205 _c
68 251 81 291 108 323 _c
134 355 171 377 219 388 _c
183 544 _m
183 506 194 476 218 455 _c
}_e{242 434 275 424 318 424 _c
360 424 393 434 417 455 _c
441 476 453 506 453 544 _c
453 582 441 611 417 632 _c
393 653 360 664 318 664 _c
275 664 242 653 218 632 _c
194 611 183 582 183 544 _c
_cl}_e}_d
/nine{{636 0 63 -13 566 742 _sc
110 15 _m
110 105 _l
134 93 159 84 185 78 _c
210 72 235 69 260 69 _c
324 69 374 90 408 134 _c
442 178 462 244 468 334 _c
448 306 424 284 396 269 _c
367 254 335 247 300 247 _c
226 247 168 269 126 313 _c
84 357 63 417 63 494 _c
63 568 85 628 129 674 _c
173 719 232 742 306 742 _c
390 742 455 709 499 645 _c
543 580 566 486 566 364 _c
}_e{566 248 538 157 484 89 _c
429 21 356 -13 264 -13 _c
239 -13 214 -10 189 -6 _c
163 -2 137 5 110 15 _c
306 324 _m
350 324 385 339 411 369 _c
437 399 450 441 450 494 _c
450 546 437 588 411 618 _c
385 648 350 664 306 664 _c
262 664 227 648 201 618 _c
175 588 162 546 162 494 _c
162 441 175 399 201 369 _c
227 339 262 324 306 324 _c
_cl}_e}_d
/A{684 0 8 0 676 729 _sc
342 632 _m
208 269 _l
476 269 _l
342 632 _l
286 729 _m
398 729 _l
676 0 _l
573 0 _l
507 187 _l
178 187 _l
112 0 _l
8 0 _l
286 729 _l
_cl}_d
/B{{686 0 98 0 615 729 _sc
197 348 _m
197 81 _l
355 81 _l
408 81 447 92 473 114 _c
498 136 511 169 511 215 _c
511 260 498 293 473 315 _c
447 337 408 348 355 348 _c
197 348 _l
197 648 _m
197 428 _l
343 428 _l
391 428 426 437 450 455 _c
474 473 486 500 486 538 _c
486 574 474 602 450 620 _c
426 638 391 648 343 648 _c
197 648 _l
98 729 _m
350 729 _l
}_e{425 729 483 713 524 682 _c
564 650 585 606 585 549 _c
585 504 574 468 553 442 _c
532 416 502 399 462 393 _c
510 382 548 360 575 327 _c
601 294 615 253 615 204 _c
615 138 592 88 548 53 _c
504 17 441 0 360 0 _c
98 0 _l
98 729 _l
_cl}_e}_d
/F{575 0 98 0 517 729 _sc
98 729 _m
517 729 _l
517 646 _l
197 646 _l
197 431 _l
486 431 _l
486 348 _l
197 348 _l
197 0 _l
98 0 _l
98 729 _l
_cl}_d
/I{295 0 98 0 197 729 _sc
98 729 _m
197 729 _l
197 0 _l
98 0 _l
98 729 _l
_cl}_d
/L{557 0 98 0 552 729 _sc
98 729 _m
197 729 _l
197 83 _l
552 83 _l
552 0 _l
98 0 _l
98 729 _l
_cl}_d
/P{603 0 98 0 569 729 _sc
197 648 _m
197 374 _l
321 374 _l
367 374 402 385 427 409 _c
452 433 465 467 465 511 _c
465 555 452 588 427 612 _c
402 636 367 648 321 648 _c
197 648 _l
98 729 _m
321 729 _l
402 729 464 710 506 673 _c
548 636 569 582 569 511 _c
569 439 548 384 506 348 _c
464 311 402 293 321 293 _c
197 293 _l
197 0 _l
98 0 _l
98 729 _l
_cl}_d
/R{{695 0 98 0 666 729 _sc
444 342 _m
465 334 486 319 506 296 _c
526 272 546 240 566 199 _c
666 0 _l
560 0 _l
467 187 _l
443 235 419 268 397 284 _c
374 300 343 308 304 308 _c
197 308 _l
197 0 _l
98 0 _l
98 729 _l
321 729 _l
404 729 466 711 507 677 _c
548 642 569 589 569 519 _c
569 473 558 434 537 404 _c
515 374 484 353 444 342 _c
197 648 _m
197 389 _l
321 389 _l
}_e{368 389 404 400 428 422 _c
452 444 465 476 465 519 _c
465 561 452 593 428 615 _c
404 637 368 648 321 648 _c
197 648 _l
_cl}_e}_d
/S{{635 0 66 -13 579 742 _sc
535 705 _m
535 609 _l
497 627 462 640 429 649 _c
395 657 363 662 333 662 _c
279 662 237 651 208 631 _c
179 610 165 580 165 542 _c
165 510 174 485 194 469 _c
213 452 250 439 304 429 _c
364 417 _l
437 403 491 378 526 343 _c
561 307 579 260 579 201 _c
579 130 555 77 508 41 _c
460 5 391 -13 300 -13 _c
265 -13 228 -9 189 -2 _c
}_e{150 5 110 16 69 32 _c
69 134 _l
109 111 148 94 186 83 _c
224 71 262 66 300 66 _c
356 66 399 77 430 99 _c
460 121 476 152 476 194 _c
476 230 465 258 443 278 _c
421 298 385 313 335 323 _c
275 335 _l
201 349 148 372 115 404 _c
82 435 66 478 66 534 _c
66 598 88 649 134 686 _c
179 723 242 742 322 742 _c
356 742 390 739 426 733 _c
461 727 497 717 535 705 _c
}_e{_cl}_e}_d
/T{611 0 -2 0 614 729 _sc
-2 729 _m
614 729 _l
614 646 _l
355 646 _l
355 0 _l
256 0 _l
256 646 _l
-2 646 _l
-2 729 _l
_cl}_d
/bracketleft{390 0 86 -131 293 760 _sc
86 760 _m
293 760 _l
293 690 _l
176 690 _l
176 -61 _l
293 -61 _l
293 -131 _l
86 -131 _l
86 760 _l
_cl}_d
/bracketright{390 0 97 -131 304 760 _sc
304 760 _m
304 -131 _l
97 -131 _l
97 -61 _l
214 -61 _l
214 690 _l
97 690 _l
97 760 _l
304 760 _l
_cl}_d
/a{{613 0 60 -13 522 560 _sc
343 275 _m
270 275 220 266 192 250 _c
164 233 150 205 150 165 _c
150 133 160 107 181 89 _c
202 70 231 61 267 61 _c
317 61 357 78 387 114 _c
417 149 432 196 432 255 _c
432 275 _l
343 275 _l
522 312 _m
522 0 _l
432 0 _l
432 83 _l
411 49 385 25 355 10 _c
325 -5 287 -13 243 -13 _c
187 -13 142 2 109 33 _c
76 64 60 106 60 159 _c
}_e{60 220 80 266 122 298 _c
163 329 224 345 306 345 _c
432 345 _l
432 354 _l
432 395 418 427 391 450 _c
364 472 326 484 277 484 _c
245 484 215 480 185 472 _c
155 464 127 453 100 439 _c
100 522 _l
132 534 164 544 195 550 _c
226 556 256 560 286 560 _c
365 560 424 539 463 498 _c
502 457 522 395 522 312 _c
_cl}_e}_d
/c{{550 0 55 -13 488 560 _sc
488 526 _m
488 442 _l
462 456 437 466 411 473 _c
385 480 360 484 334 484 _c
276 484 230 465 198 428 _c
166 391 150 339 150 273 _c
150 206 166 154 198 117 _c
230 80 276 62 334 62 _c
360 62 385 65 411 72 _c
437 79 462 90 488 104 _c
488 21 _l
462 9 436 0 410 -5 _c
383 -10 354 -13 324 -13 _c
242 -13 176 12 128 64 _c
}_e{79 115 55 185 55 273 _c
55 362 79 432 128 483 _c
177 534 244 560 330 560 _c
358 560 385 557 411 551 _c
437 545 463 537 488 526 _c
_cl}_e}_d
/d{{635 0 55 -13 544 760 _sc
454 464 _m
454 760 _l
544 760 _l
544 0 _l
454 0 _l
454 82 _l
435 49 411 25 382 10 _c
353 -5 319 -13 279 -13 _c
213 -13 159 13 117 65 _c
75 117 55 187 55 273 _c
55 359 75 428 117 481 _c
159 533 213 560 279 560 _c
319 560 353 552 382 536 _c
411 520 435 496 454 464 _c
148 273 _m
148 207 161 155 188 117 _c
215 79 253 61 301 61 _c
}_e{348 61 385 79 413 117 _c
440 155 454 207 454 273 _c
454 339 440 390 413 428 _c
385 466 348 485 301 485 _c
253 485 215 466 188 428 _c
161 390 148 339 148 273 _c
_cl}_e}_d
/e{{615 0 55 -13 562 560 _sc
562 296 _m
562 252 _l
149 252 _l
153 190 171 142 205 110 _c
238 78 284 62 344 62 _c
378 62 412 66 444 74 _c
476 82 509 95 541 113 _c
541 28 _l
509 14 476 3 442 -3 _c
408 -9 373 -13 339 -13 _c
251 -13 182 12 131 62 _c
80 112 55 181 55 268 _c
55 357 79 428 127 481 _c
175 533 241 560 323 560 _c
397 560 455 536 498 489 _c
}_e{540 441 562 377 562 296 _c
472 322 _m
471 371 457 410 431 440 _c
404 469 368 484 324 484 _c
274 484 234 469 204 441 _c
174 413 156 373 152 322 _c
472 322 _l
_cl}_e}_d
/h{634 0 91 0 549 760 _sc
549 330 _m
549 0 _l
459 0 _l
459 327 _l
459 379 448 417 428 443 _c
408 469 378 482 338 482 _c
289 482 251 466 223 435 _c
195 404 181 362 181 309 _c
181 0 _l
91 0 _l
91 760 _l
181 760 _l
181 462 _l
202 494 227 519 257 535 _c
286 551 320 560 358 560 _c
420 560 468 540 500 501 _c
532 462 549 405 549 330 _c
_cl}_d
/i{278 0 94 0 184 760 _sc
94 547 _m
184 547 _l
184 0 _l
94 0 _l
94 547 _l
94 760 _m
184 760 _l
184 646 _l
94 646 _l
94 760 _l
_cl}_d
/l{278 0 94 0 184 760 _sc
94 760 _m
184 760 _l
184 0 _l
94 0 _l
94 760 _l
_cl}_d
/m{{974 0 91 0 889 560 _sc
520 442 _m
542 482 569 511 600 531 _c
631 550 668 560 711 560 _c
767 560 811 540 842 500 _c
873 460 889 403 889 330 _c
889 0 _l
799 0 _l
799 327 _l
799 379 789 418 771 444 _c
752 469 724 482 686 482 _c
639 482 602 466 575 435 _c
548 404 535 362 535 309 _c
535 0 _l
445 0 _l
445 327 _l
445 379 435 418 417 444 _c
398 469 369 482 331 482 _c
}_e{285 482 248 466 221 435 _c
194 404 181 362 181 309 _c
181 0 _l
91 0 _l
91 547 _l
181 547 _l
181 462 _l
201 495 226 520 255 536 _c
283 552 317 560 357 560 _c
397 560 430 550 458 530 _c
486 510 506 480 520 442 _c
_cl}_e}_d
/n{634 0 91 0 549 560 _sc
549 330 _m
549 0 _l
459 0 _l
459 327 _l
459 379 448 417 428 443 _c
408 469 378 482 338 482 _c
289 482 251 466 223 435 _c
195 404 181 362 181 309 _c
181 0 _l
91 0 _l
91 547 _l
181 547 _l
181 462 _l
202 494 227 519 257 535 _c
286 551 320 560 358 560 _c
420 560 468 540 500 501 _c
532 462 549 405 549 330 _c
_cl}_d
/o{612 0 55 -13 557 560 _sc
306 484 _m
258 484 220 465 192 427 _c
164 389 150 338 150 273 _c
150 207 163 156 191 118 _c
219 80 257 62 306 62 _c
354 62 392 80 420 118 _c
448 156 462 207 462 273 _c
462 337 448 389 420 427 _c
392 465 354 484 306 484 _c
306 560 _m
384 560 445 534 490 484 _c
534 433 557 363 557 273 _c
557 183 534 113 490 63 _c
445 12 384 -13 306 -13 _c
227 -13 165 12 121 63 _c
77 113 55 183 55 273 _c
55 363 77 433 121 484 _c
165 534 227 560 306 560 _c
_cl}_d
/r{411 0 91 0 411 560 _sc
411 463 _m
401 469 390 473 378 476 _c
366 478 353 480 339 480 _c
288 480 249 463 222 430 _c
194 397 181 350 181 288 _c
181 0 _l
91 0 _l
91 547 _l
181 547 _l
181 462 _l
199 495 224 520 254 536 _c
284 552 321 560 365 560 _c
371 560 378 559 386 559 _c
393 558 401 557 411 555 _c
411 463 _l
_cl}_d
/s{{521 0 54 -13 472 560 _sc
443 531 _m
443 446 _l
417 458 391 468 364 475 _c
336 481 308 485 279 485 _c
234 485 200 478 178 464 _c
156 450 145 430 145 403 _c
145 382 153 366 169 354 _c
185 342 217 330 265 320 _c
296 313 _l
360 299 405 279 432 255 _c
458 230 472 195 472 151 _c
472 100 452 60 412 31 _c
372 1 316 -13 246 -13 _c
216 -13 186 -10 154 -5 _c
}_e{122 0 89 8 54 20 _c
54 113 _l
87 95 120 82 152 74 _c
184 65 216 61 248 61 _c
290 61 323 68 346 82 _c
368 96 380 117 380 144 _c
380 168 371 187 355 200 _c
339 213 303 226 247 238 _c
216 245 _l
160 257 119 275 95 299 _c
70 323 58 356 58 399 _c
58 450 76 490 112 518 _c
148 546 200 560 268 560 _c
301 560 332 557 362 552 _c
391 547 418 540 443 531 _c
}_e{_cl}_e}_d
/t{392 0 27 0 368 702 _sc
183 702 _m
183 547 _l
368 547 _l
368 477 _l
183 477 _l
183 180 _l
183 135 189 106 201 94 _c
213 81 238 75 276 75 _c
368 75 _l
368 0 _l
276 0 _l
206 0 158 13 132 39 _c
106 65 93 112 93 180 _c
93 477 _l
27 477 _l
27 547 _l
93 547 _l
93 702 _l
183 702 _l
_cl}_d
/u{634 0 85 -13 543 560 _sc
85 216 _m
85 547 _l
175 547 _l
175 219 _l
175 167 185 129 205 103 _c
225 77 255 64 296 64 _c
344 64 383 79 411 110 _c
439 141 453 183 453 237 _c
453 547 _l
543 547 _l
543 0 _l
453 0 _l
453 84 _l
431 50 405 26 377 10 _c
348 -5 315 -13 277 -13 _c
214 -13 166 6 134 45 _c
101 83 85 140 85 216 _c
311 560 _m
311 560 _l
_cl}_d
/minus{838 0 106 272 732 355 _sc
106 355 _m
732 355 _l
732 272 _l
106 272 _l
106 355 _l
_cl}_d
end readonly def

/BuildGlyph
 {exch begin
 CharStrings exch
 2 copy known not{pop /.notdef}if
 true 3 1 roll get exec
 end}_d

/BuildChar {
 1 index /Encoding get exch get
 1 index /BuildGlyph get exec
}_d

FontName currentdict end definefont pop
%!PS-Adobe-3.0 Resource-Font
%%Title: DejaVu Sans Bold
%%Copyright: Copyright (c) 2003 by Bitstream, Inc. All Rights Reserved. Copyright (c) 2006 by Tavmjong Bah. All Rights Reserved. DejaVu changes are in public domain 
%%Creator: Converted from TrueType to type 3 by PPR
25 dict begin
/_d{bind def}bind def
/_m{moveto}_d
/_l{lineto}_d
/_cl{closepath eofill}_d
/_c{curveto}_d
/_sc{7 -1 roll{setcachedevice}{pop pop pop pop pop pop}ifelse}_d
/_e{exec}_d
/FontName /DejaVuSans-Bold def
/PaintType 0 def
/FontMatrix[.001 0 0 .001 0 0]def
/FontBBox[-1069 -415 1975 1174]def
/FontType 3 def
/Encoding [ /space /A /K /M /P /S /a /c /d /e /h /i /l /m /n /o /r /t /u /w ] def
/FontInfo 10 dict dup begin
/FamilyName (DejaVu Sans) def
/FullName (DejaVu Sans Bold) def
/Notice (Copyright (c) 2003 by Bitstream, Inc. All Rights Reserved. Copyright (c) 2006 by Tavmjong Bah. All Rights Reserved. DejaVu changes are in public domain ) def
/Weight (Bold) def
/Version (Version 2.35) def
/ItalicAngle 0.0 def
/isFixedPitch false def
/UnderlinePosition -130 def
/UnderlineThickness 90 def
end readonly def
/CharStrings 21 dict dup begin
/.notdef 0 def
/space{348 0 0 0 0 0 _sc
}_d
/A{774 0 5 0 769 729 _sc
534 133 _m
240 133 _l
194 0 _l
5 0 _l
275 729 _l
499 729 _l
769 0 _l
580 0 _l
534 133 _l
287 268 _m
487 268 _l
387 558 _l
287 268 _l
_cl}_d
/K{775 0 92 0 805 729 _sc
92 729 _m
280 729 _l
280 463 _l
551 729 _l
769 729 _l
418 384 _l
805 0 _l
570 0 _l
280 287 _l
280 0 _l
92 0 _l
92 729 _l
_cl}_d
/M{995 0 92 0 903 729 _sc
92 729 _m
331 729 _l
497 339 _l
664 729 _l
903 729 _l
903 0 _l
725 0 _l
725 533 _l
557 140 _l
438 140 _l
270 533 _l
270 0 _l
92 0 _l
92 729 _l
_cl}_d
/P{733 0 92 0 692 729 _sc
92 729 _m
404 729 _l
496 729 567 708 617 667 _c
667 625 692 567 692 491 _c
692 414 667 355 617 314 _c
567 273 496 253 404 253 _c
280 253 _l
280 0 _l
92 0 _l
92 729 _l
280 593 _m
280 389 _l
384 389 _l
420 389 448 397 468 415 _c
488 433 498 458 498 491 _c
498 523 488 548 468 566 _c
448 584 420 593 384 593 _c
280 593 _l
_cl}_d
/S{{720 0 72 -13 647 742 _sc
599 706 _m
599 552 _l
559 570 520 583 482 592 _c
444 601 408 606 374 606 _c
329 606 296 599 274 587 _c
252 575 242 556 242 530 _c
242 510 249 494 264 484 _c
278 473 305 464 343 456 _c
423 440 _l
503 424 561 399 595 366 _c
629 332 647 285 647 224 _c
647 144 623 84 575 45 _c
527 6 455 -13 357 -13 _c
311 -13 264 -8 218 0 _c
}_e{171 8 124 20 78 38 _c
78 197 _l
124 172 169 153 213 141 _c
256 128 298 122 339 122 _c
379 122 411 128 433 142 _c
455 156 466 175 466 201 _c
466 223 458 241 443 253 _c
428 265 399 277 355 287 _c
282 303 _l
209 319 156 344 122 378 _c
88 412 72 458 72 516 _c
72 588 95 644 142 683 _c
188 722 256 742 344 742 _c
384 742 425 739 467 733 _c
509 727 553 718 599 706 _c
}_e{_cl}_e}_d
/a{{675 0 43 -13 596 560 _sc
329 246 _m
292 246 264 239 246 227 _c
228 215 219 197 219 173 _c
219 151 226 133 241 121 _c
256 108 277 102 303 102 _c
336 102 364 113 386 137 _c
408 161 420 190 420 226 _c
420 246 _l
329 246 _l
596 312 _m
596 0 _l
420 0 _l
420 81 _l
396 47 370 23 341 9 _c
311 -5 276 -13 234 -13 _c
177 -13 131 3 96 36 _c
60 68 43 111 43 164 _c
}_e{43 228 65 275 109 305 _c
153 335 222 350 317 350 _c
420 350 _l
420 364 _l
420 391 409 411 387 424 _c
365 437 331 444 285 444 _c
247 444 212 440 180 432 _c
148 424 118 413 91 399 _c
91 532 _l
128 541 165 548 203 553 _c
241 557 279 560 317 560 _c
415 560 486 540 530 501 _c
574 462 596 399 596 312 _c
_cl}_e}_d
/c{{593 0 43 -13 526 560 _sc
526 530 _m
526 387 _l
502 403 478 415 454 423 _c
430 431 405 435 380 435 _c
331 435 293 420 266 392 _c
238 364 225 324 225 273 _c
225 221 238 181 266 153 _c
293 125 331 111 380 111 _c
407 111 433 115 458 123 _c
482 131 505 143 526 159 _c
526 16 _l
498 6 470 -1 442 -6 _c
414 -10 386 -13 358 -13 _c
259 -13 182 12 126 62 _c
}_e{70 112 43 183 43 273 _c
43 363 70 433 126 484 _c
182 534 259 560 358 560 _c
386 560 414 557 442 552 _c
470 547 498 540 526 530 _c
_cl}_e}_d
/d{{716 0 45 -13 632 760 _sc
456 467 _m
456 760 _l
632 760 _l
632 0 _l
456 0 _l
456 79 _l
432 47 405 23 376 9 _c
347 -5 314 -13 276 -13 _c
208 -13 153 13 110 66 _c
66 119 45 188 45 273 _c
45 357 66 425 110 479 _c
153 533 208 560 276 560 _c
314 560 347 552 376 537 _c
405 522 432 499 456 467 _c
341 113 _m
378 113 406 126 426 154 _c
446 181 456 221 456 273 _c
}_e{456 325 446 364 426 392 _c
406 419 378 433 341 433 _c
303 433 275 419 255 392 _c
235 364 226 325 226 273 _c
226 221 235 181 255 154 _c
275 126 303 113 341 113 _c
_cl}_e}_d
/e{{678 0 43 -13 630 560 _sc
630 275 _m
630 225 _l
221 225 _l
225 184 240 153 266 133 _c
291 112 326 102 372 102 _c
408 102 446 107 485 118 _c
523 129 563 146 604 168 _c
604 33 _l
562 17 521 6 480 -1 _c
438 -9 397 -13 356 -13 _c
257 -13 180 12 125 62 _c
70 112 43 182 43 273 _c
43 362 70 432 124 483 _c
178 534 252 560 346 560 _c
432 560 500 534 552 482 _c
}_e{604 430 630 361 630 275 _c
450 333 _m
450 366 440 393 421 413 _c
401 433 376 444 345 444 _c
311 444 283 434 262 415 _c
241 396 228 369 223 333 _c
450 333 _l
_cl}_e}_d
/h{712 0 84 0 634 760 _sc
634 333 _m
634 0 _l
458 0 _l
458 54 _l
458 254 _l
458 302 457 334 455 352 _c
453 370 449 383 444 392 _c
437 403 428 412 416 418 _c
404 424 390 428 376 428 _c
339 428 310 414 290 386 _c
269 358 259 319 259 269 _c
259 0 _l
84 0 _l
84 760 _l
259 760 _l
259 467 _l
285 499 312 522 342 537 _c
372 552 405 560 441 560 _c
504 560 552 540 585 502 _c
617 463 634 407 634 333 _c
_cl}_d
/i{343 0 84 0 259 760 _sc
84 547 _m
259 547 _l
259 0 _l
84 0 _l
84 547 _l
84 760 _m
259 760 _l
259 617 _l
84 617 _l
84 760 _l
_cl}_d
/l{343 0 84 0 259 760 _sc
84 760 _m
259 760 _l
259 0 _l
84 0 _l
84 760 _l
_cl}_d
/m{{1042 0 83 0 963 560 _sc
591 456 _m
613 490 639 515 669 533 _c
699 551 733 560 770 560 _c
832 560 880 540 913 502 _c
946 463 963 407 963 333 _c
963 0 _l
787 0 _l
787 285 _l
787 289 788 294 788 298 _c
788 302 788 309 788 318 _c
788 356 782 384 771 402 _c
759 419 741 428 716 428 _c
682 428 657 414 639 387 _c
621 359 611 320 611 269 _c
611 0 _l
435 0 _l
435 285 _l
}_e{435 345 429 384 419 402 _c
409 419 390 428 364 428 _c
330 428 304 414 286 387 _c
268 359 259 320 259 269 _c
259 0 _l
83 0 _l
83 547 _l
259 547 _l
259 467 _l
280 497 305 520 333 536 _c
361 552 391 560 425 560 _c
462 560 495 550 524 532 _c
553 514 575 488 591 456 _c
_cl}_e}_d
/n{712 0 84 0 634 560 _sc
634 333 _m
634 0 _l
458 0 _l
458 54 _l
458 255 _l
458 302 457 334 455 352 _c
453 370 449 383 444 392 _c
437 403 428 412 416 418 _c
404 424 390 428 376 428 _c
339 428 310 414 290 386 _c
269 358 259 319 259 269 _c
259 0 _l
84 0 _l
84 547 _l
259 547 _l
259 467 _l
285 499 312 522 342 537 _c
372 552 405 560 441 560 _c
504 560 552 540 585 502 _c
617 463 634 407 634 333 _c
_cl}_d
/o{687 0 43 -13 644 560 _sc
344 435 _m
305 435 275 421 255 393 _c
235 365 225 325 225 273 _c
225 220 235 180 255 152 _c
275 124 305 111 344 111 _c
382 111 411 124 431 152 _c
451 180 462 220 462 273 _c
462 325 451 365 431 393 _c
411 421 382 435 344 435 _c
344 560 _m
438 560 511 534 564 484 _c
617 433 644 363 644 273 _c
644 183 617 112 564 62 _c
511 12 438 -13 344 -13 _c
250 -13 176 12 123 62 _c
69 112 43 183 43 273 _c
43 363 69 433 123 484 _c
176 534 250 560 344 560 _c
_cl}_d
/r{493 0 84 0 490 560 _sc
490 398 _m
474 405 459 410 444 414 _c
429 417 414 419 399 419 _c
354 419 319 404 295 376 _c
271 347 259 306 259 252 _c
259 0 _l
84 0 _l
84 547 _l
259 547 _l
259 457 _l
281 493 306 519 336 535 _c
365 551 400 560 441 560 _c
447 560 453 559 460 559 _c
466 559 476 558 490 556 _c
490 398 _l
_cl}_d
/t{478 0 13 0 455 702 _sc
275 702 _m
275 547 _l
455 547 _l
455 422 _l
275 422 _l
275 190 _l
275 164 280 147 290 138 _c
300 129 320 125 350 125 _c
440 125 _l
440 0 _l
290 0 _l
221 0 172 14 143 43 _c
114 71 100 120 100 190 _c
100 422 _l
13 422 _l
13 547 _l
100 547 _l
100 702 _l
275 702 _l
_cl}_d
/u{{712 0 78 -13 628 547 _sc
78 213 _m
78 547 _l
254 547 _l
254 492 _l
254 462 253 425 253 380 _c
253 335 253 305 253 291 _c
253 247 254 215 256 196 _c
258 176 262 162 268 154 _c
275 142 284 133 296 127 _c
307 121 320 118 336 118 _c
372 118 401 132 422 160 _c
442 188 453 227 453 277 _c
453 547 _l
628 547 _l
628 0 _l
453 0 _l
453 79 _l
427 47 399 23 369 9 _c
}_e{339 -5 307 -13 272 -13 _c
208 -13 160 6 127 44 _c
94 82 78 139 78 213 _c
_cl}_e}_d
/w{924 0 35 0 889 547 _sc
35 547 _m
205 547 _l
297 170 _l
389 547 _l
535 547 _l
627 174 _l
719 547 _l
889 547 _l
745 0 _l
554 0 _l
462 376 _l
370 0 _l
179 0 _l
35 547 _l
_cl}_d
end readonly def

/BuildGlyph
 {exch begin
 CharStrings exch
 2 copy known not{pop /.notdef}if
 true 3 1 roll get exec
 end}_d

/BuildChar {
 1 index /Encoding get exch get
 1 index /BuildGlyph get exec
}_d

FontName currentdict end definefont pop
end
%%EndProlog
mpldict begin
-378 72 translate
1368 648 0 0 clipbox
gsave
0 0 m
1368 0 l
1368 648 l
0 648 l
cl
1.000 setgray
fill
grestore
gsave
171 71.28 m
1231.2 71.28 l
1231.2 570.24 l
171 570.24 l
cl
1.000 setgray
fill
grestore
1.000 setlinewidth
0 setlinejoin
0 setlinecap
[] 0 setdash
0.230 0.322 0.546 setrgbcolor
gsave
1060 499 171 71.28 clipbox
171 71.28 m
171 570.24 l
309.922759 570.24 l
309.922759 71.28 l
cl
gsave
fill
grestore
stroke
grestore
0.222 0.339 0.549 setrgbcolor
gsave
1060 499 171 71.28 clipbox
309.922759 71.28 m
309.922759 570.24 l
443.361724 570.24 l
443.361724 71.28 l
cl
gsave
fill
grestore
stroke
grestore
0.212 0.360 0.552 setrgbcolor
gsave
1060 499 171 71.28 clipbox
443.361724 71.28 m
443.361724 570.24 l
618.843103 570.24 l
618.843103 71.28 l
cl
gsave
fill
grestore
stroke
grestore
0.203 0.380 0.554 setrgbcolor
gsave
1060 499 171 71.28 clipbox
618.843103 71.28 m
618.843103 570.24 l
669.111207 570.24 l
669.111207 71.28 l
cl
gsave
fill
grestore
stroke
grestore
0.194 0.399 0.556 setrgbcolor
gsave
1060 499 171 71.28 clipbox
669.111207 71.28 m
669.111207 570.24 l
734.916724 570.24 l
734.916724 71.28 l
cl
gsave
fill
grestore
stroke
grestore
0.186 0.419 0.557 setrgbcolor
gsave
1060 499 171 71.28 clipbox
734.916724 71.28 m
734.916724 570.24 l
787.012759 570.24 l
787.012759 71.28 l
cl
gsave
fill
grestore
stroke
grestore
0.179 0.434 0.557 setrgbcolor
gsave
1060 499 171 71.28 clipbox
787.012759 71.28 m
787.012759 570.24 l
840.022759 570.24 l
840.022759 71.28 l
cl
gsave
fill
grestore
stroke
grestore
0.156 0.490 0.558 setrgbcolor
gsave
1060 499 171 71.28 clipbox
840.022759 71.28 m
840.022759 570.24 l
933.247241 570.24 l
933.247241 71.28 l
cl
gsave
fill
grestore
stroke
grestore
0.119 0.611 0.539 setrgbcolor
gsave
1060 499 171 71.28 clipbox
933.247241 71.28 m
933.247241 570.24 l
951.526552 570.24 l
951.526552 71.28 l
cl
gsave
fill
grestore
stroke
grestore
0.156 0.490 0.558 setrgbcolor
gsave
1060 499 171 71.28 clipbox
951.526552 71.28 m
951.526552 570.24 l
978.945517 570.24 l
978.945517 71.28 l
cl
gsave
fill
grestore
stroke
grestore
0.149 0.508 0.557 setrgbcolor
gsave
1060 499 171 71.28 clipbox
978.945517 71.28 m
978.945517 570.24 l
1004.536552 570.24 l
1004.536552 71.28 l
cl
gsave
fill
grestore
stroke
grestore
0.142 0.526 0.556 setrgbcolor
gsave
1060 499 171 71.28 clipbox
1004.536552 71.28 m
1004.536552 570.24 l
1044.751034 570.24 l
1044.751034 71.28 l
cl
gsave
fill
grestore
stroke
grestore
0.136 0.541 0.554 setrgbcolor
gsave
1060 499 171 71.28 clipbox
1044.751034 71.28 m
1044.751034 570.24 l
1095.933103 570.24 l
1095.933103 71.28 l
cl
gsave
fill
grestore
stroke
grestore
0.130 0.560 0.552 setrgbcolor
gsave
1060 499 171 71.28 clipbox
1095.933103 71.28 m
1095.933103 570.24 l
1139.803448 570.24 l
1139.803448 71.28 l
cl
gsave
fill
grestore
stroke
grestore
0.121 0.596 0.544 setrgbcolor
gsave
1060 499 171 71.28 clipbox
1139.803448 71.28 m
1139.803448 570.24 l
1154.426897 570.24 l
1154.426897 71.28 l
cl
gsave
fill
grestore
stroke
grestore
0.119 0.611 0.539 setrgbcolor
gsave
1060 499 171 71.28 clipbox
1154.426897 71.28 m
1154.426897 570.24 l
1231.2 570.24 l
1231.2 71.28 l
cl
gsave
fill
grestore
stroke
grestore
0.800 setlinewidth
1 setlinejoin
[] 0 setdash
0.000 setgray
gsave
/o {
gsave
newpath
translate
0.8 setlinewidth
1 setlinejoin
0 setlinecap
0 0 m
0 -3.5 l

gsave
0.000 setgray
fill
grestore
stroke
grestore
} bind def
240.461 71.28 o
grestore
/DejaVuSans findfont
10.000 scalefont
setfont
gsave
237.281692 56.686250 translate
0.000000 rotate
0.000000 0.000000 m /zero glyphshow
grestore
gsave
/o {
gsave
newpath
translate
0.8 setlinewidth
1 setlinejoin
0 setlinecap
0 0 m
0 -3.5 l

gsave
0.000 setgray
fill
grestore
stroke
grestore
} bind def
376.642 71.28 o
grestore
gsave
370.282866 56.686250 translate
0.000000 rotate
0.000000 0.000000 m /one glyphshow
6.362305 0.000000 m /zero glyphshow
grestore
gsave
/o {
gsave
newpath
translate
0.8 setlinewidth
1 setlinejoin
0 setlinecap
0 0 m
0 -3.5 l

gsave
0.000 setgray
fill
grestore
stroke
grestore
} bind def
531.102 71.28 o
grestore
gsave
524.743039 56.686250 translate
0.000000 rotate
0.000000 0.000000 m /two glyphshow
6.362305 0.000000 m /zero glyphshow
grestore
gsave
/o {
gsave
newpath
translate
0.8 setlinewidth
1 setlinejoin
0 setlinecap
0 0 m
0 -3.5 l

gsave
0.000 setgray
fill
grestore
stroke
grestore
} bind def
643.977 71.28 o
grestore
gsave
637.617780 56.686250 translate
0.000000 rotate
0.000000 0.000000 m /three glyphshow
6.362305 0.000000 m /zero glyphshow
grestore
gsave
/o {
gsave
newpath
translate
0.8 setlinewidth
1 setlinejoin
0 setlinecap
0 0 m
0 -3.5 l

gsave
0.000 setgray
fill
grestore
stroke
grestore
} bind def
702.014 71.28 o
grestore
gsave
695.654591 56.686250 translate
0.000000 rotate
0.000000 0.000000 m /four glyphshow
6.362305 0.000000 m /zero glyphshow
grestore
gsave
/o {
gsave
newpath
translate
0.8 setlinewidth
1 setlinejoin
0 setlinecap
0 0 m
0 -3.5 l

gsave
0.000 setgray
fill
grestore
stroke
grestore
} bind def
760.965 71.28 o
grestore
gsave
754.605366 56.686250 translate
0.000000 rotate
0.000000 0.000000 m /five glyphshow
6.362305 0.000000 m /zero glyphshow
grestore
gsave
/o {
gsave
newpath
translate
0.8 setlinewidth
1 setlinejoin
0 setlinecap
0 0 m
0 -3.5 l

gsave
0.000 setgray
fill
grestore
stroke
grestore
} bind def
813.518 71.28 o
grestore
gsave
807.158384 56.686250 translate
0.000000 rotate
0.000000 0.000000 m /six glyphshow
6.362305 0.000000 m /zero glyphshow
grestore
gsave
/o {
gsave
newpath
translate
0.8 setlinewidth
1 setlinejoin
0 setlinecap
0 0 m
0 -3.5 l

gsave
0.000 setgray
fill
grestore
stroke
grestore
} bind def
886.635 71.28 o
grestore
gsave
880.275625 56.686250 translate
0.000000 rotate
0.000000 0.000000 m /seven glyphshow
6.362305 0.000000 m /zero glyphshow
grestore
gsave
/o {
gsave
newpath
translate
0.8 setlinewidth
1 setlinejoin
0 setlinecap
0 0 m
0 -3.5 l

gsave
0.000 setgray
fill
grestore
stroke
grestore
} bind def
942.387 71.28 o
grestore
gsave
936.027522 56.686250 translate
0.000000 rotate
0.000000 0.000000 m /eight glyphshow
6.362305 0.000000 m /zero glyphshow
grestore
gsave
/o {
gsave
newpath
translate
0.8 setlinewidth
1 setlinejoin
0 setlinecap
0 0 m
0 -3.5 l

gsave
0.000 setgray
fill
grestore
stroke
grestore
} bind def
965.236 71.28 o
grestore
gsave
958.876659 56.686250 translate
0.000000 rotate
0.000000 0.000000 m /seven glyphshow
6.362305 0.000000 m /zero glyphshow
grestore
gsave
/o {
gsave
newpath
translate
0.8 setlinewidth
1 setlinejoin
0 setlinecap
0 0 m
0 -3.5 l

gsave
0.000 setgray
fill
grestore
stroke
grestore
} bind def
991.741 71.28 o
grestore
gsave
985.381659 56.686250 translate
0.000000 rotate
0.000000 0.000000 m /seven glyphshow
6.362305 0.000000 m /one glyphshow
grestore
gsave
/o {
gsave
newpath
translate
0.8 setlinewidth
1 setlinejoin
0 setlinecap
0 0 m
0 -3.5 l

gsave
0.000 setgray
fill
grestore
stroke
grestore
} bind def
1024.64 71.28 o
grestore
gsave
1018.284418 56.686250 translate
0.000000 rotate
0.000000 0.000000 m /seven glyphshow
6.362305 0.000000 m /two glyphshow
grestore
gsave
/o {
gsave
newpath
translate
0.8 setlinewidth
1 setlinejoin
0 setlinecap
0 0 m
0 -3.5 l

gsave
0.000 setgray
fill
grestore
stroke
grestore
} bind def
1070.34 71.28 o
grestore
gsave
1063.982694 56.686250 translate
0.000000 rotate
0.000000 0.000000 m /seven glyphshow
6.362305 0.000000 m /three glyphshow
grestore
gsave
/o {
gsave
newpath
translate
0.8 setlinewidth
1 setlinejoin
0 setlinecap
0 0 m
0 -3.5 l

gsave
0.000 setgray
fill
grestore
stroke
grestore
} bind def
1117.87 71.28 o
grestore
gsave
1111.508901 56.686250 translate
0.000000 rotate
0.000000 0.000000 m /seven glyphshow
6.362305 0.000000 m /four glyphshow
grestore
gsave
/o {
gsave
newpath
translate
0.8 setlinewidth
1 setlinejoin
0 setlinecap
0 0 m
0 -3.5 l

gsave
0.000 setgray
fill
grestore
stroke
grestore
} bind def
1147.12 71.28 o
grestore
gsave
1140.755797 56.686250 translate
0.000000 rotate
0.000000 0.000000 m /seven glyphshow
6.362305 0.000000 m /five glyphshow
grestore
gsave
/o {
gsave
newpath
translate
0.8 setlinewidth
1 setlinejoin
0 setlinecap
0 0 m
0 -3.5 l

gsave
0.000 setgray
fill
grestore
stroke
grestore
} bind def
1192.81 71.28 o
grestore
gsave
1186.454073 56.686250 translate
0.000000 rotate
0.000000 0.000000 m /seven glyphshow
6.362305 0.000000 m /six glyphshow
grestore
gsave
659.584375 43.014375 translate
0.000000 rotate
0.000000 0.000000 m /A glyphshow
6.840820 0.000000 m /t glyphshow
10.761719 0.000000 m /t glyphshow
14.682617 0.000000 m /e glyphshow
20.834961 0.000000 m /n glyphshow
27.172852 0.000000 m /u glyphshow
33.510742 0.000000 m /a glyphshow
39.638672 0.000000 m /t glyphshow
43.559570 0.000000 m /i glyphshow
46.337891 0.000000 m /o glyphshow
52.456055 0.000000 m /n glyphshow
58.793945 0.000000 m /space glyphshow
61.972656 0.000000 m /bracketleft glyphshow
65.874023 0.000000 m /d glyphshow
72.221680 0.000000 m /B glyphshow
79.082031 0.000000 m /bracketright glyphshow
grestore
gsave
/o {
gsave
newpath
translate
0.8 setlinewidth
1 setlinejoin
0 setlinecap
0 0 m
-3.5 0 l

gsave
0.000 setgray
fill
grestore
stroke
grestore
} bind def
171 83.2871 o
grestore
gsave
136.546875 79.490184 translate
0.000000 rotate
0.000000 0.000000 m /minus glyphshow
8.378906 0.000000 m /one glyphshow
14.741211 0.000000 m /two glyphshow
21.103516 0.000000 m /zero glyphshow
grestore
gsave
/o {
gsave
newpath
translate
0.8 setlinewidth
1 setlinejoin
0 setlinecap
0 0 m
-3.5 0 l

gsave
0.000 setgray
fill
grestore
stroke
grestore
} bind def
171 190.016 o
grestore
gsave
136.546875 186.219596 translate
0.000000 rotate
0.000000 0.000000 m /minus glyphshow
8.378906 0.000000 m /one glyphshow
14.741211 0.000000 m /zero glyphshow
21.103516 0.000000 m /zero glyphshow
grestore
gsave
/o {
gsave
newpath
translate
0.8 setlinewidth
1 setlinejoin
0 setlinecap
0 0 m
-3.5 0 l

gsave
0.000 setgray
fill
grestore
stroke
grestore
} bind def
171 296.746 o
grestore
gsave
142.906250 292.949007 translate
0.000000 rotate
0.000000 0.000000 m /minus glyphshow
8.378906 0.000000 m /eight glyphshow
14.741211 0.000000 m /zero glyphshow
grestore
gsave
/o {
gsave
newpath
translate
0.8 setlinewidth
1 setlinejoin
0 setlinecap
0 0 m
-3.5 0 l

gsave
0.000 setgray
fill
grestore
stroke
grestore
} bind def
171 403.475 o
grestore
gsave
142.906250 399.678419 translate
0.000000 rotate
0.000000 0.000000 m /minus glyphshow
8.378906 0.000000 m /six glyphshow
14.741211 0.000000 m /zero glyphshow
grestore
gsave
/o {
gsave
newpath
translate
0.8 setlinewidth
1 setlinejoin
0 setlinecap
0 0 m
-3.5 0 l

gsave
0.000 setgray
fill
grestore
stroke
grestore
} bind def
171 510.205 o
grestore
gsave
142.906250 506.407831 translate
0.000000 rotate
0.000000 0.000000 m /minus glyphshow
8.378906 0.000000 m /four glyphshow
14.741211 0.000000 m /zero glyphshow
grestore
0.600 setlinewidth
gsave
/o {
gsave
newpath
translate
0.6 setlinewidth
1 setlinejoin
0 setlinecap
0 0 m
-2 0 l

gsave
0.000 setgray
fill
grestore
stroke
grestore
} bind def
171 109.969 o
grestore
gsave
/o {
gsave
newpath
translate
0.6 setlinewidth
1 setlinejoin
0 setlinecap
0 0 m
-2 0 l

gsave
0.000 setgray
fill
grestore
stroke
grestore
} bind def
171 136.652 o
grestore
gsave
/o {
gsave
newpath
translate
0.6 setlinewidth
1 setlinejoin
0 setlinecap
0 0 m
-2 0 l

gsave
0.000 setgray
fill
grestore
stroke
grestore
} bind def
171 163.334 o
grestore
gsave
/o {
gsave
newpath
translate
0.6 setlinewidth
1 setlinejoin
0 setlinecap
0 0 m
-2 0 l

gsave
0.000 setgray
fill
grestore
stroke
grestore
} bind def
171 216.699 o
grestore
gsave
/o {
gsave
newpath
translate
0.6 setlinewidth
1 setlinejoin
0 setlinecap
0 0 m
-2 0 l

gsave
0.000 setgray
fill
grestore
stroke
grestore
} bind def
171 243.381 o
grestore
gsave
/o {
gsave
newpath
translate
0.6 setlinewidth
1 setlinejoin
0 setlinecap
0 0 m
-2 0 l

gsave
0.000 setgray
fill
grestore
stroke
grestore
} bind def
171 270.064 o
grestore
gsave
/o {
gsave
newpath
translate
0.6 setlinewidth
1 setlinejoin
0 setlinecap
0 0 m
-2 0 l

gsave
0.000 setgray
fill
grestore
stroke
grestore
} bind def
171 323.428 o
grestore
gsave
/o {
gsave
newpath
translate
0.6 setlinewidth
1 setlinejoin
0 setlinecap
0 0 m
-2 0 l

gsave
0.000 setgray
fill
grestore
stroke
grestore
} bind def
171 350.111 o
grestore
gsave
/o {
gsave
newpath
translate
0.6 setlinewidth
1 setlinejoin
0 setlinecap
0 0 m
-2 0 l

gsave
0.000 setgray
fill
grestore
stroke
grestore
} bind def
171 376.793 o
grestore
gsave
/o {
gsave
newpath
translate
0.6 setlinewidth
1 setlinejoin
0 setlinecap
0 0 m
-2 0 l

gsave
0.000 setgray
fill
grestore
stroke
grestore
} bind def
171 430.158 o
grestore
gsave
/o {
gsave
newpath
translate
0.6 setlinewidth
1 setlinejoin
0 setlinecap
0 0 m
-2 0 l

gsave
0.000 setgray
fill
grestore
stroke
grestore
} bind def
171 456.84 o
grestore
gsave
/o {
gsave
newpath
translate
0.6 setlinewidth
1 setlinejoin
0 setlinecap
0 0 m
-2 0 l

gsave
0.000 setgray
fill
grestore
stroke
grestore
} bind def
171 483.522 o
grestore
gsave
/o {
gsave
newpath
translate
0.6 setlinewidth
1 setlinejoin
0 setlinecap
0 0 m
-2 0 l

gsave
0.000 setgray
fill
grestore
stroke
grestore
} bind def
171 536.887 o
grestore
gsave
/o {
gsave
newpath
translate
0.6 setlinewidth
1 setlinejoin
0 setlinecap
0 0 m
-2 0 l

gsave
0.000 setgray
fill
grestore
stroke
grestore
} bind def
171 563.569 o
grestore
gsave
130.468750 297.361562 translate
90.000000 rotate
0.000000 0.000000 m /R glyphshow
6.948242 0.000000 m /S glyphshow
13.295898 0.000000 m /S glyphshow
19.643555 0.000000 m /I glyphshow
22.592773 0.000000 m /space glyphshow
25.771484 0.000000 m /bracketleft glyphshow
29.672852 0.000000 m /d glyphshow
36.020508 0.000000 m /B glyphshow
42.880859 0.000000 m /bracketright glyphshow
grestore
1.500 setlinewidth
2 setlinecap
1.000 0.000 0.000 setrgbcolor
gsave
1060 499 171 71.28 clipbox
172.221215 536.887059 m
175.83995 536.887059 l
176.808464 542.223529 l
177.740703 531.550588 l
178.600419 536.887059 l
179.568817 536.887059 l
180.501438 542.223529 l
181.470537 536.887059 l
182.256367 542.223529 l
183.188767 536.887059 l
184.102625 536.887059 l
185.034606 542.223529 l
185.912259 542.223529 l
186.844582 536.887059 l
187.776741 542.223529 l
188.690514 531.550588 l
190.591883 542.223529 l
191.432681 542.223529 l
192.309986 536.887059 l
195.070347 536.887059 l
196.020105 542.223529 l
196.898246 542.223529 l
197.866969 536.887059 l
198.79937 542.223529 l
199.676463 536.887059 l
200.626582 536.887059 l
201.504719 542.223529 l
202.455076 536.887059 l
203.314168 536.887059 l
204.283141 542.223529 l
205.160592 536.887059 l
206.092803 536.887059 l
207.061553 542.223529 l
207.902368 542.223529 l
208.871133 536.887059 l
209.803457 542.223529 l
210.772344 536.887059 l
211.649717 536.887059 l
212.490146 542.223529 l
213.459319 536.887059 l
214.391165 542.223529 l
215.359719 542.223529 l
216.145913 536.887059 l
217.096149 536.887059 l
218.046163 542.223529 l
218.997833 536.887059 l
219.801481 536.887059 l
220.752422 542.223529 l
221.684239 531.550588 l
223.531262 542.223529 l
224.37136 542.223529 l
225.340443 536.887059 l
226.27308 542.223529 l
227.241938 536.887059 l
228.95949 536.887059 l
229.928882 542.223529 l
230.806298 536.887059 l
231.830061 542.223529 l
232.762189 536.887059 l
234.46099 536.887059 l
235.394406 542.223529 l
236.362023 536.887059 l
237.203457 536.887059 l
238.154316 542.223529 l
239.049622 536.887059 l
239.981808 547.56 l
240.950273 536.887059 l
241.80933 536.887059 l
242.742379 542.223529 l
243.710567 536.887059 l
245.538369 536.887059 l
246.398665 542.223529 l
247.330786 536.887059 l
248.298721 542.223529 l
249.231326 536.887059 l
250.986673 536.887059 l
251.863572 542.223529 l
252.831737 536.887059 l
253.710426 542.223529 l
254.605727 536.887059 l
256.452188 536.887059 l
257.420999 542.223529 l
258.261744 536.887059 l
259.212361 542.223529 l
260.107382 536.887059 l
262.008718 536.887059 l
262.868312 542.223529 l
263.818899 536.887059 l
264.714521 542.223529 l
265.646774 536.887059 l
266.614793 536.887059 l
267.456489 542.223529 l
268.424396 536.887059 l
269.302706 536.887059 l
270.234912 542.223529 l
271.112174 536.887059 l
274.822889 536.887059 l
276.632242 547.56 l
277.546604 536.887059 l
278.477996 542.223529 l
279.337235 536.887059 l
283.139299 536.887059 l
283.925106 542.223529 l
284.893546 536.887059 l
285.770883 536.887059 l
286.794924 542.223529 l
287.728241 536.887059 l
288.514175 536.887059 l
289.427698 542.223529 l
290.360323 542.223529 l
291.329214 536.887059 l
292.169362 542.223529 l
293.102178 536.887059 l
294.016159 536.887059 l
294.947764 542.223529 l
295.916186 536.887059 l
296.757597 536.887059 l
297.690371 542.223529 l
298.604372 536.887059 l
299.535236 536.887059 l
300.504772 542.223529 l
301.346323 536.887059 l
302.223704 542.223529 l
303.191733 536.887059 l
305.002156 536.887059 l
305.952664 542.223529 l
306.830117 536.887059 l
307.780516 542.223529 l
308.730237 536.887059 l
309.607576 536.887059 l
310.539845 483.522353 l
311.509559 488.858824 l
312.386102 483.522353 l
313.22776 483.522353 l
314.195852 488.858824 l
315.128173 483.522353 l
316.096638 483.522353 l
317.029885 488.858824 l
317.81561 488.858824 l
318.784705 483.522353 l
319.660911 488.858824 l
320.593625 478.185882 l
322.421474 488.858824 l
323.299065 488.858824 l
324.249975 483.522353 l
325.200001 488.858824 l
326.077713 483.522353 l
327.009471 483.522353 l
327.886995 488.858824 l
328.855799 488.858824 l
329.733266 483.522353 l
330.665327 488.858824 l
331.598369 478.185882 l
333.444356 488.858824 l
334.285442 483.522353 l
335.25311 483.522353 l
336.130376 488.858824 l
337.099189 478.185882 l
338.873714 488.858824 l
339.841308 483.522353 l
340.719224 483.522353 l
341.687789 488.858824 l
342.620107 483.522353 l
343.479228 483.522353 l
344.4299 488.858824 l
345.380162 483.522353 l
346.331084 483.522353 l
347.135128 488.858824 l
348.06799 478.185882 l
349.913553 488.858824 l
350.863609 483.522353 l
351.722596 483.522353 l
352.655572 488.858824 l
353.569232 483.522353 l
354.50114 483.522353 l
355.342029 488.858824 l
356.310861 483.522353 l
357.188726 488.858824 l
358.157671 488.858824 l
359.089989 483.522353 l
359.967157 483.522353 l
360.899086 488.858824 l
361.77677 483.522353 l
362.746341 483.522353 l
363.678035 488.858824 l
364.555402 483.522353 l
365.506476 483.522353 l
366.384024 488.858824 l
367.333303 483.522353 l
368.193675 488.858824 l
369.125063 483.522353 l
370.971281 483.522353 l
371.940658 488.858824 l
372.781069 483.522353 l
373.713677 488.858824 l
374.682932 483.522353 l
376.528316 483.522353 l
377.36895 488.858824 l
378.337498 483.522353 l
379.270276 488.858824 l
380.239593 483.522353 l
381.957184 483.522353 l
382.834948 488.858824 l
383.803501 483.522353 l
384.735651 488.858824 l
385.61299 483.522353 l
387.440982 483.522353 l
388.391852 488.858824 l
389.250596 483.522353 l
390.219153 488.858824 l
391.151067 478.185882 l
393.053013 488.858824 l
393.838835 488.858824 l
394.807978 483.522353 l
395.739864 488.858824 l
396.617887 478.185882 l
397.586697 483.522353 l
398.427288 483.522353 l
399.396437 488.858824 l
400.328507 483.522353 l
401.297533 488.858824 l
402.08263 488.858824 l
403.015075 478.185882 l
404.916788 488.858824 l
405.884782 483.522353 l
406.670549 483.522353 l
407.621398 488.858824 l
408.517539 483.522353 l
409.449278 483.522353 l
410.491118 488.858824 l
411.277122 488.858824 l
412.210143 483.522353 l
413.179146 488.858824 l
414.111277 478.185882 l
414.897305 483.522353 l
415.866033 483.522353 l
416.743523 488.858824 l
417.712201 483.522353 l
418.589698 488.858824 l
419.484932 483.522353 l
420.454244 483.522353 l
421.330797 488.858824 l
422.300443 488.858824 l
423.140475 483.522353 l
424.0918 488.858824 l
424.987096 483.522353 l
425.919122 483.522353 l
426.888447 488.858824 l
427.746934 483.522353 l
428.679885 483.522353 l
429.575266 488.858824 l
430.526204 483.522353 l
431.475955 483.522353 l
432.335751 488.858824 l
433.267956 483.522353 l
434.181964 488.858824 l
435.114275 488.858824 l
435.954782 483.522353 l
436.923685 483.522353 l
437.80089 488.858824 l
439.702442 488.858824 l
440.579763 483.522353 l
442.444025 483.522353 l
443.412706 488.858824 l
444.345272 424.821176 l
445.167711 430.157647 l
446.044326 419.484706 l
446.976959 424.821176 l
447.946243 424.821176 l
448.8054 430.157647 l
449.755119 424.821176 l
450.63336 430.157647 l
451.583087 419.484706 l
452.534552 424.821176 l
453.393555 424.821176 l
454.361857 430.157647 l
455.23898 424.821176 l
456.171352 430.157647 l
457.049444 419.484706 l
457.980936 424.821176 l
458.859112 424.821176 l
459.827752 430.157647 l
460.760052 424.821176 l
461.637382 430.157647 l
462.569595 419.484706 l
463.446574 424.821176 l
464.415834 424.821176 l
465.347868 430.157647 l
466.224826 424.821176 l
467.175439 430.157647 l
469.003982 419.484706 l
470.831586 430.157647 l
471.764149 424.821176 l
472.73229 430.157647 l
473.664309 424.821176 l
474.450589 419.484706 l
476.352406 430.157647 l
477.320874 424.821176 l
478.106491 430.157647 l
479.038692 424.821176 l
480.885533 424.821176 l
481.853672 430.157647 l
482.695202 424.821176 l
483.627047 430.157647 l
484.504263 424.821176 l
486.405307 424.821176 l
487.283122 430.157647 l
488.233999 424.821176 l
489.128876 430.157647 l
490.061352 419.484706 l
490.921046 419.484706 l
492.766538 430.157647 l
493.790721 424.821176 l
494.667511 430.157647 l
495.508618 430.157647 l
496.477347 424.821176 l
497.355202 424.821176 l
498.378638 430.157647 l
499.310336 424.821176 l
500.096186 424.821176 l
501.065918 430.157647 l
501.943354 419.484706 l
502.911445 424.821176 l
503.752582 430.157647 l
504.702738 424.821176 l
505.599106 424.821176 l
506.531148 430.157647 l
507.408165 424.821176 l
508.340863 424.821176 l
509.291 430.157647 l
510.259657 424.821176 l
511.19226 430.157647 l
512.160736 430.157647 l
512.946941 419.484706 l
514.793442 430.157647 l
515.725689 424.821176 l
516.566692 430.157647 l
517.535561 424.821176 l
519.381119 424.821176 l
520.313865 430.157647 l
521.154159 424.821176 l
522.123212 430.157647 l
523.000489 424.821176 l
524.810086 424.821176 l
525.778903 430.157647 l
526.656167 424.821176 l
527.588712 430.157647 l
528.557334 419.484706 l
529.417045 424.821176 l
530.366789 424.821176 l
531.244596 430.157647 l
532.195645 424.821176 l
533.145631 430.157647 l
534.004375 419.484706 l
534.974054 424.821176 l
535.851532 424.821176 l
536.783732 430.157647 l
537.661176 424.821176 l
538.593295 430.157647 l
539.562228 424.821176 l
541.316966 424.821176 l
542.249033 430.157647 l
543.181368 424.821176 l
544.058082 430.157647 l
545.026828 419.484706 l
545.959312 424.821176 l
546.837147 424.821176 l
547.714643 430.157647 l
548.646952 424.821176 l
549.615116 430.157647 l
550.474496 419.484706 l
552.302815 430.157647 l
553.253353 430.157647 l
554.203873 424.821176 l
555.062931 430.157647 l
556.03187 424.821176 l
556.909224 424.821176 l
557.841538 430.157647 l
558.810446 430.157647 l
559.651218 424.821176 l
560.528564 430.157647 l
561.497311 424.821176 l
562.429655 424.821176 l
563.30596 430.157647 l
564.238935 430.157647 l
565.207816 424.821176 l
566.139923 430.157647 l
566.962839 424.821176 l
567.89487 424.821176 l
568.845674 430.157647 l
569.795541 424.821176 l
570.746128 430.157647 l
571.532666 430.157647 l
572.501509 419.484706 l
574.310915 430.157647 l
575.27999 424.821176 l
576.119971 424.821176 l
577.089655 430.157647 l
578.02159 424.821176 l
578.990679 424.821176 l
579.868166 430.157647 l
580.708791 430.157647 l
581.677522 424.821176 l
582.55512 430.157647 l
583.487292 424.821176 l
585.29637 424.821176 l
586.211056 430.157647 l
587.143215 424.821176 l
588.11169 430.157647 l
588.952226 424.821176 l
590.799029 424.821176 l
591.731401 430.157647 l
592.700089 424.821176 l
593.559241 430.157647 l
594.436781 419.484706 l
595.386968 424.821176 l
596.337289 424.821176 l
597.178538 430.157647 l
598.147305 424.821176 l
599.0795 430.157647 l
600.048493 424.821176 l
600.834387 424.821176 l
601.766583 430.157647 l
602.734382 430.157647 l
603.61293 424.821176 l
604.581315 430.157647 l
605.421818 424.821176 l
607.268808 424.821176 l
608.200865 430.157647 l
609.169309 424.821176 l
610.010689 430.157647 l
610.960569 419.484706 l
612.806808 430.157647 l
613.757605 430.157647 l
614.616582 424.821176 l
615.548609 430.157647 l
616.46297 419.484706 l
618.236363 430.157647 l
619.205078 371.456471 l
620.082617 366.12 l
621.051331 371.456471 l
621.983566 366.12 l
622.823843 371.456471 l
624.670603 371.456471 l
625.639502 366.12 l
626.571031 371.456471 l
627.449054 366.12 l
628.326078 366.12 l
629.258148 371.456471 l
630.226798 366.12 l
631.086013 366.12 l
632.036754 371.456471 l
632.987839 366.12 l
633.920041 371.456471 l
634.742434 371.456471 l
635.674171 366.12 l
636.64356 366.12 l
637.52096 371.456471 l
638.452565 366.12 l
639.330485 371.456471 l
640.262954 371.456471 l
641.140364 366.12 l
642.109216 366.12 l
643.041406 371.456471 l
643.881778 366.12 l
644.850961 371.456471 l
646.697167 371.456471 l
647.62921 366.12 l
648.506718 371.456471 l
649.439268 366.12 l
650.31657 371.456471 l
652.144473 371.456471 l
653.095082 366.12 l
653.989761 371.456471 l
654.922997 366.12 l
655.890451 366.12 l
656.732643 371.456471 l
657.701476 366.12 l
658.578666 371.456471 l
659.511054 371.456471 l
660.479465 366.12 l
661.320666 371.456471 l
663.166074 371.456471 l
664.190598 366.12 l
664.97659 371.456471 l
665.908177 366.12 l
666.877596 366.12 l
667.809616 371.456471 l
668.632412 371.456471 l
669.564257 307.418824 l
670.514796 318.091765 l
671.465099 307.418824 l
672.415847 312.755294 l
673.202265 312.755294 l
674.170334 318.091765 l
675.048452 307.418824 l
675.980636 318.091765 l
677.004138 307.418824 l
677.790415 307.418824 l
679.635771 318.091765 l
680.60541 307.418824 l
681.537286 318.091765 l
682.378379 307.418824 l
683.346395 312.755294 l
684.224714 312.755294 l
685.15686 318.091765 l
686.034201 307.418824 l
686.96661 318.091765 l
687.879799 307.418824 l
689.743686 318.091765 l
690.622159 318.091765 l
691.572217 307.418824 l
692.468565 318.091765 l
693.400849 307.418824 l
695.228416 318.091765 l
696.160377 307.418824 l
697.12994 307.418824 l
698.062123 318.091765 l
698.848081 307.418824 l
700.694264 318.091765 l
701.662485 307.418824 l
702.503978 307.418824 l
703.436039 318.091765 l
704.404516 307.418824 l
706.251231 318.091765 l
707.182749 318.091765 l
708.042658 307.418824 l
708.938288 318.091765 l
709.870185 307.418824 l
711.698203 318.091765 l
712.630785 307.418824 l
713.525657 307.418824 l
714.476955 318.091765 l
715.426713 307.418824 l
717.218872 318.091765 l
718.13255 307.418824 l
719.064417 307.418824 l
719.905206 318.091765 l
720.87463 307.418824 l
722.720162 318.091765 l
723.653093 307.418824 l
724.493197 318.091765 l
725.46185 318.091765 l
726.394583 307.418824 l
728.29594 318.091765 l
729.100298 307.418824 l
729.995447 318.091765 l
731.000912 318.091765 l
731.951298 307.418824 l
732.755433 312.755294 l
733.706244 318.091765 l
734.583809 307.418824 l
735.53478 259.390588 l
736.412093 264.727059 l
737.34433 254.054118 l
738.276393 254.054118 l
739.19004 259.390588 l
740.122142 254.054118 l
741.091095 259.390588 l
741.932416 254.054118 l
743.778394 254.054118 l
744.710209 264.727059 l
745.587141 254.054118 l
746.519752 259.390588 l
747.397507 254.054118 l
749.298678 254.054118 l
750.175642 259.390588 l
751.126705 254.054118 l
752.004374 264.727059 l
752.954412 254.054118 l
754.782547 254.054118 l
755.715005 259.390588 l
756.592378 254.054118 l
757.561229 264.727059 l
758.40191 264.727059 l
759.370906 254.054118 l
760.303171 254.054118 l
761.271614 259.390588 l
762.204174 254.054118 l
762.990174 254.054118 l
763.958927 259.390588 l
764.89107 254.054118 l
766.645959 254.054118 l
767.577699 259.390588 l
768.492255 254.054118 l
769.424413 259.390588 l
770.301889 254.054118 l
772.18467 254.054118 l
773.080337 259.390588 l
774.012857 254.054118 l
774.871688 264.727059 l
775.840597 254.054118 l
776.717931 254.054118 l
777.668243 259.390588 l
778.619106 259.390588 l
779.459772 254.054118 l
780.428733 264.727059 l
781.306084 254.054118 l
782.274821 254.054118 l
783.20677 264.727059 l
784.047839 254.054118 l
785.015907 254.054118 l
785.894152 264.727059 l
786.917734 254.054118 l
787.703691 195.352941 l
788.671651 200.689412 l
789.604517 200.689412 l
790.573486 195.352941 l
791.359484 206.025882 l
792.327475 195.352941 l
793.296571 200.689412 l
795.015218 200.689412 l
795.983404 195.352941 l
796.953083 200.689412 l
797.885401 195.352941 l
798.854191 200.689412 l
801.541066 200.689412 l
802.509328 206.025882 l
803.295213 195.352941 l
804.264815 195.352941 l
805.233645 200.689412 l
806.019628 200.689412 l
806.951104 195.352941 l
807.920802 200.689412 l
808.889219 195.352941 l
809.674895 195.352941 l
810.643293 200.689412 l
813.47771 200.689412 l
814.300223 195.352941 l
815.232414 195.352941 l
816.201225 200.689412 l
817.170046 200.689412 l
817.95586 195.352941 l
818.888278 206.025882 l
819.857156 195.352941 l
820.825692 200.689412 l
823.513044 200.689412 l
824.481764 195.352941 l
825.267759 200.689412 l
826.236339 195.352941 l
827.168679 200.689412 l
828.923285 200.689412 l
829.892507 195.352941 l
830.823955 200.689412 l
831.793522 195.352941 l
832.578782 200.689412 l
833.54844 206.025882 l
835.449296 195.352941 l
836.399935 206.025882 l
837.2043 195.352941 l
838.15482 200.689412 l
839.105355 200.689412 l
840.055815 264.727059 l
840.860168 141.988235 l
844.515785 141.988235 l
845.484584 147.324706 l
846.434465 136.651765 l
847.239595 136.651765 l
848.171868 147.324706 l
851.845209 147.324706 l
852.795797 141.988235 l
853.74657 141.988235 l
854.697015 136.651765 l
856.451938 136.651765 l
857.402469 147.324706 l
858.37122 141.988235 l
859.157223 147.324706 l
860.108137 141.988235 l
862.027291 141.988235 l
862.813454 147.324706 l
864.714076 147.324706 l
865.682749 141.988235 l
866.469222 136.651765 l
867.438121 141.988235 l
869.339181 141.988235 l
870.124632 152.661176 l
871.093972 141.988235 l
872.025744 125.978824 l
872.994906 141.988235 l
873.963686 147.324706 l
874.749732 141.988235 l
875.718757 147.324706 l
876.650884 141.988235 l
878.405597 141.988235 l
879.374605 147.324706 l
880.306726 141.988235 l
884.785273 141.988235 l
885.717386 136.651765 l
886.686308 147.324706 l
887.655193 147.324706 l
888.58699 136.651765 l
889.373012 141.988235 l
890.341979 147.324706 l
891.310774 141.988235 l
892.242029 141.988235 l
893.065745 147.324706 l
893.998027 147.324706 l
894.93 125.978824 l
895.899045 147.324706 l
896.867864 147.324706 l
897.653798 141.988235 l
898.622534 152.661176 l
899.55474 131.315294 l
900.523612 141.988235 l
903.210752 141.988235 l
904.179511 147.324706 l
904.965516 136.651765 l
905.934364 131.315294 l
906.866475 147.324706 l
907.835191 147.324706 l
908.620799 141.988235 l
909.590338 147.324706 l
911.491113 136.651765 l
912.277229 147.324706 l
913.246115 147.324706 l
914.213561 136.651765 l
915.147245 152.661176 l
916.902083 141.988235 l
917.87015 147.324706 l
918.802912 141.988235 l
919.625679 147.324706 l
920.557186 141.988235 l
923.281557 141.988235 l
924.213775 147.324706 l
926.937388 147.324706 l
927.869624 136.651765 l
928.838499 141.988235 l
932.49394 141.988235 l
951.741994 93.96 l
952.711142 141.988235 l
954.466017 141.988235 l
955.397621 136.651765 l
956.367048 141.988235 l
957.170541 136.651765 l
958.121917 147.324706 l
959.054033 141.988235 l
962.727584 141.988235 l
963.678829 147.324706 l
964.629375 141.988235 l
965.433603 141.988235 l
966.384207 147.324706 l
967.334722 141.988235 l
969.089524 141.988235 l
970.039316 147.324706 l
970.990604 141.988235 l
971.94102 147.324706 l
972.745292 147.324706 l
974.664537 136.651765 l
975.596896 136.651765 l
976.401219 125.978824 l
977.369318 136.651765 l
978.319766 141.988235 l
979.25261 136.651765 l
980.074399 136.651765 l
981.025542 147.324706 l
981.97592 141.988235 l
982.925793 141.988235 l
983.730421 136.651765 l
984.681613 125.978824 l
985.63156 136.651765 l
989.287334 136.651765 l
990.256877 131.315294 l
991.188283 141.988235 l
992.011065 147.324706 l
993.912418 136.651765 l
994.844061 141.988235 l
995.649265 125.978824 l
997.56828 141.988235 l
998.500045 136.651765 l
1000.254965 131.315294 l
1002.960316 131.315294 l
1004.880279 125.978824 l
1006.63451 125.978824 l
1007.566789 136.651765 l
1009.504565 136.651765 l
1010.290847 131.315294 l
1012.191908 131.315294 l
1013.160039 136.651765 l
1013.94621 120.642353 l
1014.914969 141.988235 l
1015.847204 136.651765 l
1016.815941 141.988235 l
1017.748807 120.642353 l
1020.471568 136.651765 l
1021.441143 131.315294 l
1023.158812 136.651765 l
1025.097022 125.978824 l
1025.882583 125.978824 l
1027.783572 131.315294 l
1028.752694 141.988235 l
1029.538319 141.988235 l
1030.507308 136.651765 l
1031.439352 125.978824 l
1032.261915 141.988235 l
1034.163836 131.315294 l
1035.095099 131.315294 l
1036.06477 120.642353 l
1036.850788 125.978824 l
1037.819681 131.315294 l
1038.788569 141.988235 l
1039.720547 136.651765 l
1040.506629 141.988235 l
1042.443387 131.315294 l
1043.375901 136.651765 l
1044.199144 125.978824 l
1046.099285 125.978824 l
1047.03181 131.315294 l
1049.755013 125.978824 l
1051.656329 131.315294 l
1052.443125 120.642353 l
1053.411096 125.978824 l
1055.312975 125.978824 l
1056.135605 136.651765 l
1057.066968 131.315294 l
1058.036532 131.315294 l
1060.722802 125.978824 l
1062.642139 136.651765 l
1067.103167 125.978824 l
1068.071077 136.651765 l
1069.003217 136.651765 l
1069.972085 131.315294 l
1070.758611 136.651765 l
1074.414799 136.651765 l
1075.382982 131.315294 l
1076.315244 136.651765 l
1079.038705 136.651765 l
1079.98931 131.315294 l
1080.940399 136.651765 l
1081.726666 125.978824 l
1082.694525 120.642353 l
1086.350327 136.651765 l
1091.92557 131.315294 l
1096.514105 115.305882 l
1097.336189 120.642353 l
1100.206487 125.978824 l
1103.862016 125.978824 l
1109.273475 120.642353 l
1119.271397 120.642353 l
1122.140893 136.651765 l
1125.797962 115.305882 l
1126.766729 125.978824 l
1128.520829 131.315294 l
1131.208617 125.978824 l
1134.864354 125.978824 l
1140.457832 120.642353 l
1153.18023 120.642353 l
1165.11592 109.969412 l
1183.413006 120.642353 l
1219.223162 120.642353 l
1231.159874 125.978824 l
1231.159874 125.978824 l
stroke
grestore
0.800 setlinewidth
0 setlinejoin
[] 0 setdash
0.000 setgray
gsave
171 71.28 m
171 570.24 l
stroke
grestore
gsave
1231.2 71.28 m
1231.2 570.24 l
stroke
grestore
gsave
171 71.28 m
1231.2 71.28 l
stroke
grestore
gsave
171 570.24 m
1231.2 570.24 l
stroke
grestore
1 setlinejoin
0 setlinecap
[] 0 setdash
gsave
/o {
gsave
newpath
translate
0.8 setlinewidth
1 setlinejoin
0 setlinecap
0 0 m
0 3.5 l

gsave
0.000 setgray
fill
grestore
stroke
grestore
} bind def
240.461 570.24 o
grestore
gsave
237.461816 578.575793 translate
50.000000 rotate
0.000000 0.000000 m /zero glyphshow
6.362305 0.000000 m /period glyphshow
9.541016 0.000000 m /one glyphshow
grestore
gsave
/o {
gsave
newpath
translate
0.8 setlinewidth
1 setlinejoin
0 setlinecap
0 0 m
0 3.5 l

gsave
0.000 setgray
fill
grestore
stroke
grestore
} bind def
376.642 570.24 o
grestore
gsave
373.642678 578.575793 translate
50.000000 rotate
0.000000 0.000000 m /zero glyphshow
6.362305 0.000000 m /period glyphshow
9.541016 0.000000 m /two glyphshow
grestore
gsave
/o {
gsave
newpath
translate
0.8 setlinewidth
1 setlinejoin
0 setlinecap
0 0 m
0 3.5 l

gsave
0.000 setgray
fill
grestore
stroke
grestore
} bind def
531.102 570.24 o
grestore
gsave
528.102851 578.575793 translate
50.000000 rotate
0.000000 0.000000 m /zero glyphshow
6.362305 0.000000 m /period glyphshow
9.541016 0.000000 m /six glyphshow
grestore
gsave
/o {
gsave
newpath
translate
0.8 setlinewidth
1 setlinejoin
0 setlinecap
0 0 m
0 3.5 l

gsave
0.000 setgray
fill
grestore
stroke
grestore
} bind def
643.977 570.24 o
grestore
gsave
640.977592 578.575793 translate
50.000000 rotate
0.000000 0.000000 m /one glyphshow
6.362305 0.000000 m /period glyphshow
9.541016 0.000000 m /seven glyphshow
grestore
gsave
/o {
gsave
newpath
translate
0.8 setlinewidth
1 setlinejoin
0 setlinecap
0 0 m
0 3.5 l

gsave
0.000 setgray
fill
grestore
stroke
grestore
} bind def
702.014 570.24 o
grestore
gsave
699.014402 578.575793 translate
50.000000 rotate
0.000000 0.000000 m /five glyphshow
6.362305 0.000000 m /period glyphshow
9.541016 0.000000 m /five glyphshow
grestore
gsave
/o {
gsave
newpath
translate
0.8 setlinewidth
1 setlinejoin
0 setlinecap
0 0 m
0 3.5 l

gsave
0.000 setgray
fill
grestore
stroke
grestore
} bind def
760.965 570.24 o
grestore
gsave
755.921314 578.575793 translate
50.000000 rotate
0.000000 0.000000 m /one glyphshow
6.362305 0.000000 m /seven glyphshow
12.724609 0.000000 m /period glyphshow
15.903320 0.000000 m /four glyphshow
grestore
gsave
/o {
gsave
newpath
translate
0.8 setlinewidth
1 setlinejoin
0 setlinecap
0 0 m
0 3.5 l

gsave
0.000 setgray
fill
grestore
stroke
grestore
} bind def
813.518 570.24 o
grestore
gsave
808.474332 578.575793 translate
50.000000 rotate
0.000000 0.000000 m /five glyphshow
6.362305 0.000000 m /five glyphshow
12.724609 0.000000 m /period glyphshow
15.903320 0.000000 m /one glyphshow
grestore
gsave
/o {
gsave
newpath
translate
0.8 setlinewidth
1 setlinejoin
0 setlinecap
0 0 m
0 3.5 l

gsave
0.000 setgray
fill
grestore
stroke
grestore
} bind def
886.635 570.24 o
grestore
gsave
879.547709 578.575793 translate
50.000000 rotate
0.000000 0.000000 m /one glyphshow
6.362305 0.000000 m /seven glyphshow
12.724609 0.000000 m /four glyphshow
19.086914 0.000000 m /period glyphshow
22.265625 0.000000 m /two glyphshow
grestore
gsave
/o {
gsave
newpath
translate
0.8 setlinewidth
1 setlinejoin
0 setlinecap
0 0 m
0 3.5 l

gsave
0.000 setgray
fill
grestore
stroke
grestore
} bind def
942.387 570.24 o
grestore
gsave
935.299606 578.575793 translate
50.000000 rotate
0.000000 0.000000 m /five glyphshow
6.362305 0.000000 m /five glyphshow
12.724609 0.000000 m /zero glyphshow
19.086914 0.000000 m /period glyphshow
22.265625 0.000000 m /eight glyphshow
grestore
gsave
/o {
gsave
newpath
translate
0.8 setlinewidth
1 setlinejoin
0 setlinecap
0 0 m
0 3.5 l

gsave
0.000 setgray
fill
grestore
stroke
grestore
} bind def
965.236 570.24 o
grestore
gsave
958.148744 578.575793 translate
50.000000 rotate
0.000000 0.000000 m /one glyphshow
6.362305 0.000000 m /seven glyphshow
12.724609 0.000000 m /four glyphshow
19.086914 0.000000 m /period glyphshow
22.265625 0.000000 m /two glyphshow
grestore
gsave
/o {
gsave
newpath
translate
0.8 setlinewidth
1 setlinejoin
0 setlinecap
0 0 m
0 3.5 l

gsave
0.000 setgray
fill
grestore
stroke
grestore
} bind def
991.741 570.24 o
grestore
gsave
984.653744 578.575793 translate
50.000000 rotate
0.000000 0.000000 m /one glyphshow
6.362305 0.000000 m /nine glyphshow
12.724609 0.000000 m /five glyphshow
19.086914 0.000000 m /period glyphshow
22.265625 0.000000 m /four glyphshow
grestore
gsave
/o {
gsave
newpath
translate
0.8 setlinewidth
1 setlinejoin
0 setlinecap
0 0 m
0 3.5 l

gsave
0.000 setgray
fill
grestore
stroke
grestore
} bind def
1024.64 570.24 o
grestore
gsave
1017.556502 578.575793 translate
50.000000 rotate
0.000000 0.000000 m /two glyphshow
6.362305 0.000000 m /one glyphshow
12.724609 0.000000 m /nine glyphshow
19.086914 0.000000 m /period glyphshow
22.265625 0.000000 m /three glyphshow
grestore
gsave
/o {
gsave
newpath
translate
0.8 setlinewidth
1 setlinejoin
0 setlinecap
0 0 m
0 3.5 l

gsave
0.000 setgray
fill
grestore
stroke
grestore
} bind def
1070.34 570.24 o
grestore
gsave
1063.254778 578.575793 translate
50.000000 rotate
0.000000 0.000000 m /two glyphshow
6.362305 0.000000 m /four glyphshow
12.724609 0.000000 m /six glyphshow
19.086914 0.000000 m /period glyphshow
22.265625 0.000000 m /zero glyphshow
grestore
gsave
/o {
gsave
newpath
translate
0.8 setlinewidth
1 setlinejoin
0 setlinecap
0 0 m
0 3.5 l

gsave
0.000 setgray
fill
grestore
stroke
grestore
} bind def
1117.87 570.24 o
grestore
gsave
1110.780985 578.575793 translate
50.000000 rotate
0.000000 0.000000 m /two glyphshow
6.362305 0.000000 m /seven glyphshow
12.724609 0.000000 m /six glyphshow
19.086914 0.000000 m /period glyphshow
22.265625 0.000000 m /one glyphshow
grestore
gsave
/o {
gsave
newpath
translate
0.8 setlinewidth
1 setlinejoin
0 setlinecap
0 0 m
0 3.5 l

gsave
0.000 setgray
fill
grestore
stroke
grestore
} bind def
1147.12 570.24 o
grestore
gsave
1140.027882 578.575793 translate
50.000000 rotate
0.000000 0.000000 m /three glyphshow
6.362305 0.000000 m /zero glyphshow
12.724609 0.000000 m /nine glyphshow
19.086914 0.000000 m /period glyphshow
22.265625 0.000000 m /eight glyphshow
grestore
gsave
/o {
gsave
newpath
translate
0.8 setlinewidth
1 setlinejoin
0 setlinecap
0 0 m
0 3.5 l

gsave
0.000 setgray
fill
grestore
stroke
grestore
} bind def
1192.81 570.24 o
grestore
gsave
1185.726158 578.575793 translate
50.000000 rotate
0.000000 0.000000 m /three glyphshow
6.362305 0.000000 m /four glyphshow
12.724609 0.000000 m /seven glyphshow
19.086914 0.000000 m /period glyphshow
22.265625 0.000000 m /five glyphshow
grestore
gsave
578.717188 607.384984 translate
0.000000 rotate
0.000000 0.000000 m /T glyphshow
6.108398 0.000000 m /h glyphshow
12.446289 0.000000 m /e glyphshow
18.598633 0.000000 m /space glyphshow
21.777344 0.000000 m /a glyphshow
27.905273 0.000000 m /t glyphshow
31.826172 0.000000 m /t glyphshow
35.747070 0.000000 m /e glyphshow
41.899414 0.000000 m /n glyphshow
48.237305 0.000000 m /u glyphshow
54.575195 0.000000 m /a glyphshow
60.703125 0.000000 m /t glyphshow
64.624023 0.000000 m /i glyphshow
67.402344 0.000000 m /o glyphshow
73.520508 0.000000 m /n glyphshow
79.858398 0.000000 m /space glyphshow
83.037109 0.000000 m /a glyphshow
89.165039 0.000000 m /s glyphshow
94.375000 0.000000 m /space glyphshow
97.553711 0.000000 m /t glyphshow
101.474609 0.000000 m /h glyphshow
107.812500 0.000000 m /e glyphshow
113.964844 0.000000 m /o glyphshow
120.083008 0.000000 m /r glyphshow
124.194336 0.000000 m /e glyphshow
130.346680 0.000000 m /t glyphshow
134.267578 0.000000 m /i glyphshow
137.045898 0.000000 m /c glyphshow
142.543945 0.000000 m /a glyphshow
148.671875 0.000000 m /l glyphshow
151.450195 0.000000 m /space glyphshow
154.628906 0.000000 m /F glyphshow
160.380859 0.000000 m /S glyphshow
166.728516 0.000000 m /P glyphshow
172.758789 0.000000 m /L glyphshow
178.330078 0.000000 m /space glyphshow
181.508789 0.000000 m /d glyphshow
187.856445 0.000000 m /i glyphshow
190.634766 0.000000 m /s glyphshow
195.844727 0.000000 m /t glyphshow
199.765625 0.000000 m /a glyphshow
205.893555 0.000000 m /n glyphshow
212.231445 0.000000 m /c glyphshow
217.729492 0.000000 m /e glyphshow
223.881836 0.000000 m /space glyphshow
227.060547 0.000000 m /bracketleft glyphshow
230.961914 0.000000 m /m glyphshow
240.703125 0.000000 m /bracketright glyphshow
grestore
0 setlinejoin
2 setlinecap
[] 0 setdash
gsave
171 71.28 m
171 570.24 l
stroke
grestore
gsave
1231.2 71.28 m
1231.2 570.24 l
stroke
grestore
gsave
171 71.28 m
1231.2 71.28 l
stroke
grestore
gsave
171 570.24 m
1231.2 570.24 l
stroke
grestore
/DejaVuSans-Bold findfont
14.000 scalefont
setfont
gsave
552.421875 624.399375 translate
0.000000 rotate
0.000000 0.000000 m /S glyphshow
10.083008 0.000000 m /i glyphshow
14.881836 0.000000 m /K glyphshow
25.730469 0.000000 m /space glyphshow
30.604492 0.000000 m /M glyphshow
44.536133 0.000000 m /o glyphshow
54.154297 0.000000 m /d glyphshow
64.175781 0.000000 m /u glyphshow
74.142578 0.000000 m /l glyphshow
78.941406 0.000000 m /e glyphshow
88.436523 0.000000 m /space glyphshow
93.310547 0.000000 m /w glyphshow
106.244141 0.000000 m /i glyphshow
111.042969 0.000000 m /t glyphshow
117.735352 0.000000 m /h glyphshow
127.702148 0.000000 m /space glyphshow
132.576172 0.000000 m /P glyphshow
142.836914 0.000000 m /r glyphshow
149.741211 0.000000 m /o glyphshow
159.359375 0.000000 m /c glyphshow
167.658203 0.000000 m /o glyphshow
177.276367 0.000000 m /m glyphshow
191.864258 0.000000 m /space glyphshow
196.738281 0.000000 m /A glyphshow
207.573242 0.000000 m /n glyphshow
217.540039 0.000000 m /t glyphshow
224.232422 0.000000 m /e glyphshow
233.727539 0.000000 m /n glyphshow
243.694336 0.000000 m /n glyphshow
253.661133 0.000000 m /a glyphshow
grestore

end
showpage
