%!PS-Adobe-3.0 EPSF-3.0
%%Title: ./lora_figures/lora_procom_125_sf12_new_stuff_20190515_12_30_09_more.eps
%%Creator: matplotlib version 3.0.3, http://matplotlib.org/
%%CreationDate: Fri May 24 00:56:41 2019
%%Orientation: portrait
%%BoundingBox: -378 72 990 720
%%EndComments
%%BeginProlog
/mpldict 9 dict def
mpldict begin
/m { moveto } bind def
/l { lineto } bind def
/r { rlineto } bind def
/c { curveto } bind def
/cl { closepath } bind def
/box {
m
1 index 0 r
0 exch r
neg 0 r
cl
} bind def
/clipbox {
box
clip
newpath
} bind def
%!PS-Adobe-3.0 Resource-Font
%%Title: DejaVu Sans
%%Copyright: Copyright (c) 2003 by Bitstream, Inc. All Rights Reserved. Copyright (c) 2006 by Tavmjong Bah. All Rights Reserved. DejaVu changes are in public domain 
%%Creator: Converted from TrueType to type 3 by PPR
25 dict begin
/_d{bind def}bind def
/_m{moveto}_d
/_l{lineto}_d
/_cl{closepath eofill}_d
/_c{curveto}_d
/_sc{7 -1 roll{setcachedevice}{pop pop pop pop pop pop}ifelse}_d
/_e{exec}_d
/FontName /DejaVuSans def
/PaintType 0 def
/FontMatrix[.001 0 0 .001 0 0]def
/FontBBox[-1021 -463 1793 1232]def
/FontType 3 def
/Encoding [ /space /period /zero /one /two /three /four /five /six /seven /eight /nine /A /B /C /F /L /P /S /T /bracketleft /bracketright /a /b /c /d /e /f /g /h /i /k /l /m /n /o /r /s /t /u /v /w ] def
/FontInfo 10 dict dup begin
/FamilyName (DejaVu Sans) def
/FullName (DejaVu Sans) def
/Notice (Copyright (c) 2003 by Bitstream, Inc. All Rights Reserved. Copyright (c) 2006 by Tavmjong Bah. All Rights Reserved. DejaVu changes are in public domain ) def
/Weight (Book) def
/Version (Version 2.35) def
/ItalicAngle 0.0 def
/isFixedPitch false def
/UnderlinePosition -130 def
/UnderlineThickness 90 def
end readonly def
/CharStrings 43 dict dup begin
/.notdef 0 def
/space{318 0 0 0 0 0 _sc
}_d
/period{318 0 107 0 210 124 _sc
107 124 _m
210 124 _l
210 0 _l
107 0 _l
107 124 _l
_cl}_d
/zero{636 0 66 -13 570 742 _sc
318 664 _m
267 664 229 639 203 589 _c
177 539 165 464 165 364 _c
165 264 177 189 203 139 _c
229 89 267 64 318 64 _c
369 64 407 89 433 139 _c
458 189 471 264 471 364 _c
471 464 458 539 433 589 _c
407 639 369 664 318 664 _c
318 742 _m
399 742 461 709 505 645 _c
548 580 570 486 570 364 _c
570 241 548 147 505 83 _c
461 19 399 -13 318 -13 _c
236 -13 173 19 130 83 _c
87 147 66 241 66 364 _c
66 486 87 580 130 645 _c
173 709 236 742 318 742 _c
_cl}_d
/one{636 0 110 0 544 729 _sc
124 83 _m
285 83 _l
285 639 _l
110 604 _l
110 694 _l
284 729 _l
383 729 _l
383 83 _l
544 83 _l
544 0 _l
124 0 _l
124 83 _l
_cl}_d
/two{{636 0 73 0 536 742 _sc
192 83 _m
536 83 _l
536 0 _l
73 0 _l
73 83 _l
110 121 161 173 226 239 _c
290 304 331 346 348 365 _c
380 400 402 430 414 455 _c
426 479 433 504 433 528 _c
433 566 419 598 392 622 _c
365 646 330 659 286 659 _c
255 659 222 653 188 643 _c
154 632 117 616 78 594 _c
78 694 _l
118 710 155 722 189 730 _c
223 738 255 742 284 742 _c
}_e{359 742 419 723 464 685 _c
509 647 532 597 532 534 _c
532 504 526 475 515 449 _c
504 422 484 390 454 354 _c
446 344 420 317 376 272 _c
332 227 271 164 192 83 _c
_cl}_e}_d
/three{{636 0 76 -13 556 742 _sc
406 393 _m
453 383 490 362 516 330 _c
542 298 556 258 556 212 _c
556 140 531 84 482 45 _c
432 6 362 -13 271 -13 _c
240 -13 208 -10 176 -4 _c
144 1 110 10 76 22 _c
76 117 _l
103 101 133 89 166 81 _c
198 73 232 69 268 69 _c
330 69 377 81 409 105 _c
441 129 458 165 458 212 _c
458 254 443 288 413 312 _c
383 336 341 349 287 349 _c
}_e{202 349 _l
202 430 _l
291 430 _l
339 430 376 439 402 459 _c
428 478 441 506 441 543 _c
441 580 427 609 401 629 _c
374 649 336 659 287 659 _c
260 659 231 656 200 650 _c
169 644 135 635 98 623 _c
98 711 _l
135 721 170 729 203 734 _c
235 739 266 742 296 742 _c
370 742 429 725 473 691 _c
517 657 539 611 539 553 _c
539 513 527 479 504 451 _c
481 423 448 403 406 393 _c
_cl}_e}_d
/four{636 0 49 0 580 729 _sc
378 643 _m
129 254 _l
378 254 _l
378 643 _l
352 729 _m
476 729 _l
476 254 _l
580 254 _l
580 172 _l
476 172 _l
476 0 _l
378 0 _l
378 172 _l
49 172 _l
49 267 _l
352 729 _l
_cl}_d
/five{{636 0 77 -13 549 729 _sc
108 729 _m
495 729 _l
495 646 _l
198 646 _l
198 467 _l
212 472 227 476 241 478 _c
255 480 270 482 284 482 _c
365 482 429 459 477 415 _c
525 370 549 310 549 234 _c
549 155 524 94 475 51 _c
426 8 357 -13 269 -13 _c
238 -13 207 -10 175 -6 _c
143 -1 111 6 77 17 _c
77 116 _l
106 100 136 88 168 80 _c
199 72 232 69 267 69 _c
}_e{323 69 368 83 401 113 _c
433 143 450 183 450 234 _c
450 284 433 324 401 354 _c
368 384 323 399 267 399 _c
241 399 214 396 188 390 _c
162 384 135 375 108 363 _c
108 729 _l
_cl}_e}_d
/six{{636 0 70 -13 573 742 _sc
330 404 _m
286 404 251 388 225 358 _c
199 328 186 286 186 234 _c
186 181 199 139 225 109 _c
251 79 286 64 330 64 _c
374 64 409 79 435 109 _c
461 139 474 181 474 234 _c
474 286 461 328 435 358 _c
409 388 374 404 330 404 _c
526 713 _m
526 623 _l
501 635 476 644 451 650 _c
425 656 400 659 376 659 _c
310 659 260 637 226 593 _c
}_e{192 549 172 482 168 394 _c
187 422 211 444 240 459 _c
269 474 301 482 336 482 _c
409 482 467 459 509 415 _c
551 371 573 310 573 234 _c
573 159 550 99 506 54 _c
462 9 403 -13 330 -13 _c
246 -13 181 19 137 83 _c
92 147 70 241 70 364 _c
70 479 97 571 152 639 _c
206 707 280 742 372 742 _c
396 742 421 739 447 735 _c
472 730 498 723 526 713 _c
_cl}_e}_d
/seven{636 0 82 0 551 729 _sc
82 729 _m
551 729 _l
551 687 _l
286 0 _l
183 0 _l
432 646 _l
82 646 _l
82 729 _l
_cl}_d
/eight{{636 0 68 -13 568 742 _sc
318 346 _m
271 346 234 333 207 308 _c
180 283 167 249 167 205 _c
167 161 180 126 207 101 _c
234 76 271 64 318 64 _c
364 64 401 76 428 102 _c
455 127 469 161 469 205 _c
469 249 455 283 429 308 _c
402 333 365 346 318 346 _c
219 388 _m
177 398 144 418 120 447 _c
96 476 85 511 85 553 _c
85 611 105 657 147 691 _c
188 725 245 742 318 742 _c
}_e{390 742 447 725 489 691 _c
530 657 551 611 551 553 _c
551 511 539 476 515 447 _c
491 418 459 398 417 388 _c
464 377 501 355 528 323 _c
554 291 568 251 568 205 _c
568 134 546 80 503 43 _c
459 5 398 -13 318 -13 _c
237 -13 175 5 132 43 _c
89 80 68 134 68 205 _c
68 251 81 291 108 323 _c
134 355 171 377 219 388 _c
183 544 _m
183 506 194 476 218 455 _c
}_e{242 434 275 424 318 424 _c
360 424 393 434 417 455 _c
441 476 453 506 453 544 _c
453 582 441 611 417 632 _c
393 653 360 664 318 664 _c
275 664 242 653 218 632 _c
194 611 183 582 183 544 _c
_cl}_e}_d
/nine{{636 0 63 -13 566 742 _sc
110 15 _m
110 105 _l
134 93 159 84 185 78 _c
210 72 235 69 260 69 _c
324 69 374 90 408 134 _c
442 178 462 244 468 334 _c
448 306 424 284 396 269 _c
367 254 335 247 300 247 _c
226 247 168 269 126 313 _c
84 357 63 417 63 494 _c
63 568 85 628 129 674 _c
173 719 232 742 306 742 _c
390 742 455 709 499 645 _c
543 580 566 486 566 364 _c
}_e{566 248 538 157 484 89 _c
429 21 356 -13 264 -13 _c
239 -13 214 -10 189 -6 _c
163 -2 137 5 110 15 _c
306 324 _m
350 324 385 339 411 369 _c
437 399 450 441 450 494 _c
450 546 437 588 411 618 _c
385 648 350 664 306 664 _c
262 664 227 648 201 618 _c
175 588 162 546 162 494 _c
162 441 175 399 201 369 _c
227 339 262 324 306 324 _c
_cl}_e}_d
/A{684 0 8 0 676 729 _sc
342 632 _m
208 269 _l
476 269 _l
342 632 _l
286 729 _m
398 729 _l
676 0 _l
573 0 _l
507 187 _l
178 187 _l
112 0 _l
8 0 _l
286 729 _l
_cl}_d
/B{{686 0 98 0 615 729 _sc
197 348 _m
197 81 _l
355 81 _l
408 81 447 92 473 114 _c
498 136 511 169 511 215 _c
511 260 498 293 473 315 _c
447 337 408 348 355 348 _c
197 348 _l
197 648 _m
197 428 _l
343 428 _l
391 428 426 437 450 455 _c
474 473 486 500 486 538 _c
486 574 474 602 450 620 _c
426 638 391 648 343 648 _c
197 648 _l
98 729 _m
350 729 _l
}_e{425 729 483 713 524 682 _c
564 650 585 606 585 549 _c
585 504 574 468 553 442 _c
532 416 502 399 462 393 _c
510 382 548 360 575 327 _c
601 294 615 253 615 204 _c
615 138 592 88 548 53 _c
504 17 441 0 360 0 _c
98 0 _l
98 729 _l
_cl}_e}_d
/C{{698 0 56 -13 644 742 _sc
644 673 _m
644 569 _l
610 599 575 622 537 638 _c
499 653 460 661 418 661 _c
334 661 270 635 226 584 _c
182 533 160 460 160 364 _c
160 268 182 194 226 143 _c
270 92 334 67 418 67 _c
460 67 499 74 537 90 _c
575 105 610 128 644 159 _c
644 56 _l
609 32 572 15 534 4 _c
496 -7 455 -13 412 -13 _c
302 -13 215 20 151 87 _c
}_e{87 154 56 246 56 364 _c
56 481 87 573 151 641 _c
215 708 302 742 412 742 _c
456 742 497 736 535 725 _c
573 713 610 696 644 673 _c
_cl}_e}_d
/F{575 0 98 0 517 729 _sc
98 729 _m
517 729 _l
517 646 _l
197 646 _l
197 431 _l
486 431 _l
486 348 _l
197 348 _l
197 0 _l
98 0 _l
98 729 _l
_cl}_d
/L{557 0 98 0 552 729 _sc
98 729 _m
197 729 _l
197 83 _l
552 83 _l
552 0 _l
98 0 _l
98 729 _l
_cl}_d
/P{603 0 98 0 569 729 _sc
197 648 _m
197 374 _l
321 374 _l
367 374 402 385 427 409 _c
452 433 465 467 465 511 _c
465 555 452 588 427 612 _c
402 636 367 648 321 648 _c
197 648 _l
98 729 _m
321 729 _l
402 729 464 710 506 673 _c
548 636 569 582 569 511 _c
569 439 548 384 506 348 _c
464 311 402 293 321 293 _c
197 293 _l
197 0 _l
98 0 _l
98 729 _l
_cl}_d
/S{{635 0 66 -13 579 742 _sc
535 705 _m
535 609 _l
497 627 462 640 429 649 _c
395 657 363 662 333 662 _c
279 662 237 651 208 631 _c
179 610 165 580 165 542 _c
165 510 174 485 194 469 _c
213 452 250 439 304 429 _c
364 417 _l
437 403 491 378 526 343 _c
561 307 579 260 579 201 _c
579 130 555 77 508 41 _c
460 5 391 -13 300 -13 _c
265 -13 228 -9 189 -2 _c
}_e{150 5 110 16 69 32 _c
69 134 _l
109 111 148 94 186 83 _c
224 71 262 66 300 66 _c
356 66 399 77 430 99 _c
460 121 476 152 476 194 _c
476 230 465 258 443 278 _c
421 298 385 313 335 323 _c
275 335 _l
201 349 148 372 115 404 _c
82 435 66 478 66 534 _c
66 598 88 649 134 686 _c
179 723 242 742 322 742 _c
356 742 390 739 426 733 _c
461 727 497 717 535 705 _c
}_e{_cl}_e}_d
/T{611 0 -2 0 614 729 _sc
-2 729 _m
614 729 _l
614 646 _l
355 646 _l
355 0 _l
256 0 _l
256 646 _l
-2 646 _l
-2 729 _l
_cl}_d
/bracketleft{390 0 86 -131 293 760 _sc
86 760 _m
293 760 _l
293 690 _l
176 690 _l
176 -61 _l
293 -61 _l
293 -131 _l
86 -131 _l
86 760 _l
_cl}_d
/bracketright{390 0 97 -131 304 760 _sc
304 760 _m
304 -131 _l
97 -131 _l
97 -61 _l
214 -61 _l
214 690 _l
97 690 _l
97 760 _l
304 760 _l
_cl}_d
/a{{613 0 60 -13 522 560 _sc
343 275 _m
270 275 220 266 192 250 _c
164 233 150 205 150 165 _c
150 133 160 107 181 89 _c
202 70 231 61 267 61 _c
317 61 357 78 387 114 _c
417 149 432 196 432 255 _c
432 275 _l
343 275 _l
522 312 _m
522 0 _l
432 0 _l
432 83 _l
411 49 385 25 355 10 _c
325 -5 287 -13 243 -13 _c
187 -13 142 2 109 33 _c
76 64 60 106 60 159 _c
}_e{60 220 80 266 122 298 _c
163 329 224 345 306 345 _c
432 345 _l
432 354 _l
432 395 418 427 391 450 _c
364 472 326 484 277 484 _c
245 484 215 480 185 472 _c
155 464 127 453 100 439 _c
100 522 _l
132 534 164 544 195 550 _c
226 556 256 560 286 560 _c
365 560 424 539 463 498 _c
502 457 522 395 522 312 _c
_cl}_e}_d
/b{{635 0 91 -13 580 760 _sc
487 273 _m
487 339 473 390 446 428 _c
418 466 381 485 334 485 _c
286 485 249 466 222 428 _c
194 390 181 339 181 273 _c
181 207 194 155 222 117 _c
249 79 286 61 334 61 _c
381 61 418 79 446 117 _c
473 155 487 207 487 273 _c
181 464 _m
199 496 223 520 252 536 _c
281 552 316 560 356 560 _c
422 560 476 533 518 481 _c
559 428 580 359 580 273 _c
}_e{580 187 559 117 518 65 _c
476 13 422 -13 356 -13 _c
316 -13 281 -5 252 10 _c
223 25 199 49 181 82 _c
181 0 _l
91 0 _l
91 760 _l
181 760 _l
181 464 _l
_cl}_e}_d
/c{{550 0 55 -13 488 560 _sc
488 526 _m
488 442 _l
462 456 437 466 411 473 _c
385 480 360 484 334 484 _c
276 484 230 465 198 428 _c
166 391 150 339 150 273 _c
150 206 166 154 198 117 _c
230 80 276 62 334 62 _c
360 62 385 65 411 72 _c
437 79 462 90 488 104 _c
488 21 _l
462 9 436 0 410 -5 _c
383 -10 354 -13 324 -13 _c
242 -13 176 12 128 64 _c
}_e{79 115 55 185 55 273 _c
55 362 79 432 128 483 _c
177 534 244 560 330 560 _c
358 560 385 557 411 551 _c
437 545 463 537 488 526 _c
_cl}_e}_d
/d{{635 0 55 -13 544 760 _sc
454 464 _m
454 760 _l
544 760 _l
544 0 _l
454 0 _l
454 82 _l
435 49 411 25 382 10 _c
353 -5 319 -13 279 -13 _c
213 -13 159 13 117 65 _c
75 117 55 187 55 273 _c
55 359 75 428 117 481 _c
159 533 213 560 279 560 _c
319 560 353 552 382 536 _c
411 520 435 496 454 464 _c
148 273 _m
148 207 161 155 188 117 _c
215 79 253 61 301 61 _c
}_e{348 61 385 79 413 117 _c
440 155 454 207 454 273 _c
454 339 440 390 413 428 _c
385 466 348 485 301 485 _c
253 485 215 466 188 428 _c
161 390 148 339 148 273 _c
_cl}_e}_d
/e{{615 0 55 -13 562 560 _sc
562 296 _m
562 252 _l
149 252 _l
153 190 171 142 205 110 _c
238 78 284 62 344 62 _c
378 62 412 66 444 74 _c
476 82 509 95 541 113 _c
541 28 _l
509 14 476 3 442 -3 _c
408 -9 373 -13 339 -13 _c
251 -13 182 12 131 62 _c
80 112 55 181 55 268 _c
55 357 79 428 127 481 _c
175 533 241 560 323 560 _c
397 560 455 536 498 489 _c
}_e{540 441 562 377 562 296 _c
472 322 _m
471 371 457 410 431 440 _c
404 469 368 484 324 484 _c
274 484 234 469 204 441 _c
174 413 156 373 152 322 _c
472 322 _l
_cl}_e}_d
/f{352 0 23 0 371 760 _sc
371 760 _m
371 685 _l
285 685 _l
253 685 230 678 218 665 _c
205 652 199 629 199 595 _c
199 547 _l
347 547 _l
347 477 _l
199 477 _l
199 0 _l
109 0 _l
109 477 _l
23 477 _l
23 547 _l
109 547 _l
109 585 _l
109 645 123 690 151 718 _c
179 746 224 760 286 760 _c
371 760 _l
_cl}_d
/g{{635 0 55 -207 544 560 _sc
454 280 _m
454 344 440 395 414 431 _c
387 467 349 485 301 485 _c
253 485 215 467 188 431 _c
161 395 148 344 148 280 _c
148 215 161 165 188 129 _c
215 93 253 75 301 75 _c
349 75 387 93 414 129 _c
440 165 454 215 454 280 _c
544 68 _m
544 -24 523 -93 482 -139 _c
440 -184 377 -207 292 -207 _c
260 -207 231 -204 203 -200 _c
175 -195 147 -188 121 -178 _c
}_e{121 -91 _l
147 -105 173 -115 199 -122 _c
225 -129 251 -133 278 -133 _c
336 -133 380 -117 410 -87 _c
439 -56 454 -10 454 52 _c
454 96 _l
435 64 411 40 382 24 _c
353 8 319 0 279 0 _c
211 0 157 25 116 76 _c
75 127 55 195 55 280 _c
55 364 75 432 116 483 _c
157 534 211 560 279 560 _c
319 560 353 552 382 536 _c
411 520 435 496 454 464 _c
454 547 _l
544 547 _l
}_e{544 68 _l
_cl}_e}_d
/h{634 0 91 0 549 760 _sc
549 330 _m
549 0 _l
459 0 _l
459 327 _l
459 379 448 417 428 443 _c
408 469 378 482 338 482 _c
289 482 251 466 223 435 _c
195 404 181 362 181 309 _c
181 0 _l
91 0 _l
91 760 _l
181 760 _l
181 462 _l
202 494 227 519 257 535 _c
286 551 320 560 358 560 _c
420 560 468 540 500 501 _c
532 462 549 405 549 330 _c
_cl}_d
/i{278 0 94 0 184 760 _sc
94 547 _m
184 547 _l
184 0 _l
94 0 _l
94 547 _l
94 760 _m
184 760 _l
184 646 _l
94 646 _l
94 760 _l
_cl}_d
/k{579 0 91 0 576 760 _sc
91 760 _m
181 760 _l
181 311 _l
449 547 _l
564 547 _l
274 291 _l
576 0 _l
459 0 _l
181 267 _l
181 0 _l
91 0 _l
91 760 _l
_cl}_d
/l{278 0 94 0 184 760 _sc
94 760 _m
184 760 _l
184 0 _l
94 0 _l
94 760 _l
_cl}_d
/m{{974 0 91 0 889 560 _sc
520 442 _m
542 482 569 511 600 531 _c
631 550 668 560 711 560 _c
767 560 811 540 842 500 _c
873 460 889 403 889 330 _c
889 0 _l
799 0 _l
799 327 _l
799 379 789 418 771 444 _c
752 469 724 482 686 482 _c
639 482 602 466 575 435 _c
548 404 535 362 535 309 _c
535 0 _l
445 0 _l
445 327 _l
445 379 435 418 417 444 _c
398 469 369 482 331 482 _c
}_e{285 482 248 466 221 435 _c
194 404 181 362 181 309 _c
181 0 _l
91 0 _l
91 547 _l
181 547 _l
181 462 _l
201 495 226 520 255 536 _c
283 552 317 560 357 560 _c
397 560 430 550 458 530 _c
486 510 506 480 520 442 _c
_cl}_e}_d
/n{634 0 91 0 549 560 _sc
549 330 _m
549 0 _l
459 0 _l
459 327 _l
459 379 448 417 428 443 _c
408 469 378 482 338 482 _c
289 482 251 466 223 435 _c
195 404 181 362 181 309 _c
181 0 _l
91 0 _l
91 547 _l
181 547 _l
181 462 _l
202 494 227 519 257 535 _c
286 551 320 560 358 560 _c
420 560 468 540 500 501 _c
532 462 549 405 549 330 _c
_cl}_d
/o{612 0 55 -13 557 560 _sc
306 484 _m
258 484 220 465 192 427 _c
164 389 150 338 150 273 _c
150 207 163 156 191 118 _c
219 80 257 62 306 62 _c
354 62 392 80 420 118 _c
448 156 462 207 462 273 _c
462 337 448 389 420 427 _c
392 465 354 484 306 484 _c
306 560 _m
384 560 445 534 490 484 _c
534 433 557 363 557 273 _c
557 183 534 113 490 63 _c
445 12 384 -13 306 -13 _c
227 -13 165 12 121 63 _c
77 113 55 183 55 273 _c
55 363 77 433 121 484 _c
165 534 227 560 306 560 _c
_cl}_d
/r{411 0 91 0 411 560 _sc
411 463 _m
401 469 390 473 378 476 _c
366 478 353 480 339 480 _c
288 480 249 463 222 430 _c
194 397 181 350 181 288 _c
181 0 _l
91 0 _l
91 547 _l
181 547 _l
181 462 _l
199 495 224 520 254 536 _c
284 552 321 560 365 560 _c
371 560 378 559 386 559 _c
393 558 401 557 411 555 _c
411 463 _l
_cl}_d
/s{{521 0 54 -13 472 560 _sc
443 531 _m
443 446 _l
417 458 391 468 364 475 _c
336 481 308 485 279 485 _c
234 485 200 478 178 464 _c
156 450 145 430 145 403 _c
145 382 153 366 169 354 _c
185 342 217 330 265 320 _c
296 313 _l
360 299 405 279 432 255 _c
458 230 472 195 472 151 _c
472 100 452 60 412 31 _c
372 1 316 -13 246 -13 _c
216 -13 186 -10 154 -5 _c
}_e{122 0 89 8 54 20 _c
54 113 _l
87 95 120 82 152 74 _c
184 65 216 61 248 61 _c
290 61 323 68 346 82 _c
368 96 380 117 380 144 _c
380 168 371 187 355 200 _c
339 213 303 226 247 238 _c
216 245 _l
160 257 119 275 95 299 _c
70 323 58 356 58 399 _c
58 450 76 490 112 518 _c
148 546 200 560 268 560 _c
301 560 332 557 362 552 _c
391 547 418 540 443 531 _c
}_e{_cl}_e}_d
/t{392 0 27 0 368 702 _sc
183 702 _m
183 547 _l
368 547 _l
368 477 _l
183 477 _l
183 180 _l
183 135 189 106 201 94 _c
213 81 238 75 276 75 _c
368 75 _l
368 0 _l
276 0 _l
206 0 158 13 132 39 _c
106 65 93 112 93 180 _c
93 477 _l
27 477 _l
27 547 _l
93 547 _l
93 702 _l
183 702 _l
_cl}_d
/u{634 0 85 -13 543 560 _sc
85 216 _m
85 547 _l
175 547 _l
175 219 _l
175 167 185 129 205 103 _c
225 77 255 64 296 64 _c
344 64 383 79 411 110 _c
439 141 453 183 453 237 _c
453 547 _l
543 547 _l
543 0 _l
453 0 _l
453 84 _l
431 50 405 26 377 10 _c
348 -5 315 -13 277 -13 _c
214 -13 166 6 134 45 _c
101 83 85 140 85 216 _c
311 560 _m
311 560 _l
_cl}_d
/v{592 0 30 0 562 547 _sc
30 547 _m
125 547 _l
296 88 _l
467 547 _l
562 547 _l
357 0 _l
235 0 _l
30 547 _l
_cl}_d
/w{818 0 42 0 776 547 _sc
42 547 _m
132 547 _l
244 120 _l
356 547 _l
462 547 _l
574 120 _l
686 547 _l
776 547 _l
633 0 _l
527 0 _l
409 448 _l
291 0 _l
185 0 _l
42 547 _l
_cl}_d
end readonly def

/BuildGlyph
 {exch begin
 CharStrings exch
 2 copy known not{pop /.notdef}if
 true 3 1 roll get exec
 end}_d

/BuildChar {
 1 index /Encoding get exch get
 1 index /BuildGlyph get exec
}_d

FontName currentdict end definefont pop
%!PS-Adobe-3.0 Resource-Font
%%Title: DejaVu Sans Bold
%%Copyright: Copyright (c) 2003 by Bitstream, Inc. All Rights Reserved. Copyright (c) 2006 by Tavmjong Bah. All Rights Reserved. DejaVu changes are in public domain 
%%Creator: Converted from TrueType to type 3 by PPR
25 dict begin
/_d{bind def}bind def
/_m{moveto}_d
/_l{lineto}_d
/_cl{closepath eofill}_d
/_c{curveto}_d
/_sc{7 -1 roll{setcachedevice}{pop pop pop pop pop pop}ifelse}_d
/_e{exec}_d
/FontName /DejaVuSans-Bold def
/PaintType 0 def
/FontMatrix[.001 0 0 .001 0 0]def
/FontBBox[-1069 -415 1975 1174]def
/FontType 3 def
/Encoding [ /space /comma /period /one /two /five /A /F /H /L /P /R /S /a /b /c /e /h /i /k /m /n /o /r /t /w /z ] def
/FontInfo 10 dict dup begin
/FamilyName (DejaVu Sans) def
/FullName (DejaVu Sans Bold) def
/Notice (Copyright (c) 2003 by Bitstream, Inc. All Rights Reserved. Copyright (c) 2006 by Tavmjong Bah. All Rights Reserved. DejaVu changes are in public domain ) def
/Weight (Bold) def
/Version (Version 2.35) def
/ItalicAngle 0.0 def
/isFixedPitch false def
/UnderlinePosition -130 def
/UnderlineThickness 90 def
end readonly def
/CharStrings 28 dict dup begin
/.notdef 0 def
/space{348 0 0 0 0 0 _sc
}_d
/comma{380 0 53 -141 278 189 _sc
102 189 _m
278 189 _l
278 40 _l
157 -141 _l
53 -141 _l
102 40 _l
102 189 _l
_cl}_d
/period{380 0 102 0 278 189 _sc
102 189 _m
278 189 _l
278 0 _l
102 0 _l
102 189 _l
_cl}_d
/one{696 0 113 0 627 729 _sc
117 130 _m
283 130 _l
283 601 _l
113 566 _l
113 694 _l
282 729 _l
461 729 _l
461 130 _l
627 130 _l
627 0 _l
117 0 _l
117 130 _l
_cl}_d
/two{696 0 79 0 609 742 _sc
288 138 _m
609 138 _l
609 0 _l
79 0 _l
79 138 _l
345 373 _l
369 394 386 415 398 436 _c
409 456 415 478 415 500 _c
415 534 403 561 380 582 _c
357 603 327 614 289 614 _c
259 614 227 607 193 595 _c
158 582 121 563 81 539 _c
81 699 _l
123 713 165 723 207 731 _c
248 738 288 742 328 742 _c
415 742 483 722 531 684 _c
579 646 604 592 604 524 _c
604 484 593 446 573 412 _c
552 378 509 332 444 275 _c
288 138 _l
_cl}_d
/five{{696 0 77 -13 626 729 _sc
106 729 _m
573 729 _l
573 591 _l
256 591 _l
256 478 _l
270 482 284 485 299 487 _c
313 489 328 490 344 490 _c
433 490 502 467 552 423 _c
601 379 626 317 626 238 _c
626 159 599 97 545 53 _c
491 9 416 -13 321 -13 _c
279 -13 238 -9 198 -1 _c
157 6 117 18 77 34 _c
77 182 _l
117 159 154 142 190 131 _c
226 119 259 114 291 114 _c
}_e{336 114 372 125 398 147 _c
424 169 438 200 438 238 _c
438 276 424 306 398 328 _c
372 350 336 362 291 362 _c
263 362 234 358 204 351 _c
174 344 141 333 106 319 _c
106 729 _l
_cl}_e}_d
/A{774 0 5 0 769 729 _sc
534 133 _m
240 133 _l
194 0 _l
5 0 _l
275 729 _l
499 729 _l
769 0 _l
580 0 _l
534 133 _l
287 268 _m
487 268 _l
387 558 _l
287 268 _l
_cl}_d
/F{683 0 92 0 599 729 _sc
92 729 _m
599 729 _l
599 587 _l
280 587 _l
280 451 _l
580 451 _l
580 309 _l
280 309 _l
280 0 _l
92 0 _l
92 729 _l
_cl}_d
/H{837 0 92 0 745 729 _sc
92 729 _m
280 729 _l
280 451 _l
557 451 _l
557 729 _l
745 729 _l
745 0 _l
557 0 _l
557 309 _l
280 309 _l
280 0 _l
92 0 _l
92 729 _l
_cl}_d
/L{637 0 92 0 610 729 _sc
92 729 _m
280 729 _l
280 142 _l
610 142 _l
610 0 _l
92 0 _l
92 729 _l
_cl}_d
/P{733 0 92 0 692 729 _sc
92 729 _m
404 729 _l
496 729 567 708 617 667 _c
667 625 692 567 692 491 _c
692 414 667 355 617 314 _c
567 273 496 253 404 253 _c
280 253 _l
280 0 _l
92 0 _l
92 729 _l
280 593 _m
280 389 _l
384 389 _l
420 389 448 397 468 415 _c
488 433 498 458 498 491 _c
498 523 488 548 468 566 _c
448 584 420 593 384 593 _c
280 593 _l
_cl}_d
/R{{770 0 92 0 750 729 _sc
359 406 _m
398 406 426 413 443 428 _c
460 442 469 466 469 500 _c
469 533 460 557 443 571 _c
426 585 398 593 359 593 _c
280 593 _l
280 406 _l
359 406 _l
280 276 _m
280 0 _l
92 0 _l
92 729 _l
379 729 _l
475 729 545 712 590 680 _c
634 648 657 597 657 528 _c
657 480 645 440 622 409 _c
598 378 563 355 517 341 _c
543 335 566 321 586 301 _c
}_e{606 280 627 249 648 207 _c
750 0 _l
550 0 _l
461 181 _l
443 217 424 242 406 256 _c
388 269 363 276 333 276 _c
280 276 _l
_cl}_e}_d
/S{{720 0 72 -13 647 742 _sc
599 706 _m
599 552 _l
559 570 520 583 482 592 _c
444 601 408 606 374 606 _c
329 606 296 599 274 587 _c
252 575 242 556 242 530 _c
242 510 249 494 264 484 _c
278 473 305 464 343 456 _c
423 440 _l
503 424 561 399 595 366 _c
629 332 647 285 647 224 _c
647 144 623 84 575 45 _c
527 6 455 -13 357 -13 _c
311 -13 264 -8 218 0 _c
}_e{171 8 124 20 78 38 _c
78 197 _l
124 172 169 153 213 141 _c
256 128 298 122 339 122 _c
379 122 411 128 433 142 _c
455 156 466 175 466 201 _c
466 223 458 241 443 253 _c
428 265 399 277 355 287 _c
282 303 _l
209 319 156 344 122 378 _c
88 412 72 458 72 516 _c
72 588 95 644 142 683 _c
188 722 256 742 344 742 _c
384 742 425 739 467 733 _c
509 727 553 718 599 706 _c
}_e{_cl}_e}_d
/a{{675 0 43 -13 596 560 _sc
329 246 _m
292 246 264 239 246 227 _c
228 215 219 197 219 173 _c
219 151 226 133 241 121 _c
256 108 277 102 303 102 _c
336 102 364 113 386 137 _c
408 161 420 190 420 226 _c
420 246 _l
329 246 _l
596 312 _m
596 0 _l
420 0 _l
420 81 _l
396 47 370 23 341 9 _c
311 -5 276 -13 234 -13 _c
177 -13 131 3 96 36 _c
60 68 43 111 43 164 _c
}_e{43 228 65 275 109 305 _c
153 335 222 350 317 350 _c
420 350 _l
420 364 _l
420 391 409 411 387 424 _c
365 437 331 444 285 444 _c
247 444 212 440 180 432 _c
148 424 118 413 91 399 _c
91 532 _l
128 541 165 548 203 553 _c
241 557 279 560 317 560 _c
415 560 486 540 530 501 _c
574 462 596 399 596 312 _c
_cl}_e}_d
/b{{716 0 84 -13 671 760 _sc
375 113 _m
412 113 440 126 460 154 _c
480 181 490 221 490 273 _c
490 325 480 364 460 392 _c
440 419 412 433 375 433 _c
337 433 309 419 289 392 _c
269 364 259 325 259 273 _c
259 221 269 181 289 154 _c
309 126 337 113 375 113 _c
259 467 _m
283 499 309 522 339 537 _c
368 552 402 560 440 560 _c
507 560 562 533 606 479 _c
649 425 671 357 671 273 _c
}_e{671 188 649 119 606 66 _c
562 13 507 -13 440 -13 _c
402 -13 368 -5 339 9 _c
309 23 283 47 259 79 _c
259 0 _l
84 0 _l
84 760 _l
259 760 _l
259 467 _l
_cl}_e}_d
/c{{593 0 43 -13 526 560 _sc
526 530 _m
526 387 _l
502 403 478 415 454 423 _c
430 431 405 435 380 435 _c
331 435 293 420 266 392 _c
238 364 225 324 225 273 _c
225 221 238 181 266 153 _c
293 125 331 111 380 111 _c
407 111 433 115 458 123 _c
482 131 505 143 526 159 _c
526 16 _l
498 6 470 -1 442 -6 _c
414 -10 386 -13 358 -13 _c
259 -13 182 12 126 62 _c
}_e{70 112 43 183 43 273 _c
43 363 70 433 126 484 _c
182 534 259 560 358 560 _c
386 560 414 557 442 552 _c
470 547 498 540 526 530 _c
_cl}_e}_d
/e{{678 0 43 -13 630 560 _sc
630 275 _m
630 225 _l
221 225 _l
225 184 240 153 266 133 _c
291 112 326 102 372 102 _c
408 102 446 107 485 118 _c
523 129 563 146 604 168 _c
604 33 _l
562 17 521 6 480 -1 _c
438 -9 397 -13 356 -13 _c
257 -13 180 12 125 62 _c
70 112 43 182 43 273 _c
43 362 70 432 124 483 _c
178 534 252 560 346 560 _c
432 560 500 534 552 482 _c
}_e{604 430 630 361 630 275 _c
450 333 _m
450 366 440 393 421 413 _c
401 433 376 444 345 444 _c
311 444 283 434 262 415 _c
241 396 228 369 223 333 _c
450 333 _l
_cl}_e}_d
/h{712 0 84 0 634 760 _sc
634 333 _m
634 0 _l
458 0 _l
458 54 _l
458 254 _l
458 302 457 334 455 352 _c
453 370 449 383 444 392 _c
437 403 428 412 416 418 _c
404 424 390 428 376 428 _c
339 428 310 414 290 386 _c
269 358 259 319 259 269 _c
259 0 _l
84 0 _l
84 760 _l
259 760 _l
259 467 _l
285 499 312 522 342 537 _c
372 552 405 560 441 560 _c
504 560 552 540 585 502 _c
617 463 634 407 634 333 _c
_cl}_d
/i{343 0 84 0 259 760 _sc
84 547 _m
259 547 _l
259 0 _l
84 0 _l
84 547 _l
84 760 _m
259 760 _l
259 617 _l
84 617 _l
84 760 _l
_cl}_d
/k{665 0 84 0 684 760 _sc
84 760 _m
259 760 _l
259 346 _l
460 547 _l
663 547 _l
396 296 _l
684 0 _l
472 0 _l
259 228 _l
259 0 _l
84 0 _l
84 760 _l
_cl}_d
/m{{1042 0 83 0 963 560 _sc
591 456 _m
613 490 639 515 669 533 _c
699 551 733 560 770 560 _c
832 560 880 540 913 502 _c
946 463 963 407 963 333 _c
963 0 _l
787 0 _l
787 285 _l
787 289 788 294 788 298 _c
788 302 788 309 788 318 _c
788 356 782 384 771 402 _c
759 419 741 428 716 428 _c
682 428 657 414 639 387 _c
621 359 611 320 611 269 _c
611 0 _l
435 0 _l
435 285 _l
}_e{435 345 429 384 419 402 _c
409 419 390 428 364 428 _c
330 428 304 414 286 387 _c
268 359 259 320 259 269 _c
259 0 _l
83 0 _l
83 547 _l
259 547 _l
259 467 _l
280 497 305 520 333 536 _c
361 552 391 560 425 560 _c
462 560 495 550 524 532 _c
553 514 575 488 591 456 _c
_cl}_e}_d
/n{712 0 84 0 634 560 _sc
634 333 _m
634 0 _l
458 0 _l
458 54 _l
458 255 _l
458 302 457 334 455 352 _c
453 370 449 383 444 392 _c
437 403 428 412 416 418 _c
404 424 390 428 376 428 _c
339 428 310 414 290 386 _c
269 358 259 319 259 269 _c
259 0 _l
84 0 _l
84 547 _l
259 547 _l
259 467 _l
285 499 312 522 342 537 _c
372 552 405 560 441 560 _c
504 560 552 540 585 502 _c
617 463 634 407 634 333 _c
_cl}_d
/o{687 0 43 -13 644 560 _sc
344 435 _m
305 435 275 421 255 393 _c
235 365 225 325 225 273 _c
225 220 235 180 255 152 _c
275 124 305 111 344 111 _c
382 111 411 124 431 152 _c
451 180 462 220 462 273 _c
462 325 451 365 431 393 _c
411 421 382 435 344 435 _c
344 560 _m
438 560 511 534 564 484 _c
617 433 644 363 644 273 _c
644 183 617 112 564 62 _c
511 12 438 -13 344 -13 _c
250 -13 176 12 123 62 _c
69 112 43 183 43 273 _c
43 363 69 433 123 484 _c
176 534 250 560 344 560 _c
_cl}_d
/r{493 0 84 0 490 560 _sc
490 398 _m
474 405 459 410 444 414 _c
429 417 414 419 399 419 _c
354 419 319 404 295 376 _c
271 347 259 306 259 252 _c
259 0 _l
84 0 _l
84 547 _l
259 547 _l
259 457 _l
281 493 306 519 336 535 _c
365 551 400 560 441 560 _c
447 560 453 559 460 559 _c
466 559 476 558 490 556 _c
490 398 _l
_cl}_d
/t{478 0 13 0 455 702 _sc
275 702 _m
275 547 _l
455 547 _l
455 422 _l
275 422 _l
275 190 _l
275 164 280 147 290 138 _c
300 129 320 125 350 125 _c
440 125 _l
440 0 _l
290 0 _l
221 0 172 14 143 43 _c
114 71 100 120 100 190 _c
100 422 _l
13 422 _l
13 547 _l
100 547 _l
100 702 _l
275 702 _l
_cl}_d
/w{924 0 35 0 889 547 _sc
35 547 _m
205 547 _l
297 170 _l
389 547 _l
535 547 _l
627 174 _l
719 547 _l
889 547 _l
745 0 _l
554 0 _l
462 376 _l
370 0 _l
179 0 _l
35 547 _l
_cl}_d
/z{582 0 45 0 534 547 _sc
57 547 _m
534 547 _l
534 425 _l
246 125 _l
534 125 _l
534 0 _l
45 0 _l
45 122 _l
333 422 _l
57 422 _l
57 547 _l
_cl}_d
end readonly def

/BuildGlyph
 {exch begin
 CharStrings exch
 2 copy known not{pop /.notdef}if
 true 3 1 roll get exec
 end}_d

/BuildChar {
 1 index /Encoding get exch get
 1 index /BuildGlyph get exec
}_d

FontName currentdict end definefont pop
end
%%EndProlog
mpldict begin
-378 72 translate
1368 648 0 0 clipbox
gsave
0 0 m
1368 0 l
1368 648 l
0 648 l
cl
1.000 setgray
fill
grestore
gsave
171 343.44 m
1231.2 343.44 l
1231.2 570.24 l
171 570.24 l
cl
1.000 setgray
fill
grestore
1.000 setlinewidth
0 setlinejoin
0 setlinecap
[] 0 setdash
0.230 0.322 0.546 setrgbcolor
gsave
1060 226.8 171 343.4 clipbox
171 343.44 m
171 570.24 l
318.349831 570.24 l
318.349831 343.44 l
cl
gsave
fill
grestore
stroke
grestore
0.216 0.352 0.551 setrgbcolor
gsave
1060 226.8 171 343.4 clipbox
318.349831 343.44 m
318.349831 570.24 l
361.47661 570.24 l
361.47661 343.44 l
cl
gsave
fill
grestore
stroke
grestore
0.201 0.384 0.554 setrgbcolor
gsave
1060 226.8 171 343.4 clipbox
361.47661 343.44 m
361.47661 570.24 l
411.791186 570.24 l
411.791186 343.44 l
cl
gsave
fill
grestore
stroke
grestore
0.186 0.419 0.557 setrgbcolor
gsave
1060 226.8 171 343.4 clipbox
411.791186 343.44 m
411.791186 570.24 l
451.324068 570.24 l
451.324068 343.44 l
cl
gsave
fill
grestore
stroke
grestore
0.174 0.445 0.558 setrgbcolor
gsave
1060 226.8 171 343.4 clipbox
451.324068 343.44 m
451.324068 570.24 l
490.856949 570.24 l
490.856949 343.44 l
cl
gsave
fill
grestore
stroke
grestore
0.161 0.479 0.558 setrgbcolor
gsave
1060 226.8 171 343.4 clipbox
490.856949 343.44 m
490.856949 570.24 l
523.202034 570.24 l
523.202034 343.44 l
cl
gsave
fill
grestore
stroke
grestore
0.149 0.508 0.557 setrgbcolor
gsave
1060 226.8 171 343.4 clipbox
523.202034 343.44 m
523.202034 570.24 l
562.734915 570.24 l
562.734915 343.44 l
cl
gsave
fill
grestore
stroke
grestore
0.138 0.537 0.555 setrgbcolor
gsave
1060 226.8 171 343.4 clipbox
562.734915 343.44 m
562.734915 570.24 l
595.08 570.24 l
595.08 343.44 l
cl
gsave
fill
grestore
stroke
grestore
0.128 0.567 0.551 setrgbcolor
gsave
1060 226.8 171 343.4 clipbox
595.08 343.44 m
595.08 570.24 l
648.988475 570.24 l
648.988475 343.44 l
cl
gsave
fill
grestore
stroke
grestore
0.121 0.596 0.544 setrgbcolor
gsave
1060 226.8 171 343.4 clipbox
648.988475 343.44 m
648.988475 570.24 l
688.521356 570.24 l
688.521356 343.44 l
cl
gsave
fill
grestore
stroke
grestore
0.121 0.626 0.533 setrgbcolor
gsave
1060 226.8 171 343.4 clipbox
688.521356 343.44 m
688.521356 570.24 l
767.587119 570.24 l
767.587119 343.44 l
cl
gsave
fill
grestore
stroke
grestore
0.135 0.659 0.518 setrgbcolor
gsave
1060 226.8 171 343.4 clipbox
767.587119 343.44 m
767.587119 570.24 l
825.089492 570.24 l
825.089492 343.44 l
cl
gsave
fill
grestore
stroke
grestore
0.158 0.684 0.502 setrgbcolor
gsave
1060 226.8 171 343.4 clipbox
825.089492 343.44 m
825.089492 570.24 l
864.622373 570.24 l
864.622373 343.44 l
cl
gsave
fill
grestore
stroke
grestore
0.202 0.715 0.476 setrgbcolor
gsave
1060 226.8 171 343.4 clipbox
864.622373 343.44 m
864.622373 570.24 l
922.124746 570.24 l
922.124746 343.44 l
cl
gsave
fill
grestore
stroke
grestore
0.253 0.742 0.448 setrgbcolor
gsave
1060 226.8 171 343.4 clipbox
922.124746 343.44 m
922.124746 570.24 l
1033.535593 570.24 l
1033.535593 343.44 l
cl
gsave
fill
grestore
stroke
grestore
0.312 0.768 0.416 setrgbcolor
gsave
1060 226.8 171 343.4 clipbox
1033.535593 343.44 m
1033.535593 570.24 l
1076.662373 570.24 l
1076.662373 343.44 l
cl
gsave
fill
grestore
stroke
grestore
0.378 0.792 0.378 setrgbcolor
gsave
1060 226.8 171 343.4 clipbox
1076.662373 343.44 m
1076.662373 570.24 l
1087.444068 570.24 l
1087.444068 343.44 l
cl
gsave
fill
grestore
stroke
grestore
0.526 0.833 0.288 setrgbcolor
gsave
1060 226.8 171 343.4 clipbox
1087.444068 343.44 m
1087.444068 570.24 l
1180.885424 570.24 l
1180.885424 343.44 l
cl
gsave
fill
grestore
stroke
grestore
0.606 0.851 0.237 setrgbcolor
gsave
1060 226.8 171 343.4 clipbox
1180.885424 343.44 m
1180.885424 570.24 l
1231.2 570.24 l
1231.2 343.44 l
cl
gsave
fill
grestore
stroke
grestore
0.800 setlinewidth
1 setlinejoin
2 setlinecap
[] 0 setdash
0.000 setgray
gsave
1060 226.8 171 343.4 clipbox
171 381.292132 m
1231.2 381.292132 l
stroke
grestore
0 setlinecap
gsave
/o {
gsave
newpath
translate
0.8 setlinewidth
1 setlinejoin
0 setlinecap
0 0 m
-3.5 0 l

gsave
0.000 setgray
fill
grestore
stroke
grestore
} bind def
171 381.292 o
grestore
/DejaVuSans findfont
10.000 scalefont
setfont
gsave
148.093750 377.495257 translate
0.000000 rotate
0.000000 0.000000 m /one glyphshow
6.362305 0.000000 m /period glyphshow
9.541016 0.000000 m /five glyphshow
grestore
2 setlinecap
gsave
1060 226.8 171 343.4 clipbox
171 424.735414 m
1231.2 424.735414 l
stroke
grestore
0 setlinecap
gsave
/o {
gsave
newpath
translate
0.8 setlinewidth
1 setlinejoin
0 setlinecap
0 0 m
-3.5 0 l

gsave
0.000 setgray
fill
grestore
stroke
grestore
} bind def
171 424.735 o
grestore
gsave
148.093750 420.938539 translate
0.000000 rotate
0.000000 0.000000 m /two glyphshow
6.362305 0.000000 m /period glyphshow
9.541016 0.000000 m /zero glyphshow
grestore
2 setlinecap
gsave
1060 226.8 171 343.4 clipbox
171 468.178697 m
1231.2 468.178697 l
stroke
grestore
0 setlinecap
gsave
/o {
gsave
newpath
translate
0.8 setlinewidth
1 setlinejoin
0 setlinecap
0 0 m
-3.5 0 l

gsave
0.000 setgray
fill
grestore
stroke
grestore
} bind def
171 468.179 o
grestore
gsave
148.093750 464.381822 translate
0.000000 rotate
0.000000 0.000000 m /two glyphshow
6.362305 0.000000 m /period glyphshow
9.541016 0.000000 m /five glyphshow
grestore
2 setlinecap
gsave
1060 226.8 171 343.4 clipbox
171 511.621979 m
1231.2 511.621979 l
stroke
grestore
0 setlinecap
gsave
/o {
gsave
newpath
translate
0.8 setlinewidth
1 setlinejoin
0 setlinecap
0 0 m
-3.5 0 l

gsave
0.000 setgray
fill
grestore
stroke
grestore
} bind def
171 511.622 o
grestore
gsave
148.093750 507.825104 translate
0.000000 rotate
0.000000 0.000000 m /three glyphshow
6.362305 0.000000 m /period glyphshow
9.541016 0.000000 m /zero glyphshow
grestore
2 setlinecap
gsave
1060 226.8 171 343.4 clipbox
171 555.065261 m
1231.2 555.065261 l
stroke
grestore
0 setlinecap
gsave
/o {
gsave
newpath
translate
0.8 setlinewidth
1 setlinejoin
0 setlinecap
0 0 m
-3.5 0 l

gsave
0.000 setgray
fill
grestore
stroke
grestore
} bind def
171 555.065 o
grestore
gsave
148.093750 551.268386 translate
0.000000 rotate
0.000000 0.000000 m /three glyphshow
6.362305 0.000000 m /period glyphshow
9.541016 0.000000 m /five glyphshow
grestore
gsave
142.015625 359.886875 translate
90.000000 rotate
0.000000 0.000000 m /P glyphshow
6.030273 0.000000 m /e glyphshow
12.182617 0.000000 m /r glyphshow
16.293945 0.000000 m /i glyphshow
19.072266 0.000000 m /o glyphshow
25.190430 0.000000 m /d glyphshow
31.538086 0.000000 m /space glyphshow
34.716797 0.000000 m /b glyphshow
41.064453 0.000000 m /e glyphshow
47.216797 0.000000 m /t glyphshow
51.137695 0.000000 m /w glyphshow
59.316406 0.000000 m /e glyphshow
65.468750 0.000000 m /e glyphshow
71.621094 0.000000 m /n glyphshow
77.958984 0.000000 m /space glyphshow
81.137695 0.000000 m /r glyphshow
85.249023 0.000000 m /e glyphshow
91.401367 0.000000 m /c glyphshow
96.899414 0.000000 m /e glyphshow
103.051758 0.000000 m /i glyphshow
105.830078 0.000000 m /v glyphshow
111.748047 0.000000 m /e glyphshow
117.900391 0.000000 m /d glyphshow
124.248047 0.000000 m /space glyphshow
127.426758 0.000000 m /m glyphshow
137.167969 0.000000 m /e glyphshow
143.320312 0.000000 m /s glyphshow
148.530273 0.000000 m /s glyphshow
153.740234 0.000000 m /a glyphshow
159.868164 0.000000 m /g glyphshow
166.215820 0.000000 m /e glyphshow
172.368164 0.000000 m /s glyphshow
177.578125 0.000000 m /space glyphshow
180.756836 0.000000 m /bracketleft glyphshow
184.658203 0.000000 m /s glyphshow
189.868164 0.000000 m /bracketright glyphshow
grestore
1.500 setlinewidth
2 setlinecap
1.000 0.647 0.000 setrgbcolor
gsave
1060 226.8 171 343.4 clipbox
171.772688 353.835977 m
235.682982 353.835977 l
239.941751 354.009751 l
244.204115 353.922864 l
252.736029 354.009751 l
265.519525 353.922864 l
274.05144 353.835977 l
346.482866 353.749091 l
350.74523 354.009751 l
380.553022 354.009751 l
384.822574 353.749091 l
393.3473 353.835977 l
457.286345 353.835977 l
461.555896 354.009751 l
465.814666 353.922864 l
474.310641 354.009751 l
495.626052 354.009751 l
499.888416 353.835977 l
576.589393 353.835977 l
580.851757 354.009751 l
610.6883 353.922864 l
619.213027 353.835977 l
695.914005 353.835977 l
700.176368 354.009751 l
725.754142 354.009751 l
729.984161 353.749091 l
738.516075 353.835977 l
759.831486 353.835977 l
768.323868 456.883443 l
772.614982 353.749091 l
781.139709 353.835977 l
793.930393 353.749091 l
806.656387 559.930909 l
810.983441 353.749091 l
815.245804 353.749091 l
819.479416 354.009751 l
840.794827 354.009751 l
845.057191 353.835977 l
934.541664 353.749091 l
938.804028 354.009751 l
964.381802 354.009751 l
972.910123 353.749091 l
1058.135827 353.749091 l
1062.398191 354.009751 l
1087.947214 354.009751 l
1096.468346 353.749091 l
1104.993073 353.835977 l
1181.722802 353.749091 l
1185.956414 354.009751 l
1211.534188 354.009751 l
1220.062509 353.749091 l
1228.587236 353.835977 l
1228.587236 353.835977 l
stroke
grestore
0.800 setlinewidth
0 setlinejoin
[] 0 setdash
0.000 setgray
gsave
171 343.44 m
171 570.24 l
stroke
grestore
gsave
1231.2 343.44 m
1231.2 570.24 l
stroke
grestore
gsave
171 343.44 m
1231.2 343.44 l
stroke
grestore
gsave
171 570.24 m
1231.2 570.24 l
stroke
grestore
gsave
171 71.28 m
1231.2 71.28 l
1231.2 298.08 l
171 298.08 l
cl
1.000 setgray
fill
grestore
1.000 setlinewidth
0 setlinecap
0.230 0.322 0.546 setrgbcolor
gsave
1060 226.8 171 71.28 clipbox
171 71.28 m
171 298.08 l
318.349831 298.08 l
318.349831 71.28 l
cl
gsave
fill
grestore
stroke
grestore
0.216 0.352 0.551 setrgbcolor
gsave
1060 226.8 171 71.28 clipbox
318.349831 71.28 m
318.349831 298.08 l
361.47661 298.08 l
361.47661 71.28 l
cl
gsave
fill
grestore
stroke
grestore
0.201 0.384 0.554 setrgbcolor
gsave
1060 226.8 171 71.28 clipbox
361.47661 71.28 m
361.47661 298.08 l
411.791186 298.08 l
411.791186 71.28 l
cl
gsave
fill
grestore
stroke
grestore
0.186 0.419 0.557 setrgbcolor
gsave
1060 226.8 171 71.28 clipbox
411.791186 71.28 m
411.791186 298.08 l
451.324068 298.08 l
451.324068 71.28 l
cl
gsave
fill
grestore
stroke
grestore
0.174 0.445 0.558 setrgbcolor
gsave
1060 226.8 171 71.28 clipbox
451.324068 71.28 m
451.324068 298.08 l
490.856949 298.08 l
490.856949 71.28 l
cl
gsave
fill
grestore
stroke
grestore
0.161 0.479 0.558 setrgbcolor
gsave
1060 226.8 171 71.28 clipbox
490.856949 71.28 m
490.856949 298.08 l
523.202034 298.08 l
523.202034 71.28 l
cl
gsave
fill
grestore
stroke
grestore
0.149 0.508 0.557 setrgbcolor
gsave
1060 226.8 171 71.28 clipbox
523.202034 71.28 m
523.202034 298.08 l
562.734915 298.08 l
562.734915 71.28 l
cl
gsave
fill
grestore
stroke
grestore
0.138 0.537 0.555 setrgbcolor
gsave
1060 226.8 171 71.28 clipbox
562.734915 71.28 m
562.734915 298.08 l
595.08 298.08 l
595.08 71.28 l
cl
gsave
fill
grestore
stroke
grestore
0.128 0.567 0.551 setrgbcolor
gsave
1060 226.8 171 71.28 clipbox
595.08 71.28 m
595.08 298.08 l
648.988475 298.08 l
648.988475 71.28 l
cl
gsave
fill
grestore
stroke
grestore
0.121 0.596 0.544 setrgbcolor
gsave
1060 226.8 171 71.28 clipbox
648.988475 71.28 m
648.988475 298.08 l
688.521356 298.08 l
688.521356 71.28 l
cl
gsave
fill
grestore
stroke
grestore
0.121 0.626 0.533 setrgbcolor
gsave
1060 226.8 171 71.28 clipbox
688.521356 71.28 m
688.521356 298.08 l
767.587119 298.08 l
767.587119 71.28 l
cl
gsave
fill
grestore
stroke
grestore
0.135 0.659 0.518 setrgbcolor
gsave
1060 226.8 171 71.28 clipbox
767.587119 71.28 m
767.587119 298.08 l
825.089492 298.08 l
825.089492 71.28 l
cl
gsave
fill
grestore
stroke
grestore
0.158 0.684 0.502 setrgbcolor
gsave
1060 226.8 171 71.28 clipbox
825.089492 71.28 m
825.089492 298.08 l
864.622373 298.08 l
864.622373 71.28 l
cl
gsave
fill
grestore
stroke
grestore
0.202 0.715 0.476 setrgbcolor
gsave
1060 226.8 171 71.28 clipbox
864.622373 71.28 m
864.622373 298.08 l
922.124746 298.08 l
922.124746 71.28 l
cl
gsave
fill
grestore
stroke
grestore
0.253 0.742 0.448 setrgbcolor
gsave
1060 226.8 171 71.28 clipbox
922.124746 71.28 m
922.124746 298.08 l
1033.535593 298.08 l
1033.535593 71.28 l
cl
gsave
fill
grestore
stroke
grestore
0.312 0.768 0.416 setrgbcolor
gsave
1060 226.8 171 71.28 clipbox
1033.535593 71.28 m
1033.535593 298.08 l
1076.662373 298.08 l
1076.662373 71.28 l
cl
gsave
fill
grestore
stroke
grestore
0.378 0.792 0.378 setrgbcolor
gsave
1060 226.8 171 71.28 clipbox
1076.662373 71.28 m
1076.662373 298.08 l
1087.444068 298.08 l
1087.444068 71.28 l
cl
gsave
fill
grestore
stroke
grestore
0.526 0.833 0.288 setrgbcolor
gsave
1060 226.8 171 71.28 clipbox
1087.444068 71.28 m
1087.444068 298.08 l
1180.885424 298.08 l
1180.885424 71.28 l
cl
gsave
fill
grestore
stroke
grestore
0.606 0.851 0.237 setrgbcolor
gsave
1060 226.8 171 71.28 clipbox
1180.885424 71.28 m
1180.885424 298.08 l
1231.2 298.08 l
1231.2 71.28 l
cl
gsave
fill
grestore
stroke
grestore
0.800 setlinewidth
1 setlinejoin
[] 0 setdash
0.000 setgray
gsave
/o {
gsave
newpath
translate
0.8 setlinewidth
1 setlinejoin
0 setlinecap
0 0 m
0 -3.5 l

gsave
0.000 setgray
fill
grestore
stroke
grestore
} bind def
244.675 71.28 o
grestore
gsave
238.315540 56.686250 translate
0.000000 rotate
0.000000 0.000000 m /two glyphshow
6.362305 0.000000 m /zero glyphshow
grestore
gsave
/o {
gsave
newpath
translate
0.8 setlinewidth
1 setlinejoin
0 setlinecap
0 0 m
0 -3.5 l

gsave
0.000 setgray
fill
grestore
stroke
grestore
} bind def
339.913 71.28 o
grestore
gsave
333.553845 56.686250 translate
0.000000 rotate
0.000000 0.000000 m /three glyphshow
6.362305 0.000000 m /zero glyphshow
grestore
gsave
/o {
gsave
newpath
translate
0.8 setlinewidth
1 setlinejoin
0 setlinecap
0 0 m
0 -3.5 l

gsave
0.000 setgray
fill
grestore
stroke
grestore
} bind def
386.634 71.28 o
grestore
gsave
380.274523 56.686250 translate
0.000000 rotate
0.000000 0.000000 m /four glyphshow
6.362305 0.000000 m /zero glyphshow
grestore
gsave
/o {
gsave
newpath
translate
0.8 setlinewidth
1 setlinejoin
0 setlinecap
0 0 m
0 -3.5 l

gsave
0.000 setgray
fill
grestore
stroke
grestore
} bind def
431.558 71.28 o
grestore
gsave
425.198252 56.686250 translate
0.000000 rotate
0.000000 0.000000 m /five glyphshow
6.362305 0.000000 m /zero glyphshow
grestore
gsave
/o {
gsave
newpath
translate
0.8 setlinewidth
1 setlinejoin
0 setlinecap
0 0 m
0 -3.5 l

gsave
0.000 setgray
fill
grestore
stroke
grestore
} bind def
471.091 71.28 o
grestore
gsave
464.731133 56.686250 translate
0.000000 rotate
0.000000 0.000000 m /six glyphshow
6.362305 0.000000 m /zero glyphshow
grestore
gsave
/o {
gsave
newpath
translate
0.8 setlinewidth
1 setlinejoin
0 setlinecap
0 0 m
0 -3.5 l

gsave
0.000 setgray
fill
grestore
stroke
grestore
} bind def
507.029 71.28 o
grestore
gsave
500.670117 56.686250 translate
0.000000 rotate
0.000000 0.000000 m /seven glyphshow
6.362305 0.000000 m /zero glyphshow
grestore
gsave
/o {
gsave
newpath
translate
0.8 setlinewidth
1 setlinejoin
0 setlinecap
0 0 m
0 -3.5 l

gsave
0.000 setgray
fill
grestore
stroke
grestore
} bind def
542.968 71.28 o
grestore
gsave
536.609100 56.686250 translate
0.000000 rotate
0.000000 0.000000 m /eight glyphshow
6.362305 0.000000 m /zero glyphshow
grestore
gsave
/o {
gsave
newpath
translate
0.8 setlinewidth
1 setlinejoin
0 setlinecap
0 0 m
0 -3.5 l

gsave
0.000 setgray
fill
grestore
stroke
grestore
} bind def
578.907 71.28 o
grestore
gsave
572.548083 56.686250 translate
0.000000 rotate
0.000000 0.000000 m /nine glyphshow
6.362305 0.000000 m /zero glyphshow
grestore
gsave
/o {
gsave
newpath
translate
0.8 setlinewidth
1 setlinejoin
0 setlinecap
0 0 m
0 -3.5 l

gsave
0.000 setgray
fill
grestore
stroke
grestore
} bind def
622.034 71.28 o
grestore
gsave
612.495175 56.686250 translate
0.000000 rotate
0.000000 0.000000 m /one glyphshow
6.362305 0.000000 m /zero glyphshow
12.724609 0.000000 m /zero glyphshow
grestore
gsave
/o {
gsave
newpath
translate
0.8 setlinewidth
1 setlinejoin
0 setlinecap
0 0 m
0 -3.5 l

gsave
0.000 setgray
fill
grestore
stroke
grestore
} bind def
668.755 71.28 o
grestore
gsave
659.215853 56.686250 translate
0.000000 rotate
0.000000 0.000000 m /one glyphshow
6.362305 0.000000 m /one glyphshow
12.724609 0.000000 m /zero glyphshow
grestore
gsave
/o {
gsave
newpath
translate
0.8 setlinewidth
1 setlinejoin
0 setlinecap
0 0 m
0 -3.5 l

gsave
0.000 setgray
fill
grestore
stroke
grestore
} bind def
728.054 71.28 o
grestore
gsave
718.515175 56.686250 translate
0.000000 rotate
0.000000 0.000000 m /one glyphshow
6.362305 0.000000 m /two glyphshow
12.724609 0.000000 m /zero glyphshow
grestore
gsave
/o {
gsave
newpath
translate
0.8 setlinewidth
1 setlinejoin
0 setlinecap
0 0 m
0 -3.5 l

gsave
0.000 setgray
fill
grestore
stroke
grestore
} bind def
796.338 71.28 o
grestore
gsave
786.799243 56.686250 translate
0.000000 rotate
0.000000 0.000000 m /one glyphshow
6.362305 0.000000 m /three glyphshow
12.724609 0.000000 m /zero glyphshow
grestore
gsave
/o {
gsave
newpath
translate
0.8 setlinewidth
1 setlinejoin
0 setlinecap
0 0 m
0 -3.5 l

gsave
0.000 setgray
fill
grestore
stroke
grestore
} bind def
844.856 71.28 o
grestore
gsave
835.316870 56.686250 translate
0.000000 rotate
0.000000 0.000000 m /one glyphshow
6.362305 0.000000 m /three glyphshow
12.724609 0.000000 m /one glyphshow
grestore
gsave
/o {
gsave
newpath
translate
0.8 setlinewidth
1 setlinejoin
0 setlinecap
0 0 m
0 -3.5 l

gsave
0.000 setgray
fill
grestore
stroke
grestore
} bind def
893.374 71.28 o
grestore
gsave
883.834497 56.686250 translate
0.000000 rotate
0.000000 0.000000 m /one glyphshow
6.362305 0.000000 m /three glyphshow
12.724609 0.000000 m /two glyphshow
grestore
gsave
/o {
gsave
newpath
translate
0.8 setlinewidth
1 setlinejoin
0 setlinecap
0 0 m
0 -3.5 l

gsave
0.000 setgray
fill
grestore
stroke
grestore
} bind def
977.83 71.28 o
grestore
gsave
968.291107 56.686250 translate
0.000000 rotate
0.000000 0.000000 m /one glyphshow
6.362305 0.000000 m /three glyphshow
12.724609 0.000000 m /three glyphshow
grestore
gsave
/o {
gsave
newpath
translate
0.8 setlinewidth
1 setlinejoin
0 setlinecap
0 0 m
0 -3.5 l

gsave
0.000 setgray
fill
grestore
stroke
grestore
} bind def
1055.1 71.28 o
grestore
gsave
1045.559921 56.686250 translate
0.000000 rotate
0.000000 0.000000 m /one glyphshow
6.362305 0.000000 m /three glyphshow
12.724609 0.000000 m /four glyphshow
grestore
gsave
/o {
gsave
newpath
translate
0.8 setlinewidth
1 setlinejoin
0 setlinecap
0 0 m
0 -3.5 l

gsave
0.000 setgray
fill
grestore
stroke
grestore
} bind def
1082.05 71.28 o
grestore
gsave
1072.514158 56.686250 translate
0.000000 rotate
0.000000 0.000000 m /one glyphshow
6.362305 0.000000 m /three glyphshow
12.724609 0.000000 m /five glyphshow
grestore
gsave
/o {
gsave
newpath
translate
0.8 setlinewidth
1 setlinejoin
0 setlinecap
0 0 m
0 -3.5 l

gsave
0.000 setgray
fill
grestore
stroke
grestore
} bind def
1134.16 71.28 o
grestore
gsave
1124.625683 56.686250 translate
0.000000 rotate
0.000000 0.000000 m /one glyphshow
6.362305 0.000000 m /three glyphshow
12.724609 0.000000 m /six glyphshow
grestore
gsave
/o {
gsave
newpath
translate
0.8 setlinewidth
1 setlinejoin
0 setlinecap
0 0 m
0 -3.5 l

gsave
0.000 setgray
fill
grestore
stroke
grestore
} bind def
1206.04 71.28 o
grestore
gsave
1196.503649 56.686250 translate
0.000000 rotate
0.000000 0.000000 m /one glyphshow
6.362305 0.000000 m /three glyphshow
12.724609 0.000000 m /seven glyphshow
grestore
gsave
659.584375 43.014375 translate
0.000000 rotate
0.000000 0.000000 m /A glyphshow
6.840820 0.000000 m /t glyphshow
10.761719 0.000000 m /t glyphshow
14.682617 0.000000 m /e glyphshow
20.834961 0.000000 m /n glyphshow
27.172852 0.000000 m /u glyphshow
33.510742 0.000000 m /a glyphshow
39.638672 0.000000 m /t glyphshow
43.559570 0.000000 m /i glyphshow
46.337891 0.000000 m /o glyphshow
52.456055 0.000000 m /n glyphshow
58.793945 0.000000 m /space glyphshow
61.972656 0.000000 m /bracketleft glyphshow
65.874023 0.000000 m /d glyphshow
72.221680 0.000000 m /B glyphshow
79.082031 0.000000 m /bracketright glyphshow
grestore
2 setlinecap
gsave
1060 226.8 171 71.28 clipbox
171 81.589091 m
1231.2 81.589091 l
stroke
grestore
0 setlinecap
gsave
/o {
gsave
newpath
translate
0.8 setlinewidth
1 setlinejoin
0 setlinecap
0 0 m
-3.5 0 l

gsave
0.000 setgray
fill
grestore
stroke
grestore
} bind def
171 81.5891 o
grestore
gsave
148.093750 77.792216 translate
0.000000 rotate
0.000000 0.000000 m /zero glyphshow
6.362305 0.000000 m /period glyphshow
9.541016 0.000000 m /zero glyphshow
grestore
2 setlinecap
gsave
1060 226.8 171 71.28 clipbox
171 115.952727 m
1231.2 115.952727 l
stroke
grestore
0 setlinecap
gsave
/o {
gsave
newpath
translate
0.8 setlinewidth
1 setlinejoin
0 setlinecap
0 0 m
-3.5 0 l

gsave
0.000 setgray
fill
grestore
stroke
grestore
} bind def
171 115.953 o
grestore
gsave
148.093750 112.155852 translate
0.000000 rotate
0.000000 0.000000 m /zero glyphshow
6.362305 0.000000 m /period glyphshow
9.541016 0.000000 m /five glyphshow
grestore
2 setlinecap
gsave
1060 226.8 171 71.28 clipbox
171 150.316364 m
1231.2 150.316364 l
stroke
grestore
0 setlinecap
gsave
/o {
gsave
newpath
translate
0.8 setlinewidth
1 setlinejoin
0 setlinecap
0 0 m
-3.5 0 l

gsave
0.000 setgray
fill
grestore
stroke
grestore
} bind def
171 150.316 o
grestore
gsave
148.093750 146.519489 translate
0.000000 rotate
0.000000 0.000000 m /one glyphshow
6.362305 0.000000 m /period glyphshow
9.541016 0.000000 m /zero glyphshow
grestore
2 setlinecap
gsave
1060 226.8 171 71.28 clipbox
171 184.68 m
1231.2 184.68 l
stroke
grestore
0 setlinecap
gsave
/o {
gsave
newpath
translate
0.8 setlinewidth
1 setlinejoin
0 setlinecap
0 0 m
-3.5 0 l

gsave
0.000 setgray
fill
grestore
stroke
grestore
} bind def
171 184.68 o
grestore
gsave
148.093750 180.883125 translate
0.000000 rotate
0.000000 0.000000 m /one glyphshow
6.362305 0.000000 m /period glyphshow
9.541016 0.000000 m /five glyphshow
grestore
2 setlinecap
gsave
1060 226.8 171 71.28 clipbox
171 219.043636 m
1231.2 219.043636 l
stroke
grestore
0 setlinecap
gsave
/o {
gsave
newpath
translate
0.8 setlinewidth
1 setlinejoin
0 setlinecap
0 0 m
-3.5 0 l

gsave
0.000 setgray
fill
grestore
stroke
grestore
} bind def
171 219.044 o
grestore
gsave
148.093750 215.246761 translate
0.000000 rotate
0.000000 0.000000 m /two glyphshow
6.362305 0.000000 m /period glyphshow
9.541016 0.000000 m /zero glyphshow
grestore
2 setlinecap
gsave
1060 226.8 171 71.28 clipbox
171 253.407273 m
1231.2 253.407273 l
stroke
grestore
0 setlinecap
gsave
/o {
gsave
newpath
translate
0.8 setlinewidth
1 setlinejoin
0 setlinecap
0 0 m
-3.5 0 l

gsave
0.000 setgray
fill
grestore
stroke
grestore
} bind def
171 253.407 o
grestore
gsave
148.093750 249.610398 translate
0.000000 rotate
0.000000 0.000000 m /two glyphshow
6.362305 0.000000 m /period glyphshow
9.541016 0.000000 m /five glyphshow
grestore
2 setlinecap
gsave
1060 226.8 171 71.28 clipbox
171 287.770909 m
1231.2 287.770909 l
stroke
grestore
0 setlinecap
gsave
/o {
gsave
newpath
translate
0.8 setlinewidth
1 setlinejoin
0 setlinecap
0 0 m
-3.5 0 l

gsave
0.000 setgray
fill
grestore
stroke
grestore
} bind def
171 287.771 o
grestore
gsave
148.093750 283.974034 translate
0.000000 rotate
0.000000 0.000000 m /three glyphshow
6.362305 0.000000 m /period glyphshow
9.541016 0.000000 m /zero glyphshow
grestore
gsave
142.015625 136.719063 translate
90.000000 rotate
0.000000 0.000000 m /C glyphshow
6.982422 0.000000 m /o glyphshow
13.100586 0.000000 m /u glyphshow
19.438477 0.000000 m /n glyphshow
25.776367 0.000000 m /t glyphshow
29.697266 0.000000 m /space glyphshow
32.875977 0.000000 m /o glyphshow
38.994141 0.000000 m /f glyphshow
42.514648 0.000000 m /space glyphshow
45.693359 0.000000 m /m glyphshow
55.434570 0.000000 m /e glyphshow
61.586914 0.000000 m /s glyphshow
66.796875 0.000000 m /s glyphshow
72.006836 0.000000 m /a glyphshow
78.134766 0.000000 m /g glyphshow
84.482422 0.000000 m /e glyphshow
90.634766 0.000000 m /s glyphshow
grestore
1.500 setlinewidth
2 setlinecap
1.000 0.000 0.000 setrgbcolor
gsave
1060 226.8 171 71.28 clipbox
171.772688 81.589091 m
759.831486 81.589091 l
768.323868 150.316364 l
793.930393 150.316364 l
806.656387 287.770909 l
1228.587236 287.770909 l
1228.587236 287.770909 l
stroke
grestore
0.800 setlinewidth
0 setlinejoin
[] 0 setdash
0.000 setgray
gsave
171 71.28 m
171 298.08 l
stroke
grestore
gsave
1231.2 71.28 m
1231.2 298.08 l
stroke
grestore
gsave
171 71.28 m
1231.2 71.28 l
stroke
grestore
gsave
171 298.08 m
1231.2 298.08 l
stroke
grestore
1.000 setlinewidth
0 setlinecap
0.800 setgray
gsave
178 275.408125 m
284.21875 275.408125 l
285.552083 275.408125 286.21875 276.074792 286.21875 277.408125 c
286.21875 291.08 l
286.21875 292.413333 285.552083 293.08 284.21875 293.08 c
178 293.08 l
176.666667 293.08 176 292.413333 176 291.08 c
176 277.408125 l
176 276.074792 176.666667 275.408125 178 275.408125 c
cl
gsave
1.000 setgray
fill
grestore
stroke
grestore
1.500 setlinewidth
1 setlinejoin
2 setlinecap
[] 0 setdash
1.000 0.000 0.000 setrgbcolor
gsave
180 284.98625 m
200 284.98625 l
stroke
grestore
0.000 setgray
gsave
208.000000 281.486250 translate
0.000000 rotate
0.000000 0.000000 m /L glyphshow
5.571289 0.000000 m /o glyphshow
11.689453 0.000000 m /s glyphshow
16.899414 0.000000 m /t glyphshow
20.820312 0.000000 m /space glyphshow
23.999023 0.000000 m /m glyphshow
33.740234 0.000000 m /e glyphshow
39.892578 0.000000 m /s glyphshow
45.102539 0.000000 m /s glyphshow
50.312500 0.000000 m /a glyphshow
56.440430 0.000000 m /g glyphshow
62.788086 0.000000 m /e glyphshow
68.940430 0.000000 m /s glyphshow
grestore
0.800 setlinewidth
0 setlinecap
gsave
/o {
gsave
newpath
translate
0.8 setlinewidth
1 setlinejoin
0 setlinecap
0 0 m
0 3.5 l

gsave
0.000 setgray
fill
grestore
stroke
grestore
} bind def
244.675 570.24 o
grestore
gsave
241.675352 578.575793 translate
50.000000 rotate
0.000000 0.000000 m /zero glyphshow
6.362305 0.000000 m /period glyphshow
9.541016 0.000000 m /zero glyphshow
grestore
gsave
/o {
gsave
newpath
translate
0.8 setlinewidth
1 setlinejoin
0 setlinecap
0 0 m
0 3.5 l

gsave
0.000 setgray
fill
grestore
stroke
grestore
} bind def
339.913 570.24 o
grestore
gsave
336.913657 578.575793 translate
50.000000 rotate
0.000000 0.000000 m /zero glyphshow
6.362305 0.000000 m /period glyphshow
9.541016 0.000000 m /zero glyphshow
grestore
gsave
/o {
gsave
newpath
translate
0.8 setlinewidth
1 setlinejoin
0 setlinecap
0 0 m
0 3.5 l

gsave
0.000 setgray
fill
grestore
stroke
grestore
} bind def
386.634 570.24 o
grestore
gsave
383.634335 578.575793 translate
50.000000 rotate
0.000000 0.000000 m /zero glyphshow
6.362305 0.000000 m /period glyphshow
9.541016 0.000000 m /zero glyphshow
grestore
gsave
/o {
gsave
newpath
translate
0.8 setlinewidth
1 setlinejoin
0 setlinecap
0 0 m
0 3.5 l

gsave
0.000 setgray
fill
grestore
stroke
grestore
} bind def
431.558 570.24 o
grestore
gsave
428.558064 578.575793 translate
50.000000 rotate
0.000000 0.000000 m /zero glyphshow
6.362305 0.000000 m /period glyphshow
9.541016 0.000000 m /zero glyphshow
grestore
gsave
/o {
gsave
newpath
translate
0.8 setlinewidth
1 setlinejoin
0 setlinecap
0 0 m
0 3.5 l

gsave
0.000 setgray
fill
grestore
stroke
grestore
} bind def
471.091 570.24 o
grestore
gsave
468.090945 578.575793 translate
50.000000 rotate
0.000000 0.000000 m /zero glyphshow
6.362305 0.000000 m /period glyphshow
9.541016 0.000000 m /one glyphshow
grestore
gsave
/o {
gsave
newpath
translate
0.8 setlinewidth
1 setlinejoin
0 setlinecap
0 0 m
0 3.5 l

gsave
0.000 setgray
fill
grestore
stroke
grestore
} bind def
507.029 570.24 o
grestore
gsave
504.029928 578.575793 translate
50.000000 rotate
0.000000 0.000000 m /zero glyphshow
6.362305 0.000000 m /period glyphshow
9.541016 0.000000 m /two glyphshow
grestore
gsave
/o {
gsave
newpath
translate
0.8 setlinewidth
1 setlinejoin
0 setlinecap
0 0 m
0 3.5 l

gsave
0.000 setgray
fill
grestore
stroke
grestore
} bind def
542.968 570.24 o
grestore
gsave
539.968911 578.575793 translate
50.000000 rotate
0.000000 0.000000 m /zero glyphshow
6.362305 0.000000 m /period glyphshow
9.541016 0.000000 m /six glyphshow
grestore
gsave
/o {
gsave
newpath
translate
0.8 setlinewidth
1 setlinejoin
0 setlinecap
0 0 m
0 3.5 l

gsave
0.000 setgray
fill
grestore
stroke
grestore
} bind def
578.907 570.24 o
grestore
gsave
575.907894 578.575793 translate
50.000000 rotate
0.000000 0.000000 m /one glyphshow
6.362305 0.000000 m /period glyphshow
9.541016 0.000000 m /seven glyphshow
grestore
gsave
/o {
gsave
newpath
translate
0.8 setlinewidth
1 setlinejoin
0 setlinecap
0 0 m
0 3.5 l

gsave
0.000 setgray
fill
grestore
stroke
grestore
} bind def
622.034 570.24 o
grestore
gsave
619.034674 578.575793 translate
50.000000 rotate
0.000000 0.000000 m /five glyphshow
6.362305 0.000000 m /period glyphshow
9.541016 0.000000 m /five glyphshow
grestore
gsave
/o {
gsave
newpath
translate
0.8 setlinewidth
1 setlinejoin
0 setlinecap
0 0 m
0 3.5 l

gsave
0.000 setgray
fill
grestore
stroke
grestore
} bind def
668.755 570.24 o
grestore
gsave
663.711488 578.575793 translate
50.000000 rotate
0.000000 0.000000 m /one glyphshow
6.362305 0.000000 m /seven glyphshow
12.724609 0.000000 m /period glyphshow
15.903320 0.000000 m /four glyphshow
grestore
gsave
/o {
gsave
newpath
translate
0.8 setlinewidth
1 setlinejoin
0 setlinecap
0 0 m
0 3.5 l

gsave
0.000 setgray
fill
grestore
stroke
grestore
} bind def
728.054 570.24 o
grestore
gsave
723.010810 578.575793 translate
50.000000 rotate
0.000000 0.000000 m /five glyphshow
6.362305 0.000000 m /five glyphshow
12.724609 0.000000 m /period glyphshow
15.903320 0.000000 m /one glyphshow
grestore
gsave
/o {
gsave
newpath
translate
0.8 setlinewidth
1 setlinejoin
0 setlinecap
0 0 m
0 3.5 l

gsave
0.000 setgray
fill
grestore
stroke
grestore
} bind def
796.338 570.24 o
grestore
gsave
789.251014 578.575793 translate
50.000000 rotate
0.000000 0.000000 m /one glyphshow
6.362305 0.000000 m /seven glyphshow
12.724609 0.000000 m /four glyphshow
19.086914 0.000000 m /period glyphshow
22.265625 0.000000 m /two glyphshow
grestore
gsave
/o {
gsave
newpath
translate
0.8 setlinewidth
1 setlinejoin
0 setlinecap
0 0 m
0 3.5 l

gsave
0.000 setgray
fill
grestore
stroke
grestore
} bind def
844.856 570.24 o
grestore
gsave
837.768641 578.575793 translate
50.000000 rotate
0.000000 0.000000 m /one glyphshow
6.362305 0.000000 m /nine glyphshow
12.724609 0.000000 m /five glyphshow
19.086914 0.000000 m /period glyphshow
22.265625 0.000000 m /four glyphshow
grestore
gsave
/o {
gsave
newpath
translate
0.8 setlinewidth
1 setlinejoin
0 setlinecap
0 0 m
0 3.5 l

gsave
0.000 setgray
fill
grestore
stroke
grestore
} bind def
893.374 570.24 o
grestore
gsave
886.286269 578.575793 translate
50.000000 rotate
0.000000 0.000000 m /two glyphshow
6.362305 0.000000 m /one glyphshow
12.724609 0.000000 m /nine glyphshow
19.086914 0.000000 m /period glyphshow
22.265625 0.000000 m /three glyphshow
grestore
gsave
/o {
gsave
newpath
translate
0.8 setlinewidth
1 setlinejoin
0 setlinecap
0 0 m
0 3.5 l

gsave
0.000 setgray
fill
grestore
stroke
grestore
} bind def
977.83 570.24 o
grestore
gsave
970.742879 578.575793 translate
50.000000 rotate
0.000000 0.000000 m /two glyphshow
6.362305 0.000000 m /four glyphshow
12.724609 0.000000 m /six glyphshow
19.086914 0.000000 m /period glyphshow
22.265625 0.000000 m /zero glyphshow
grestore
gsave
/o {
gsave
newpath
translate
0.8 setlinewidth
1 setlinejoin
0 setlinecap
0 0 m
0 3.5 l

gsave
0.000 setgray
fill
grestore
stroke
grestore
} bind def
1055.1 570.24 o
grestore
gsave
1048.011692 578.575793 translate
50.000000 rotate
0.000000 0.000000 m /two glyphshow
6.362305 0.000000 m /seven glyphshow
12.724609 0.000000 m /six glyphshow
19.086914 0.000000 m /period glyphshow
22.265625 0.000000 m /one glyphshow
grestore
gsave
/o {
gsave
newpath
translate
0.8 setlinewidth
1 setlinejoin
0 setlinecap
0 0 m
0 3.5 l

gsave
0.000 setgray
fill
grestore
stroke
grestore
} bind def
1082.05 570.24 o
grestore
gsave
1074.965930 578.575793 translate
50.000000 rotate
0.000000 0.000000 m /three glyphshow
6.362305 0.000000 m /zero glyphshow
12.724609 0.000000 m /nine glyphshow
19.086914 0.000000 m /period glyphshow
22.265625 0.000000 m /eight glyphshow
grestore
gsave
/o {
gsave
newpath
translate
0.8 setlinewidth
1 setlinejoin
0 setlinecap
0 0 m
0 3.5 l

gsave
0.000 setgray
fill
grestore
stroke
grestore
} bind def
1134.16 570.24 o
grestore
gsave
1127.077455 578.575793 translate
50.000000 rotate
0.000000 0.000000 m /three glyphshow
6.362305 0.000000 m /four glyphshow
12.724609 0.000000 m /seven glyphshow
19.086914 0.000000 m /period glyphshow
22.265625 0.000000 m /five glyphshow
grestore
gsave
/o {
gsave
newpath
translate
0.8 setlinewidth
1 setlinejoin
0 setlinecap
0 0 m
0 3.5 l

gsave
0.000 setgray
fill
grestore
stroke
grestore
} bind def
1206.04 570.24 o
grestore
gsave
1198.955421 578.575793 translate
50.000000 rotate
0.000000 0.000000 m /three glyphshow
6.362305 0.000000 m /nine glyphshow
12.724609 0.000000 m /zero glyphshow
19.086914 0.000000 m /period glyphshow
22.265625 0.000000 m /zero glyphshow
grestore
gsave
575.818750 607.384984 translate
0.000000 rotate
0.000000 0.000000 m /T glyphshow
6.108398 0.000000 m /h glyphshow
12.446289 0.000000 m /e glyphshow
18.598633 0.000000 m /space glyphshow
21.777344 0.000000 m /a glyphshow
27.905273 0.000000 m /t glyphshow
31.826172 0.000000 m /t glyphshow
35.747070 0.000000 m /e glyphshow
41.899414 0.000000 m /n glyphshow
48.237305 0.000000 m /u glyphshow
54.575195 0.000000 m /a glyphshow
60.703125 0.000000 m /t glyphshow
64.624023 0.000000 m /i glyphshow
67.402344 0.000000 m /o glyphshow
73.520508 0.000000 m /n glyphshow
79.858398 0.000000 m /space glyphshow
83.037109 0.000000 m /a glyphshow
89.165039 0.000000 m /s glyphshow
94.375000 0.000000 m /space glyphshow
97.553711 0.000000 m /t glyphshow
101.474609 0.000000 m /h glyphshow
107.812500 0.000000 m /e glyphshow
113.964844 0.000000 m /o glyphshow
120.083008 0.000000 m /r glyphshow
124.194336 0.000000 m /e glyphshow
130.346680 0.000000 m /t glyphshow
134.267578 0.000000 m /i glyphshow
137.045898 0.000000 m /c glyphshow
142.543945 0.000000 m /a glyphshow
148.671875 0.000000 m /l glyphshow
151.450195 0.000000 m /space glyphshow
154.628906 0.000000 m /F glyphshow
160.380859 0.000000 m /S glyphshow
166.728516 0.000000 m /P glyphshow
172.758789 0.000000 m /L glyphshow
178.330078 0.000000 m /space glyphshow
181.508789 0.000000 m /d glyphshow
187.856445 0.000000 m /i glyphshow
190.634766 0.000000 m /s glyphshow
195.844727 0.000000 m /t glyphshow
199.765625 0.000000 m /a glyphshow
205.893555 0.000000 m /n glyphshow
212.231445 0.000000 m /c glyphshow
217.729492 0.000000 m /e glyphshow
223.881836 0.000000 m /space glyphshow
227.060547 0.000000 m /bracketleft glyphshow
230.961914 0.000000 m /k glyphshow
236.752930 0.000000 m /m glyphshow
246.494141 0.000000 m /bracketright glyphshow
grestore
0 setlinejoin
2 setlinecap
[] 0 setdash
gsave
171 343.44 m
171 570.24 l
stroke
grestore
gsave
1231.2 343.44 m
1231.2 570.24 l
stroke
grestore
gsave
171 343.44 m
1231.2 343.44 l
stroke
grestore
gsave
171 570.24 m
1231.2 570.24 l
stroke
grestore
/DejaVuSans-Bold findfont
14.000 scalefont
setfont
gsave
501.703125 624.399375 translate
0.000000 rotate
0.000000 0.000000 m /L glyphshow
8.920898 0.000000 m /o glyphshow
18.539062 0.000000 m /R glyphshow
29.319336 0.000000 m /a glyphshow
38.766602 0.000000 m /space glyphshow
43.640625 0.000000 m /w glyphshow
56.574219 0.000000 m /i glyphshow
61.373047 0.000000 m /t glyphshow
68.065430 0.000000 m /h glyphshow
78.032227 0.000000 m /space glyphshow
82.906250 0.000000 m /P glyphshow
93.166992 0.000000 m /r glyphshow
100.071289 0.000000 m /o glyphshow
109.689453 0.000000 m /c glyphshow
117.988281 0.000000 m /o glyphshow
127.606445 0.000000 m /m glyphshow
142.194336 0.000000 m /space glyphshow
147.068359 0.000000 m /A glyphshow
157.903320 0.000000 m /n glyphshow
167.870117 0.000000 m /t glyphshow
174.562500 0.000000 m /e glyphshow
184.057617 0.000000 m /n glyphshow
194.024414 0.000000 m /n glyphshow
203.991211 0.000000 m /a glyphshow
213.438477 0.000000 m /period glyphshow
218.756836 0.000000 m /space glyphshow
223.630859 0.000000 m /one glyphshow
233.372070 0.000000 m /two glyphshow
243.113281 0.000000 m /five glyphshow
252.854492 0.000000 m /k glyphshow
262.165039 0.000000 m /H glyphshow
273.881836 0.000000 m /z glyphshow
282.030273 0.000000 m /space glyphshow
286.904297 0.000000 m /b glyphshow
296.925781 0.000000 m /w glyphshow
309.859375 0.000000 m /comma glyphshow
315.177734 0.000000 m /space glyphshow
320.051758 0.000000 m /S glyphshow
330.134766 0.000000 m /F glyphshow
339.698242 0.000000 m /one glyphshow
349.439453 0.000000 m /two glyphshow
359.180664 0.000000 m /period glyphshow
grestore

end
showpage
