82954,155,0,502,-49,9
83456,156,0,500,-48,9
83959,157,0,499,-48,9
84457,158,0,500,-48,9
84959,159,0,500,-49,9
85463,160,0,500,-49,9
85964,161,0,499,-49,10
86462,162,0,500,-49,9
86964,163,0,500,-49,9
87468,164,0,499,-49,9
87965,165,0,500,-49,9
88465,166,0,500,-49,9
88969,167,0,500,-49,9
89468,168,0,499,-49,9
89968,169,0,500,-48,9
90470,170,0,500,-49,9
90974,171,0,500,-49,9
91473,172,0,499,-49,10
91973,173,0,500,-49,9
92477,174,0,500,-50,9
92979,175,0,500,-49,9
93476,176,0,499,-49,9
93978,177,0,500,-50,9
94482,178,0,500,-49,9
94978,179,0,500,-49,9
95481,180,0,499,-49,9
95983,181,0,500,-49,9
96481,182,0,500,-49,10
96983,183,0,500,-49,9
97484,184,0,499,-49,9
97988,185,0,500,-48,9
98484,186,0,500,-48,9
98988,187,0,499,-49,9
99491,188,0,499,-49,9
99987,189,0,500,-48,9
100489,190,0,500,-49,9
100993,191,0,499,-49,9
